timestamp	x	y	z
2017-09-20 12:57:23.893095	-18	0	0
2017-09-20 12:57:23.895568	-25	0	0
2017-09-20 12:57:23.898135	-20	0	0
2017-09-20 12:57:23.900559	-16	0	0
2017-09-20 12:57:23.908378	-11	0	0
2017-09-20 12:57:23.910812	-12	0	0
2017-09-20 12:57:23.913303	-23	0	0
2017-09-20 12:57:23.915799	-28	0	0
2017-09-20 12:57:23.919308	-7	0	0
2017-09-20 12:57:23.921771	-16	0	0
2017-09-20 12:57:23.924227	-8	0	0
2017-09-20 12:57:23.926757	-8	0	0
2017-09-20 12:57:23.929142	-8	0	0
2017-09-20 12:57:23.931636	1	0	0
2017-09-20 12:57:23.934136	-8	0	0
2017-09-20 12:57:23.936633	-2	0	0
2017-09-20 12:57:23.939135	-9	0	0
2017-09-20 12:57:23.941640	-1	0	0
2017-09-20 12:57:23.944138	2	0	0
2017-09-20 12:57:23.946641	-1	0	0
2017-09-20 12:57:23.949145	0	0	0
2017-09-20 12:57:23.951651	-2	0	0
2017-09-20 12:57:23.954153	-6	0	0
2017-09-20 12:57:23.956646	10	0	0
2017-09-20 12:57:23.959148	2	0	0
2017-09-20 12:57:23.961645	-11	0	0
2017-09-20 12:57:23.964144	-3	0	0
2017-09-20 12:57:23.966641	-10	0	0
2017-09-20 12:57:23.969141	-4	0	0
2017-09-20 12:57:23.971642	2	0	0
2017-09-20 12:57:23.974144	5	0	0
2017-09-20 12:57:23.976649	-7	0	0
2017-09-20 12:57:23.979154	2	0	0
2017-09-20 12:57:23.981656	-6	0	0
2017-09-20 12:57:23.984158	-15	0	0
2017-09-20 12:57:23.986660	-6	0	0
2017-09-20 12:57:23.989161	-7	0	0
2017-09-20 12:57:23.991666	-5	0	0
2017-09-20 12:57:23.994167	-9	0	0
2017-09-20 12:57:23.996668	-3	0	0
2017-09-20 12:57:23.999168	-6	0	0
2017-09-20 12:57:24.001665	-12	0	0
2017-09-20 12:57:24.004161	-12	0	0
2017-09-20 12:57:24.006658	-18	0	0
2017-09-20 12:57:24.009163	-18	0	0
2017-09-20 12:57:24.011665	-16	0	0
2017-09-20 12:57:24.014170	-5	0	0
2017-09-20 12:57:24.016667	-17	0	0
2017-09-20 12:57:24.019160	-21	0	0
2017-09-20 12:57:24.021660	-19	0	0
2017-09-20 12:57:24.024159	-8	0	0
2017-09-20 12:57:24.026654	-18	0	0
2017-09-20 12:57:24.029148	-21	0	0
2017-09-20 12:57:24.031645	-27	0	0
2017-09-20 12:57:24.034147	-12	0	0
2017-09-20 12:57:24.036651	-25	0	0
2017-09-20 12:57:24.039154	-25	0	0
2017-09-20 12:57:24.041652	-8	0	0
2017-09-20 12:57:24.044154	-21	0	0
2017-09-20 12:57:24.046650	-14	0	0
2017-09-20 12:57:24.049151	-16	0	0
2017-09-20 12:57:24.051652	-10	0	0
2017-09-20 12:57:24.054153	-9	0	0
2017-09-20 12:57:24.056656	-14	0	0
2017-09-20 12:57:24.059153	-6	0	0
2017-09-20 12:57:24.061657	-8	0	0
2017-09-20 12:57:24.064159	-30	0	0
2017-09-20 12:57:24.066662	-8	0	0
2017-09-20 12:57:24.069162	-8	0	0
2017-09-20 12:57:24.071661	-10	0	0
2017-09-20 12:57:24.074155	-14	0	0
2017-09-20 12:57:24.076658	-2	0	0
2017-09-20 12:57:24.079160	-11	0	0
2017-09-20 12:57:24.081653	-4	0	0
2017-09-20 12:57:24.084154	-5	0	0
2017-09-20 12:57:24.086655	-4	0	0
2017-09-20 12:57:24.089153	-10	0	0
2017-09-20 12:57:24.091653	-3	0	0
2017-09-20 12:57:24.094148	-15	0	0
2017-09-20 12:57:24.096652	-8	0	0
2017-09-20 12:57:24.099156	-5	0	0
2017-09-20 12:57:24.101661	-7	0	0
2017-09-20 12:57:24.104163	-12	0	0
2017-09-20 12:57:24.106670	-4	0	0
2017-09-20 12:57:24.109170	-12	0	0
2017-09-20 12:57:24.111676	-8	0	0
2017-09-20 12:57:24.114178	-13	0	0
2017-09-20 12:57:24.116684	-13	0	0
2017-09-20 12:57:24.119182	-3	0	0
2017-09-20 12:57:24.121686	-7	0	0
2017-09-20 12:57:24.124185	-17	0	0
2017-09-20 12:57:24.126686	-26	0	0
2017-09-20 12:57:24.129190	-11	0	0
2017-09-20 12:57:24.131692	-15	0	0
2017-09-20 12:57:24.134197	-21	0	0
2017-09-20 12:57:24.136697	-11	0	0
2017-09-20 12:57:24.139198	-9	0	0
2017-09-20 12:57:24.141693	-17	0	0
2017-09-20 12:57:24.144197	-21	0	0
2017-09-20 12:57:24.146690	-15	0	0
2017-09-20 12:57:24.149192	-10	0	0
2017-09-20 12:57:24.151690	-20	0	0
2017-09-20 12:57:24.154193	-23	0	0
2017-09-20 12:57:24.156693	-20	0	0
2017-09-20 12:57:24.159189	-17	0	0
2017-09-20 12:57:24.161691	-14	0	0
2017-09-20 12:57:24.164189	-26	0	0
2017-09-20 12:57:24.166694	-10	0	0
2017-09-20 12:57:24.169197	-13	0	0
2017-09-20 12:57:24.171698	-25	0	0
2017-09-20 12:57:24.174199	-20	0	0
2017-09-20 12:57:24.176701	-14	0	0
2017-09-20 12:57:24.179205	-6	0	0
2017-09-20 12:57:24.181708	-11	0	0
2017-09-20 12:57:24.184208	-11	0	0
2017-09-20 12:57:24.186701	-8	0	0
2017-09-20 12:57:24.189204	-11	0	0
2017-09-20 12:57:24.191708	-10	0	0
2017-09-20 12:57:24.194210	1	0	0
2017-09-20 12:57:24.196706	-6	0	0
2017-09-20 12:57:24.199211	-3	0	0
2017-09-20 12:57:24.201709	5	0	0
2017-09-20 12:57:24.204209	-4	0	0
2017-09-20 12:57:24.206711	2	0	0
2017-09-20 12:57:24.209211	-5	0	0
2017-09-20 12:57:24.211706	-3	0	0
2017-09-20 12:57:24.214208	-5	0	0
2017-09-20 12:57:24.216704	-10	0	0
2017-09-20 12:57:24.219205	7	0	0
2017-09-20 12:57:24.221707	-11	0	0
2017-09-20 12:57:24.224207	-1	0	0
2017-09-20 12:57:24.226707	-9	0	0
2017-09-20 12:57:24.229208	-9	0	0
2017-09-20 12:57:24.231710	-6	0	0
2017-09-20 12:57:24.234204	-13	0	0
2017-09-20 12:57:24.236710	-6	0	0
2017-09-20 12:57:24.239210	-2	0	0
2017-09-20 12:57:24.241713	-9	0	0
2017-09-20 12:57:24.244212	-15	0	0
2017-09-20 12:57:24.246713	-18	0	0
2017-09-20 12:57:24.249211	-11	0	0
2017-09-20 12:57:24.251705	-8	0	0
2017-09-20 12:57:24.254202	-7	0	0
2017-09-20 12:57:24.256707	-18	0	0
2017-09-20 12:57:24.259209	-7	0	0
2017-09-20 12:57:24.261710	-28	0	0
2017-09-20 12:57:24.264205	-9	0	0
2017-09-20 12:57:24.266707	-18	0	0
2017-09-20 12:57:24.269207	-22	0	0
2017-09-20 12:57:24.271702	-24	0	0
2017-09-20 12:57:24.274203	-14	0	0
2017-09-20 12:57:24.276708	-9	0	0
2017-09-20 12:57:24.279209	-17	0	0
2017-09-20 12:57:24.281712	-15	0	0
2017-09-20 12:57:24.284212	-21	0	0
2017-09-20 12:57:24.286758	-17	0	0
2017-09-20 12:57:24.289256	-17	0	0
2017-09-20 12:57:24.291723	-16	0	0
2017-09-20 12:57:24.294215	-13	0	0
2017-09-20 12:57:24.296722	-11	0	0
2017-09-20 12:57:24.299223	-22	0	0
2017-09-20 12:57:24.301724	-11	0	0
2017-09-20 12:57:24.304218	-13	0	0
2017-09-20 12:57:24.306721	-11	0	0
2017-09-20 12:57:24.309218	-19	0	0
2017-09-20 12:57:24.311711	-9	0	0
2017-09-20 12:57:24.314217	-11	0	0
2017-09-20 12:57:24.316719	-8	0	0
2017-09-20 12:57:24.319220	-13	0	0
2017-09-20 12:57:24.321723	-4	0	0
2017-09-20 12:57:24.324225	-14	0	0
2017-09-20 12:57:24.326726	-12	0	0
2017-09-20 12:57:24.329225	-20	0	0
2017-09-20 12:57:24.331728	-1	0	0
2017-09-20 12:57:24.334231	5	0	0
2017-09-20 12:57:24.336731	5	0	0
2017-09-20 12:57:24.339229	-8	0	0
2017-09-20 12:57:24.341734	-5	0	0
2017-09-20 12:57:24.344232	2	0	0
2017-09-20 12:57:24.346734	-3	0	0
2017-09-20 12:57:24.349235	3	0	0
2017-09-20 12:57:24.351741	-5	0	0
2017-09-20 12:57:24.354242	8	0	0
2017-09-20 12:57:24.356745	4	0	0
2017-09-20 12:57:24.359248	-4	0	0
2017-09-20 12:57:24.361751	0	0	0
2017-09-20 12:57:24.364252	4	0	0
2017-09-20 12:57:24.366750	-5	0	0
2017-09-20 12:57:24.369245	2	0	0
2017-09-20 12:57:24.371750	-9	0	0
2017-09-20 12:57:24.374252	-6	0	0
2017-09-20 12:57:24.376755	-2	0	0
2017-09-20 12:57:24.379255	-4	0	0
2017-09-20 12:57:24.381758	-11	0	0
2017-09-20 12:57:24.384257	-3	0	0
2017-09-20 12:57:24.386760	-7	0	0
2017-09-20 12:57:24.389261	-4	0	0
2017-09-20 12:57:24.391765	-9	0	0
2017-09-20 12:57:24.394267	-6	0	0
2017-09-20 12:57:24.396772	-17	0	0
2017-09-20 12:57:24.399270	-10	0	0
2017-09-20 12:57:24.401772	-9	0	0
2017-09-20 12:57:24.404267	-14	0	0
2017-09-20 12:57:24.406768	-10	0	0
2017-09-20 12:57:24.409269	-18	0	0
2017-09-20 12:57:24.411773	-24	0	0
2017-09-20 12:57:24.414274	-19	0	0
2017-09-20 12:57:24.416775	-11	0	0
2017-09-20 12:57:24.419276	-9	0	0
2017-09-20 12:57:24.421781	-17	0	0
2017-09-20 12:57:24.424280	-17	0	0
2017-09-20 12:57:24.426779	-17	0	0
2017-09-20 12:57:24.429280	-19	0	0
2017-09-20 12:57:24.431782	-25	0	0
2017-09-20 12:57:24.434285	-16	0	0
2017-09-20 12:57:24.436788	-13	0	0
2017-09-20 12:57:24.439291	-17	0	0
2017-09-20 12:57:24.441786	-16	0	0
2017-09-20 12:57:24.444287	-15	0	0
2017-09-20 12:57:24.446787	-10	0	0
2017-09-20 12:57:24.449293	-21	0	0
2017-09-20 12:57:24.451797	-20	0	0
2017-09-20 12:57:24.454300	-20	0	0
2017-09-20 12:57:24.456801	-16	0	0
2017-09-20 12:57:24.459304	-22	0	0
2017-09-20 12:57:24.461807	-23	0	0
2017-09-20 12:57:24.464312	-20	0	0
2017-09-20 12:57:24.466812	-16	0	0
2017-09-20 12:57:24.469312	-20	0	0
2017-09-20 12:57:24.471814	-13	0	0
2017-09-20 12:57:24.474316	-8	0	0
2017-09-20 12:57:24.476817	-11	0	0
2017-09-20 12:57:24.479313	-10	0	0
2017-09-20 12:57:24.481813	-12	0	0
2017-09-20 12:57:24.484317	-11	0	0
2017-09-20 12:57:24.486817	-13	0	0
2017-09-20 12:57:24.489315	-9	0	0
2017-09-20 12:57:24.491808	-11	0	0
2017-09-20 12:57:24.494317	-8	0	0
2017-09-20 12:57:24.496808	-15	0	0
2017-09-20 12:57:24.499313	-10	0	0
2017-09-20 12:57:24.501814	-9	0	0
2017-09-20 12:57:24.504316	-1	0	0
2017-09-20 12:57:24.506820	-7	0	0
2017-09-20 12:57:24.509320	-12	0	0
2017-09-20 12:57:24.511825	-16	0	0
2017-09-20 12:57:24.514329	-21	0	0
2017-09-20 12:57:24.516833	-8	0	0
2017-09-20 12:57:24.519331	-15	0	0
2017-09-20 12:57:24.521833	-13	0	0
2017-09-20 12:57:24.524326	-3	0	0
2017-09-20 12:57:24.526830	-14	0	0
2017-09-20 12:57:24.529331	-9	0	0
2017-09-20 12:57:24.531834	-14	0	0
2017-09-20 12:57:24.534338	-12	0	0
2017-09-20 12:57:24.536841	-15	0	0
2017-09-20 12:57:24.539343	-10	0	0
2017-09-20 12:57:24.541844	-12	0	0
2017-09-20 12:57:24.544348	-7	0	0
2017-09-20 12:57:24.546850	-4	0	0
2017-09-20 12:57:24.549348	-14	0	0
2017-09-20 12:57:24.551852	-8	0	0
2017-09-20 12:57:24.554357	-17	0	0
2017-09-20 12:57:24.556861	-7	0	0
2017-09-20 12:57:24.559362	-9	0	0
2017-09-20 12:57:24.561864	-12	0	0
2017-09-20 12:57:24.564365	-22	0	0
2017-09-20 12:57:24.566867	-12	0	0
2017-09-20 12:57:24.569368	-16	0	0
2017-09-20 12:57:24.571873	-9	0	0
2017-09-20 12:57:24.574367	-6	0	0
2017-09-20 12:57:24.576872	-11	0	0
2017-09-20 12:57:24.579376	-13	0	0
2017-09-20 12:57:24.581880	-16	0	0
2017-09-20 12:57:24.584382	-17	0	0
2017-09-20 12:57:24.586882	-17	0	0
2017-09-20 12:57:24.589382	-13	0	0
2017-09-20 12:57:24.591884	-9	0	0
2017-09-20 12:57:24.594382	-4	0	0
2017-09-20 12:57:24.596884	-13	0	0
2017-09-20 12:57:24.599379	-10	0	0
2017-09-20 12:57:24.601879	-9	0	0
2017-09-20 12:57:24.604385	-9	0	0
2017-09-20 12:57:24.606885	-5	0	0
2017-09-20 12:57:24.609385	-11	0	0
2017-09-20 12:57:24.611890	-13	0	0
2017-09-20 12:57:24.614395	-2	0	0
2017-09-20 12:57:24.616900	-24	0	0
2017-09-20 12:57:24.619399	-7	0	0
2017-09-20 12:57:24.621901	-8	0	0
2017-09-20 12:57:24.624401	-7	0	0
2017-09-20 12:57:24.626900	-12	0	0
2017-09-20 12:57:24.629397	-4	0	0
2017-09-20 12:57:24.631892	-3	0	0
2017-09-20 12:57:24.634396	-1	0	0
2017-09-20 12:57:24.636900	-17	0	0
2017-09-20 12:57:24.639398	-22	0	0
2017-09-20 12:57:24.641899	3	0	0
2017-09-20 12:57:24.644403	-1	0	0
2017-09-20 12:57:24.646909	-3	0	0
2017-09-20 12:57:24.649403	0	0	0
2017-09-20 12:57:24.651908	-6	0	0
2017-09-20 12:57:24.654410	-7	0	0
2017-09-20 12:57:24.656914	-8	0	0
2017-09-20 12:57:24.659412	-3	0	0
2017-09-20 12:57:24.661913	0	0	0
2017-09-20 12:57:24.664413	-1	0	0
2017-09-20 12:57:24.666912	-3	0	0
2017-09-20 12:57:24.669417	-10	0	0
2017-09-20 12:57:24.671923	-8	0	0
2017-09-20 12:57:24.674423	0	0	0
2017-09-20 12:57:24.676925	-13	0	0
2017-09-20 12:57:24.679427	-11	0	0
2017-09-20 12:57:24.681923	-8	0	0
2017-09-20 12:57:24.684427	-6	0	0
2017-09-20 12:57:24.686929	-8	0	0
2017-09-20 12:57:24.689432	-11	0	0
2017-09-20 12:57:24.691937	-11	0	0
2017-09-20 12:57:24.694441	-7	0	0
2017-09-20 12:57:24.696941	-9	0	0
2017-09-20 12:57:24.699443	-3	0	0
2017-09-20 12:57:24.701941	-16	0	0
2017-09-20 12:57:24.704441	-2	0	0
2017-09-20 12:57:24.706945	-9	0	0
2017-09-20 12:57:24.709443	-11	0	0
2017-09-20 12:57:24.711944	-8	0	0
2017-09-20 12:57:24.714446	-19	0	0
2017-09-20 12:57:24.716951	-17	0	0
2017-09-20 12:57:24.719452	-20	0	0
2017-09-20 12:57:24.721945	-20	0	0
2017-09-20 12:57:24.724446	-17	0	0
2017-09-20 12:57:24.726943	-20	0	0
2017-09-20 12:57:24.729444	-14	0	0
2017-09-20 12:57:24.731949	-17	0	0
2017-09-20 12:57:24.734452	-21	0	0
2017-09-20 12:57:24.736954	-16	0	0
2017-09-20 12:57:24.739453	-11	0	0
2017-09-20 12:57:24.741959	-9	0	0
2017-09-20 12:57:24.744459	-16	0	0
2017-09-20 12:57:24.746961	-18	0	0
2017-09-20 12:57:24.749458	-20	0	0
2017-09-20 12:57:24.751960	-12	0	0
2017-09-20 12:57:24.754462	-16	0	0
2017-09-20 12:57:24.756962	-17	0	0
2017-09-20 12:57:24.759463	-16	0	0
2017-09-20 12:57:24.761970	-23	0	0
2017-09-20 12:57:24.764465	-9	0	0
2017-09-20 12:57:24.766966	-20	0	0
2017-09-20 12:57:24.769466	-10	0	0
2017-09-20 12:57:24.771970	-4	0	0
2017-09-20 12:57:24.774464	-18	0	0
2017-09-20 12:57:24.776959	-9	0	0
2017-09-20 12:57:24.779458	-11	0	0
2017-09-20 12:57:24.781958	-18	0	0
2017-09-20 12:57:24.784458	-9	0	0
2017-09-20 12:57:24.786963	-5	0	0
2017-09-20 12:57:24.789462	-14	0	0
2017-09-20 12:57:24.791964	-13	0	0
2017-09-20 12:57:24.794465	-8	0	0
2017-09-20 12:57:24.796964	-4	0	0
2017-09-20 12:57:24.799470	-8	0	0
2017-09-20 12:57:24.801974	-7	0	0
2017-09-20 12:57:24.804478	-15	0	0
2017-09-20 12:57:24.806978	-4	0	0
2017-09-20 12:57:24.809475	-16	0	0
2017-09-20 12:57:24.811970	-12	0	0
2017-09-20 12:57:24.814472	-9	0	0
2017-09-20 12:57:24.816973	-7	0	0
2017-09-20 12:57:24.819473	-9	0	0
2017-09-20 12:57:24.821977	-19	0	0
2017-09-20 12:57:24.824478	-11	0	0
2017-09-20 12:57:24.826976	-4	0	0
2017-09-20 12:57:24.829480	-14	0	0
2017-09-20 12:57:24.831984	-21	0	0
2017-09-20 12:57:24.834488	-14	0	0
2017-09-20 12:57:24.836984	-5	0	0
2017-09-20 12:57:24.839487	-28	0	0
2017-09-20 12:57:24.841989	-15	0	0
2017-09-20 12:57:24.844489	-8	0	0
2017-09-20 12:57:24.846986	-9	0	0
2017-09-20 12:57:24.849485	-12	0	0
2017-09-20 12:57:24.851991	-18	0	0
2017-09-20 12:57:24.854496	-13	0	0
2017-09-20 12:57:24.857001	-8	0	0
2017-09-20 12:57:24.859501	-18	0	0
2017-09-20 12:57:24.862001	-20	0	0
2017-09-20 12:57:24.864503	-22	0	0
2017-09-20 12:57:24.867006	-22	0	0
2017-09-20 12:57:24.869509	-15	0	0
2017-09-20 12:57:24.872010	-11	0	0
2017-09-20 12:57:24.874516	-17	0	0
2017-09-20 12:57:24.877021	-1	0	0
2017-09-20 12:57:24.879516	-25	0	0
2017-09-20 12:57:24.882019	-5	0	0
2017-09-20 12:57:24.884526	-14	0	0
2017-09-20 12:57:24.887028	-15	0	0
2017-09-20 12:57:24.889527	-9	0	0
2017-09-20 12:57:24.892030	-6	0	0
2017-09-20 12:57:24.894531	-11	0	0
2017-09-20 12:57:24.897032	-5	0	0
2017-09-20 12:57:24.899530	-12	0	0
2017-09-20 12:57:24.902027	-4	0	0
2017-09-20 12:57:24.904527	-5	0	0
2017-09-20 12:57:24.907030	-10	0	0
2017-09-20 12:57:24.909528	0	0	0
2017-09-20 12:57:24.912022	-10	0	0
2017-09-20 12:57:24.914524	3	0	0
2017-09-20 12:57:24.917026	-6	0	0
2017-09-20 12:57:24.919524	2	0	0
2017-09-20 12:57:24.922027	0	0	0
2017-09-20 12:57:24.924530	-4	0	0
2017-09-20 12:57:24.927036	-7	0	0
2017-09-20 12:57:24.929535	-4	0	0
2017-09-20 12:57:24.932039	-8	0	0
2017-09-20 12:57:24.934542	-7	0	0
2017-09-20 12:57:24.937047	-9	0	0
2017-09-20 12:57:24.939546	-3	0	0
2017-09-20 12:57:24.942050	-3	0	0
2017-09-20 12:57:24.944552	-13	0	0
2017-09-20 12:57:24.947048	-5	0	0
2017-09-20 12:57:24.949547	-7	0	0
2017-09-20 12:57:24.952049	-14	0	0
2017-09-20 12:57:24.954552	-12	0	0
2017-09-20 12:57:24.957052	-14	0	0
2017-09-20 12:57:24.959551	-13	0	0
2017-09-20 12:57:24.962056	-11	0	0
2017-09-20 12:57:24.964556	-5	0	0
2017-09-20 12:57:24.967060	-10	0	0
2017-09-20 12:57:24.969556	-12	0	0
2017-09-20 12:57:24.972052	-22	0	0
2017-09-20 12:57:24.974552	-16	0	0
2017-09-20 12:57:24.977053	-14	0	0
2017-09-20 12:57:24.979548	-24	0	0
2017-09-20 12:57:24.982047	-5	0	0
2017-09-20 12:57:24.984551	-22	0	0
2017-09-20 12:57:24.987052	-13	0	0
2017-09-20 12:57:24.989554	-16	0	0
2017-09-20 12:57:24.992046	-7	0	0
2017-09-20 12:57:24.994547	-15	0	0
2017-09-20 12:57:24.997049	-9	0	0
2017-09-20 12:57:24.999551	-15	0	0
2017-09-20 12:57:25.002046	-7	0	0
2017-09-20 12:57:25.004549	-18	0	0
2017-09-20 12:57:25.007053	-19	0	0
2017-09-20 12:57:25.009556	-16	0	0
2017-09-20 12:57:25.012051	-12	0	0
2017-09-20 12:57:25.014550	-19	0	0
2017-09-20 12:57:25.017055	-15	0	0
2017-09-20 12:57:25.019556	-12	0	0
2017-09-20 12:57:25.022054	-10	0	0
2017-09-20 12:57:25.024551	-5	0	0
2017-09-20 12:57:25.027054	-13	0	0
2017-09-20 12:57:25.029548	-4	0	0
2017-09-20 12:57:25.032048	-9	0	0
2017-09-20 12:57:25.034543	-11	0	0
2017-09-20 12:57:25.037041	-13	0	0
2017-09-20 12:57:25.039541	-4	0	0
2017-09-20 12:57:25.042044	-13	0	0
2017-09-20 12:57:25.044544	-13	0	0
2017-09-20 12:57:25.047047	-7	0	0
2017-09-20 12:57:25.049543	-10	0	0
2017-09-20 12:57:25.052043	-7	0	0
2017-09-20 12:57:25.054548	-13	0	0
2017-09-20 12:57:25.057044	-14	0	0
2017-09-20 12:57:25.059553	-14	0	0
2017-09-20 12:57:25.062049	-15	0	0
2017-09-20 12:57:25.064548	-3	0	0
2017-09-20 12:57:25.067046	-2	0	0
2017-09-20 12:57:25.069541	-8	0	0
2017-09-20 12:57:25.072045	-10	0	0
2017-09-20 12:57:25.074550	-1	0	0
2017-09-20 12:57:25.077054	-4	0	0
2017-09-20 12:57:25.079556	-13	0	0
2017-09-20 12:57:25.082052	-12	0	0
2017-09-20 12:57:25.084554	-10	0	0
2017-09-20 12:57:25.087049	-12	0	0
2017-09-20 12:57:25.089578	-7	0	0
2017-09-20 12:57:25.092046	1	0	0
2017-09-20 12:57:25.094548	-8	0	0
2017-09-20 12:57:25.097048	0	0	0
2017-09-20 12:57:25.099553	-13	0	0
2017-09-20 12:57:25.102059	-3	0	0
2017-09-20 12:57:25.104561	-14	0	0
2017-09-20 12:57:25.107060	-9	0	0
2017-09-20 12:57:25.109564	-6	0	0
2017-09-20 12:57:25.112060	-11	0	0
2017-09-20 12:57:25.114554	-10	0	0
2017-09-20 12:57:25.117057	-12	0	0
2017-09-20 12:57:25.119558	-8	0	0
2017-09-20 12:57:25.122059	-10	0	0
2017-09-20 12:57:25.124560	-10	0	0
2017-09-20 12:57:25.127061	-2	0	0
2017-09-20 12:57:25.129559	-13	0	0
2017-09-20 12:57:25.132057	-16	0	0
2017-09-20 12:57:25.134560	-12	0	0
2017-09-20 12:57:25.137059	-3	0	0
2017-09-20 12:57:25.139563	-16	0	0
2017-09-20 12:57:25.142066	-23	0	0
2017-09-20 12:57:25.144567	-14	0	0
2017-09-20 12:57:25.147070	-18	0	0
2017-09-20 12:57:25.149567	-20	0	0
2017-09-20 12:57:25.152060	-16	0	0
2017-09-20 12:57:25.154566	-15	0	0
2017-09-20 12:57:25.157067	-12	0	0
2017-09-20 12:57:25.159566	-28	0	0
2017-09-20 12:57:25.162062	-12	0	0
2017-09-20 12:57:25.164568	-8	0	0
2017-09-20 12:57:25.167071	-9	0	0
2017-09-20 12:57:25.169566	-17	0	0
2017-09-20 12:57:25.172068	-27	0	0
2017-09-20 12:57:25.174573	-17	0	0
2017-09-20 12:57:25.177071	-14	0	0
2017-09-20 12:57:25.179576	-10	0	0
2017-09-20 12:57:25.182080	-14	0	0
2017-09-20 12:57:25.184581	-23	0	0
2017-09-20 12:57:25.187085	-19	0	0
2017-09-20 12:57:25.189589	-11	0	0
2017-09-20 12:57:25.192091	-16	0	0
2017-09-20 12:57:25.194595	-16	0	0
2017-09-20 12:57:25.197092	0	0	0
2017-09-20 12:57:25.199590	-4	0	0
2017-09-20 12:57:25.202087	-3	0	0
2017-09-20 12:57:25.204587	-10	0	0
2017-09-20 12:57:25.207089	-15	0	0
2017-09-20 12:57:25.209585	-12	0	0
2017-09-20 12:57:25.212086	-15	0	0
2017-09-20 12:57:25.214588	-7	0	0
2017-09-20 12:57:25.217090	-20	0	0
2017-09-20 12:57:25.219593	-13	0	0
2017-09-20 12:57:25.222098	-12	0	0
2017-09-20 12:57:25.224603	-6	0	0
2017-09-20 12:57:25.227109	-4	0	0
2017-09-20 12:57:25.229610	-4	0	0
2017-09-20 12:57:25.232114	1	0	0
2017-09-20 12:57:25.234612	3	0	0
2017-09-20 12:57:25.237116	-6	0	0
2017-09-20 12:57:25.239619	-6	0	0
2017-09-20 12:57:25.242120	-2	0	0
2017-09-20 12:57:25.244620	-11	0	0
2017-09-20 12:57:25.247121	-12	0	0
2017-09-20 12:57:25.249619	-8	0	0
2017-09-20 12:57:25.252119	-2	0	0
2017-09-20 12:57:25.254621	-9	0	0
2017-09-20 12:57:25.257121	-1	0	0
2017-09-20 12:57:25.259621	-3	0	0
2017-09-20 12:57:25.262123	-11	0	0
2017-09-20 12:57:25.264625	-5	0	0
2017-09-20 12:57:25.267131	-5	0	0
2017-09-20 12:57:25.269629	-22	0	0
2017-09-20 12:57:25.272128	-12	0	0
2017-09-20 12:57:25.274622	-10	0	0
2017-09-20 12:57:25.277126	-1	0	0
2017-09-20 12:57:25.279627	-12	0	0
2017-09-20 12:57:25.282132	-21	0	0
2017-09-20 12:57:25.284632	-22	0	0
2017-09-20 12:57:25.287135	-17	0	0
2017-09-20 12:57:25.289632	-29	0	0
2017-09-20 12:57:25.292135	-17	0	0
2017-09-20 12:57:25.294639	-13	0	0
2017-09-20 12:57:25.297134	-23	0	0
2017-09-20 12:57:25.299639	-15	0	0
2017-09-20 12:57:25.302141	-23	0	0
2017-09-20 12:57:25.304642	-16	0	0
2017-09-20 12:57:25.307147	-17	0	0
2017-09-20 12:57:25.309648	-17	0	0
2017-09-20 12:57:25.312151	-11	0	0
2017-09-20 12:57:25.314655	-16	0	0
2017-09-20 12:57:25.317158	-7	0	0
2017-09-20 12:57:25.319653	-20	0	0
2017-09-20 12:57:25.322152	-15	0	0
2017-09-20 12:57:25.324646	-21	0	0
2017-09-20 12:57:25.327146	-10	0	0
2017-09-20 12:57:25.329641	-23	0	0
2017-09-20 12:57:25.332143	-7	0	0
2017-09-20 12:57:25.334645	-13	0	0
2017-09-20 12:57:25.337147	-10	0	0
2017-09-20 12:57:25.339647	-10	0	0
2017-09-20 12:57:25.342148	-17	0	0
2017-09-20 12:57:25.344652	-13	0	0
2017-09-20 12:57:25.347150	-24	0	0
2017-09-20 12:57:25.349657	-14	0	0
2017-09-20 12:57:25.352161	-8	0	0
2017-09-20 12:57:25.354664	-6	0	0
2017-09-20 12:57:25.357167	-7	0	0
2017-09-20 12:57:25.359664	-2	0	0
2017-09-20 12:57:25.362163	2	0	0
2017-09-20 12:57:25.364665	-2	0	0
2017-09-20 12:57:25.367168	-2	0	0
2017-09-20 12:57:25.369663	-9	0	0
2017-09-20 12:57:25.372165	-3	0	0
2017-09-20 12:57:25.374668	-2	0	0
2017-09-20 12:57:25.377170	3	0	0
2017-09-20 12:57:25.379676	8	0	0
2017-09-20 12:57:25.382166	12	0	0
2017-09-20 12:57:25.384669	-6	0	0
2017-09-20 12:57:25.387172	9	0	0
2017-09-20 12:57:25.389672	2	0	0
2017-09-20 12:57:25.392172	6	0	0
2017-09-20 12:57:25.394673	-1	0	0
2017-09-20 12:57:25.397170	3	0	0
2017-09-20 12:57:25.399667	-4	0	0
2017-09-20 12:57:25.402162	-6	0	0
2017-09-20 12:57:25.404658	5	0	0
2017-09-20 12:57:25.407158	-13	0	0
2017-09-20 12:57:25.409654	0	0	0
2017-09-20 12:57:25.412161	-9	0	0
2017-09-20 12:57:25.414655	-5	0	0
2017-09-20 12:57:25.417158	-9	0	0
2017-09-20 12:57:25.419655	-13	0	0
2017-09-20 12:57:25.422149	-9	0	0
2017-09-20 12:57:25.424652	-19	0	0
2017-09-20 12:57:25.427155	-16	0	0
2017-09-20 12:57:25.429654	-13	0	0
2017-09-20 12:57:25.432156	0	0	0
2017-09-20 12:57:25.434662	-14	0	0
2017-09-20 12:57:25.437158	-16	0	0
2017-09-20 12:57:25.439658	-18	0	0
2017-09-20 12:57:25.442159	-14	0	0
2017-09-20 12:57:25.444661	-16	0	0
2017-09-20 12:57:25.447159	-15	0	0
2017-09-20 12:57:25.449655	-20	0	0
2017-09-20 12:57:25.452159	-16	0	0
2017-09-20 12:57:25.454665	-25	0	0
2017-09-20 12:57:25.457160	-22	0	0
2017-09-20 12:57:25.459664	-18	0	0
2017-09-20 12:57:25.462163	-22	0	0
2017-09-20 12:57:25.464658	-18	0	0
2017-09-20 12:57:25.467158	-20	0	0
2017-09-20 12:57:25.469661	-22	0	0
2017-09-20 12:57:25.472155	-25	0	0
2017-09-20 12:57:25.474658	-24	0	0
2017-09-20 12:57:25.477162	-25	0	0
2017-09-20 12:57:25.479658	-21	0	0
2017-09-20 12:57:25.482162	-28	0	0
2017-09-20 12:57:25.484667	-9	0	0
2017-09-20 12:57:25.487162	-17	0	0
2017-09-20 12:57:25.489659	-36	0	0
2017-09-20 12:57:25.492162	-21	0	0
2017-09-20 12:57:25.494663	-24	0	0
2017-09-20 12:57:25.497169	-12	0	0
2017-09-20 12:57:25.499671	-18	0	0
2017-09-20 12:57:25.502175	-20	0	0
2017-09-20 12:57:25.504678	-26	0	0
2017-09-20 12:57:25.507178	-12	0	0
2017-09-20 12:57:25.509679	-19	0	0
2017-09-20 12:57:25.512184	-28	0	0
2017-09-20 12:57:25.514687	-16	0	0
2017-09-20 12:57:25.517193	-18	0	0
2017-09-20 12:57:25.519690	-19	0	0
2017-09-20 12:57:25.522191	-11	0	0
2017-09-20 12:57:25.524695	-6	0	0
2017-09-20 12:57:25.527197	-18	0	0
2017-09-20 12:57:25.529695	-19	0	0
2017-09-20 12:57:25.532194	-6	0	0
2017-09-20 12:57:25.534697	-14	0	0
2017-09-20 12:57:25.537198	-9	0	0
2017-09-20 12:57:25.539700	-3	0	0
2017-09-20 12:57:25.542204	-5	0	0
2017-09-20 12:57:25.544705	-7	0	0
2017-09-20 12:57:25.547203	5	0	0
2017-09-20 12:57:25.549702	-9	0	0
2017-09-20 12:57:25.552207	-3	0	0
2017-09-20 12:57:25.554710	0	0	0
2017-09-20 12:57:25.557214	-1	0	0
2017-09-20 12:57:25.559710	-10	0	0
2017-09-20 12:57:25.562211	-26	0	0
2017-09-20 12:57:25.564710	-9	0	0
2017-09-20 12:57:25.567207	-7	0	0
2017-09-20 12:57:25.569704	-16	0	0
2017-09-20 12:57:25.572198	-5	0	0
2017-09-20 12:57:25.574701	-8	0	0
2017-09-20 12:57:25.577204	-4	0	0
2017-09-20 12:57:25.579706	-3	0	0
2017-09-20 12:57:25.582204	0	0	0
2017-09-20 12:57:25.584709	-2	0	0
2017-09-20 12:57:25.587210	4	0	0
2017-09-20 12:57:25.589716	-7	0	0
2017-09-20 12:57:25.592215	6	0	0
2017-09-20 12:57:25.594710	1	0	0
2017-09-20 12:57:25.597210	-3	0	0
2017-09-20 12:57:25.599706	-8	0	0
2017-09-20 12:57:25.602205	4	0	0
2017-09-20 12:57:25.604711	1	0	0
2017-09-20 12:57:25.607213	-3	0	0
2017-09-20 12:57:25.609717	-11	0	0
2017-09-20 12:57:25.612212	-7	0	0
2017-09-20 12:57:25.614716	-11	0	0
2017-09-20 12:57:25.617212	2	0	0
2017-09-20 12:57:25.619706	0	0	0
2017-09-20 12:57:25.622212	-7	0	0
2017-09-20 12:57:25.624713	-3	0	0
2017-09-20 12:57:25.627214	3	0	0
2017-09-20 12:57:25.629717	-11	0	0
2017-09-20 12:57:25.632220	-2	0	0
2017-09-20 12:57:25.634721	6	0	0
2017-09-20 12:57:25.637222	-3	0	0
2017-09-20 12:57:25.639721	-1	0	0
2017-09-20 12:57:25.642226	-6	0	0
2017-09-20 12:57:25.644726	-4	0	0
2017-09-20 12:57:25.647226	12	0	0
2017-09-20 12:57:25.649728	-12	0	0
2017-09-20 12:57:25.652233	-2	0	0
2017-09-20 12:57:25.654735	-8	0	0
2017-09-20 12:57:25.657236	2	0	0
2017-09-20 12:57:25.659736	-11	0	0
2017-09-20 12:57:25.662241	-5	0	0
2017-09-20 12:57:25.664743	6	0	0
2017-09-20 12:57:25.667244	-7	0	0
2017-09-20 12:57:25.669742	-2	0	0
2017-09-20 12:57:25.672245	-8	0	0
2017-09-20 12:57:25.674744	-2	0	0
2017-09-20 12:57:25.677246	-6	0	0
2017-09-20 12:57:25.679745	-56	0	0
2017-09-20 12:57:25.682246	-2	0	0
2017-09-20 12:57:25.684750	-66	0	0
2017-09-20 12:57:25.687262	-34	0	0
2017-09-20 12:57:25.689763	-53	0	0
2017-09-20 12:57:25.692265	-17	0	0
2017-09-20 12:57:25.694770	-40	0	0
2017-09-20 12:57:25.697273	-7	0	0
2017-09-20 12:57:25.699768	-25	0	0
2017-09-20 12:57:25.702264	-11	0	0
2017-09-20 12:57:25.704768	-17	0	0
2017-09-20 12:57:25.707270	-19	0	0
2017-09-20 12:57:25.709770	-21	0	0
2017-09-20 12:57:25.712275	-18	0	0
2017-09-20 12:57:25.714781	-27	0	0
2017-09-20 12:57:25.717276	-12	0	0
2017-09-20 12:57:25.719773	-11	0	0
2017-09-20 12:57:25.722266	-10	0	0
2017-09-20 12:57:25.724765	-3	0	0
2017-09-20 12:57:25.727265	-11	0	0
2017-09-20 12:57:25.729766	-13	0	0
2017-09-20 12:57:25.732263	-23	0	0
2017-09-20 12:57:25.734768	-13	0	0
2017-09-20 12:57:25.737273	-5	0	0
2017-09-20 12:57:25.739771	1	0	0
2017-09-20 12:57:25.742274	-4	0	0
2017-09-20 12:57:25.744773	0	0	0
2017-09-20 12:57:25.747278	2	0	0
2017-09-20 12:57:25.749781	14	0	0
2017-09-20 12:57:25.752285	0	0	0
2017-09-20 12:57:25.754792	14	0	0
2017-09-20 12:57:25.757296	6	0	0
2017-09-20 12:57:25.759795	-3	0	0
2017-09-20 12:57:25.762292	5	0	0
2017-09-20 12:57:25.764793	7	0	0
2017-09-20 12:57:25.767297	-2	0	0
2017-09-20 12:57:25.769794	3	0	0
2017-09-20 12:57:25.772297	8	0	0
2017-09-20 12:57:25.774805	-1	0	0
2017-09-20 12:57:25.777308	-9	0	0
2017-09-20 12:57:25.779811	-8	0	0
2017-09-20 12:57:25.782313	-1	0	0
2017-09-20 12:57:25.784812	-3	0	0
2017-09-20 12:57:25.787310	-8	0	0
2017-09-20 12:57:25.789893	-9	0	0
2017-09-20 12:57:25.792325	-9	0	0
2017-09-20 12:57:25.794820	-9	0	0
2017-09-20 12:57:25.797327	-15	0	0
2017-09-20 12:57:25.799828	-16	0	0
2017-09-20 12:57:25.802331	-11	0	0
2017-09-20 12:57:25.804836	-15	0	0
2017-09-20 12:57:25.807341	-16	0	0
2017-09-20 12:57:25.809842	-25	0	0
2017-09-20 12:57:25.812341	-22	0	0
2017-09-20 12:57:25.814846	-12	0	0
2017-09-20 12:57:25.817348	-18	0	0
2017-09-20 12:57:25.819852	-28	0	0
2017-09-20 12:57:25.822356	-25	0	0
2017-09-20 12:57:25.824858	-23	0	0
2017-09-20 12:57:25.827361	-31	0	0
2017-09-20 12:57:25.829857	-30	0	0
2017-09-20 12:57:25.832351	-40	0	0
2017-09-20 12:57:25.834852	-29	0	0
2017-09-20 12:57:25.837355	-44	0	0
2017-09-20 12:57:25.839856	-42	0	0
2017-09-20 12:57:25.842359	-49	0	0
2017-09-20 12:57:25.844861	-36	0	0
2017-09-20 12:57:25.847365	-43	0	0
2017-09-20 12:57:25.849866	-38	0	0
2017-09-20 12:57:25.852373	-28	0	0
2017-09-20 12:57:25.854869	-29	0	0
2017-09-20 12:57:25.857373	-31	0	0
2017-09-20 12:57:25.859877	-33	0	0
2017-09-20 12:57:25.862380	-18	0	0
2017-09-20 12:57:25.864882	-23	0	0
2017-09-20 12:57:25.867378	-31	0	0
2017-09-20 12:57:25.869883	-22	0	0
2017-09-20 12:57:25.872385	-18	0	0
2017-09-20 12:57:25.874890	-24	0	0
2017-09-20 12:57:25.877394	-13	0	0
2017-09-20 12:57:25.879900	-14	0	0
2017-09-20 12:57:25.882401	-6	0	0
2017-09-20 12:57:25.884904	-13	0	0
2017-09-20 12:57:25.887409	-19	0	0
2017-09-20 12:57:25.889915	-9	0	0
2017-09-20 12:57:25.892415	-10	0	0
2017-09-20 12:57:25.894918	-10	0	0
2017-09-20 12:57:25.897422	-8	0	0
2017-09-20 12:57:25.899921	-6	0	0
2017-09-20 12:57:25.902422	-1	0	0
2017-09-20 12:57:25.904923	3	0	0
2017-09-20 12:57:25.907429	7	0	0
2017-09-20 12:57:25.909930	15	0	0
2017-09-20 12:57:25.912434	13	0	0
2017-09-20 12:57:25.914935	25	0	0
2017-09-20 12:57:25.917440	13	0	0
2017-09-20 12:57:25.919949	-1	0	0
2017-09-20 12:57:25.922448	21	0	0
2017-09-20 12:57:25.924950	14	0	0
2017-09-20 12:57:25.927450	27	0	0
2017-09-20 12:57:25.929956	14	0	0
2017-09-20 12:57:25.932457	13	0	0
2017-09-20 12:57:25.934958	10	0	0
2017-09-20 12:57:25.937461	9	0	0
2017-09-20 12:57:25.939965	11	0	0
2017-09-20 12:57:25.942467	4	0	0
2017-09-20 12:57:25.944969	8	0	0
2017-09-20 12:57:25.947471	3	0	0
2017-09-20 12:57:25.949973	-3	0	0
2017-09-20 12:57:25.952474	6	0	0
2017-09-20 12:57:25.954970	-5	0	0
2017-09-20 12:57:25.957472	-9	0	0
2017-09-20 12:57:25.959968	0	0	0
2017-09-20 12:57:25.962472	-12	0	0
2017-09-20 12:57:25.964978	-7	0	0
2017-09-20 12:57:25.967478	-11	0	0
2017-09-20 12:57:25.969975	-17	0	0
2017-09-20 12:57:25.972480	-15	0	0
2017-09-20 12:57:25.974982	-13	0	0
2017-09-20 12:57:25.977487	-14	0	0
2017-09-20 12:57:25.979985	-12	0	0
2017-09-20 12:57:25.982486	-17	0	0
2017-09-20 12:57:25.984992	-21	0	0
2017-09-20 12:57:25.987497	-27	0	0
2017-09-20 12:57:25.989993	-25	0	0
2017-09-20 12:57:25.992496	-24	0	0
2017-09-20 12:57:25.994990	-24	0	0
2017-09-20 12:57:25.997493	-20	0	0
2017-09-20 12:57:25.999996	-32	0	0
2017-09-20 12:57:26.002495	-21	0	0
2017-09-20 12:57:26.004995	-25	0	0
2017-09-20 12:57:26.007491	-17	0	0
2017-09-20 12:57:26.009985	-19	0	0
2017-09-20 12:57:26.012486	-27	0	0
2017-09-20 12:57:26.014982	-25	0	0
2017-09-20 12:57:26.017480	-29	0	0
2017-09-20 12:57:26.019979	-24	0	0
2017-09-20 12:57:26.022481	-25	0	0
2017-09-20 12:57:26.024982	-27	0	0
2017-09-20 12:57:26.027479	-13	0	0
2017-09-20 12:57:26.029979	-30	0	0
2017-09-20 12:57:26.032478	-25	0	0
2017-09-20 12:57:26.034984	-22	0	0
2017-09-20 12:57:26.037489	-18	0	0
2017-09-20 12:57:26.039984	-16	0	0
2017-09-20 12:57:26.042480	-24	0	0
2017-09-20 12:57:26.044986	-10	0	0
2017-09-20 12:57:26.047491	-15	0	0
2017-09-20 12:57:26.050006	-10	0	0
2017-09-20 12:57:26.052494	-10	0	0
2017-09-20 12:57:26.054996	-13	0	0
2017-09-20 12:57:26.057495	0	0	0
2017-09-20 12:57:26.060002	-6	0	0
2017-09-20 12:57:26.062509	-2	0	0
2017-09-20 12:57:26.065003	-2	0	0
2017-09-20 12:57:26.067504	-1	0	0
2017-09-20 12:57:26.070006	-5	0	0
2017-09-20 12:57:26.072508	-3	0	0
2017-09-20 12:57:26.075004	-11	0	0
2017-09-20 12:57:26.077499	-3	0	0
2017-09-20 12:57:26.080000	-13	0	0
2017-09-20 12:57:26.082497	-1	0	0
2017-09-20 12:57:26.085000	-7	0	0
2017-09-20 12:57:26.087503	-7	0	0
2017-09-20 12:57:26.090001	-6	0	0
2017-09-20 12:57:26.092500	-3	0	0
2017-09-20 12:57:26.095005	-14	0	0
2017-09-20 12:57:26.097507	-10	0	0
2017-09-20 12:57:26.100011	-9	0	0
2017-09-20 12:57:26.102515	-9	0	0
2017-09-20 12:57:26.105015	-14	0	0
2017-09-20 12:57:26.107517	-16	0	0
2017-09-20 12:57:26.110018	-8	0	0
2017-09-20 12:57:26.112522	-16	0	0
2017-09-20 12:57:26.115018	-11	0	0
2017-09-20 12:57:26.117522	-13	0	0
2017-09-20 12:57:26.120017	-20	0	0
2017-09-20 12:57:26.122516	-17	0	0
2017-09-20 12:57:26.125014	-19	0	0
2017-09-20 12:57:26.127514	-25	0	0
2017-09-20 12:57:26.130011	-16	0	0
2017-09-20 12:57:26.132515	-24	0	0
2017-09-20 12:57:26.135018	-18	0	0
2017-09-20 12:57:26.137523	-21	0	0
2017-09-20 12:57:26.140025	-28	0	0
2017-09-20 12:57:26.142526	-23	0	0
2017-09-20 12:57:26.145031	-14	0	0
2017-09-20 12:57:26.147526	-30	0	0
2017-09-20 12:57:26.150027	-21	0	0
2017-09-20 12:57:26.152532	-22	0	0
2017-09-20 12:57:26.155036	-19	0	0
2017-09-20 12:57:26.157540	-14	0	0
2017-09-20 12:57:26.160035	-22	0	0
2017-09-20 12:57:26.162538	-15	0	0
2017-09-20 12:57:26.165042	-13	0	0
2017-09-20 12:57:26.167543	-13	0	0
2017-09-20 12:57:26.170046	-18	0	0
2017-09-20 12:57:26.172548	-12	0	0
2017-09-20 12:57:26.175045	-8	0	0
2017-09-20 12:57:26.177551	-3	0	0
2017-09-20 12:57:26.180045	-3	0	0
2017-09-20 12:57:26.182541	-16	0	0
2017-09-20 12:57:26.185045	-2	0	0
2017-09-20 12:57:26.187547	-10	0	0
2017-09-20 12:57:26.190049	0	0	0
2017-09-20 12:57:26.192543	0	0	0
2017-09-20 12:57:26.195045	0	0	0
2017-09-20 12:57:26.197547	5	0	0
2017-09-20 12:57:26.200045	10	0	0
2017-09-20 12:57:26.202546	17	0	0
2017-09-20 12:57:26.205044	8	0	0
2017-09-20 12:57:26.207542	4	0	0
2017-09-20 12:57:26.210039	12	0	0
2017-09-20 12:57:26.212532	7	0	0
2017-09-20 12:57:26.215032	12	0	0
2017-09-20 12:57:26.217529	13	0	0
2017-09-20 12:57:26.220025	-2	0	0
2017-09-20 12:57:26.222521	3	0	0
2017-09-20 12:57:26.225020	17	0	0
2017-09-20 12:57:26.227517	14	0	0
2017-09-20 12:57:26.230023	5	0	0
2017-09-20 12:57:26.232529	-48	0	0
2017-09-20 12:57:26.235028	-18	0	0
2017-09-20 12:57:26.237525	-9	0	0
2017-09-20 12:57:26.240030	18	0	0
2017-09-20 12:57:26.242526	14	0	0
2017-09-20 12:57:26.245024	5	0	0
2017-09-20 12:57:26.247528	-6	0	0
2017-09-20 12:57:26.250033	-18	0	0
2017-09-20 12:57:26.252532	-18	0	0
2017-09-20 12:57:26.255037	-13	0	0
2017-09-20 12:57:26.257539	-5	0	0
2017-09-20 12:57:26.260041	-1	0	0
2017-09-20 12:57:26.262542	-8	0	0
2017-09-20 12:57:26.265044	-10	0	0
2017-09-20 12:57:26.267550	-22	0	0
2017-09-20 12:57:26.270043	-17	0	0
2017-09-20 12:57:26.272547	-13	0	0
2017-09-20 12:57:26.275047	-20	0	0
2017-09-20 12:57:26.277552	-25	0	0
2017-09-20 12:57:26.280046	-23	0	0
2017-09-20 12:57:26.282556	-23	0	0
2017-09-20 12:57:26.285054	-14	0	0
2017-09-20 12:57:26.287548	-26	0	0
2017-09-20 12:57:26.290049	-31	0	0
2017-09-20 12:57:26.292554	-28	0	0
2017-09-20 12:57:26.295059	-26	0	0
2017-09-20 12:57:26.297561	-23	0	0
2017-09-20 12:57:26.300061	-26	0	0
2017-09-20 12:57:26.302563	-10	0	0
2017-09-20 12:57:26.305065	-19	0	0
2017-09-20 12:57:26.307564	-13	0	0
2017-09-20 12:57:26.310065	-9	0	0
2017-09-20 12:57:26.312566	-8	0	0
2017-09-20 12:57:26.315067	-7	0	0
2017-09-20 12:57:26.317568	-5	0	0
2017-09-20 12:57:26.320065	-17	0	0
2017-09-20 12:57:26.322563	-2	0	0
2017-09-20 12:57:26.325066	-5	0	0
2017-09-20 12:57:26.327568	-8	0	0
2017-09-20 12:57:26.330063	-21	0	0
2017-09-20 12:57:26.332562	-3	0	0
2017-09-20 12:57:26.335065	-11	0	0
2017-09-20 12:57:26.337569	13	0	0
2017-09-20 12:57:26.340071	-12	0	0
2017-09-20 12:57:26.342566	-19	0	0
2017-09-20 12:57:26.345067	-3	0	0
2017-09-20 12:57:26.347560	1	0	0
2017-09-20 12:57:26.350059	-8	0	0
2017-09-20 12:57:26.352561	-17	0	0
2017-09-20 12:57:26.355065	-13	0	0
2017-09-20 12:57:26.357564	-1	0	0
2017-09-20 12:57:26.360059	-8	0	0
2017-09-20 12:57:26.362557	5	0	0
2017-09-20 12:57:26.365054	-8	0	0
2017-09-20 12:57:26.367558	-6	0	0
2017-09-20 12:57:26.370057	-3	0	0
2017-09-20 12:57:26.372559	-20	0	0
2017-09-20 12:57:26.375059	-22	0	0
2017-09-20 12:57:26.377558	-15	0	0
2017-09-20 12:57:26.380059	-16	0	0
2017-09-20 12:57:26.382560	-15	0	0
2017-09-20 12:57:26.385062	-24	0	0
2017-09-20 12:57:26.387563	-23	0	0
2017-09-20 12:57:26.390062	-28	0	0
2017-09-20 12:57:26.392565	-21	0	0
2017-09-20 12:57:26.395068	-35	0	0
2017-09-20 12:57:26.397569	-28	0	0
2017-09-20 12:57:26.400068	-38	0	0
2017-09-20 12:57:26.402571	-23	0	0
2017-09-20 12:57:26.405067	-33	0	0
2017-09-20 12:57:26.407568	-26	0	0
2017-09-20 12:57:26.410066	-48	0	0
2017-09-20 12:57:26.412564	-45	0	0
2017-09-20 12:57:26.415065	-34	0	0
2017-09-20 12:57:26.417567	-45	0	0
2017-09-20 12:57:26.420063	-26	0	0
2017-09-20 12:57:26.422565	-37	0	0
2017-09-20 12:57:26.425065	-63	0	0
2017-09-20 12:57:26.427564	-63	0	0
2017-09-20 12:57:26.430065	-27	0	0
2017-09-20 12:57:26.432568	-7	0	0
2017-09-20 12:57:26.435070	-16	0	0
2017-09-20 12:57:26.437566	-43	0	0
2017-09-20 12:57:26.440063	-60	0	0
2017-09-20 12:57:26.442563	-45	0	0
2017-09-20 12:57:26.445067	-15	0	0
2017-09-20 12:57:26.447568	-8	0	0
2017-09-20 12:57:26.450067	-12	0	0
2017-09-20 12:57:26.452571	-8	0	0
2017-09-20 12:57:26.455066	-17	0	0
2017-09-20 12:57:26.457569	-18	0	0
2017-09-20 12:57:26.460070	-6	0	0
2017-09-20 12:57:26.462566	5	0	0
2017-09-20 12:57:26.465070	21	0	0
2017-09-20 12:57:26.467568	5	0	0
2017-09-20 12:57:26.470065	17	0	0
2017-09-20 12:57:26.472563	15	0	0
2017-09-20 12:57:26.475061	28	0	0
2017-09-20 12:57:26.477563	32	0	0
2017-09-20 12:57:26.480059	33	0	0
2017-09-20 12:57:26.482557	27	0	0
2017-09-20 12:57:26.485054	19	0	0
2017-09-20 12:57:26.487550	28	0	0
2017-09-20 12:57:26.490045	30	0	0
2017-09-20 12:57:26.492545	16	0	0
2017-09-20 12:57:26.495045	6	0	0
2017-09-20 12:57:26.497540	23	0	0
2017-09-20 12:57:26.500045	19	0	0
2017-09-20 12:57:26.502544	19	0	0
2017-09-20 12:57:26.505048	26	0	0
2017-09-20 12:57:26.507547	22	0	0
2017-09-20 12:57:26.510053	5	0	0
2017-09-20 12:57:26.512553	10	0	0
2017-09-20 12:57:26.515054	4	0	0
2017-09-20 12:57:26.517550	17	0	0
2017-09-20 12:57:26.520056	11	0	0
2017-09-20 12:57:26.522561	10	0	0
2017-09-20 12:57:26.525066	0	0	0
2017-09-20 12:57:26.527571	-16	0	0
2017-09-20 12:57:26.530069	-13	0	0
2017-09-20 12:57:26.532565	5	0	0
2017-09-20 12:57:26.535064	5	0	0
2017-09-20 12:57:26.537561	-3	0	0
2017-09-20 12:57:26.540059	-14	0	0
2017-09-20 12:57:26.542559	-25	0	0
2017-09-20 12:57:26.545054	-34	0	0
2017-09-20 12:57:26.547556	-34	0	0
2017-09-20 12:57:26.550053	-19	0	0
2017-09-20 12:57:26.552554	-25	0	0
2017-09-20 12:57:26.555053	-20	0	0
2017-09-20 12:57:26.557549	-20	0	0
2017-09-20 12:57:26.560044	-40	0	0
2017-09-20 12:57:26.562547	-30	0	0
2017-09-20 12:57:26.565048	-30	0	0
2017-09-20 12:57:26.567543	-37	0	0
2017-09-20 12:57:26.570052	-21	0	0
2017-09-20 12:57:26.572556	-31	0	0
2017-09-20 12:57:26.575054	-32	0	0
2017-09-20 12:57:26.577552	-27	0	0
2017-09-20 12:57:26.580051	-23	0	0
2017-09-20 12:57:26.582552	-27	0	0
2017-09-20 12:57:26.585053	-32	0	0
2017-09-20 12:57:26.587553	-27	0	0
2017-09-20 12:57:26.590053	-20	0	0
2017-09-20 12:57:26.592552	-21	0	0
2017-09-20 12:57:26.595049	-22	0	0
2017-09-20 12:57:26.597552	-14	0	0
2017-09-20 12:57:26.600052	-27	0	0
2017-09-20 12:57:26.602553	-36	0	0
2017-09-20 12:57:26.605058	-22	0	0
2017-09-20 12:57:26.607562	-15	0	0
2017-09-20 12:57:26.610062	-10	0	0
2017-09-20 12:57:26.612564	-40	0	0
2017-09-20 12:57:26.615065	-31	0	0
2017-09-20 12:57:26.617565	-6	0	0
2017-09-20 12:57:26.620062	-3	0	0
2017-09-20 12:57:26.622561	-6	0	0
2017-09-20 12:57:26.625064	-9	0	0
2017-09-20 12:57:26.627568	-30	0	0
2017-09-20 12:57:26.630066	-17	0	0
2017-09-20 12:57:26.632568	-2	0	0
2017-09-20 12:57:26.635070	-13	0	0
2017-09-20 12:57:26.637572	-11	0	0
2017-09-20 12:57:26.640070	-10	0	0
2017-09-20 12:57:26.642567	-7	0	0
2017-09-20 12:57:26.645070	-8	0	0
2017-09-20 12:57:26.647565	-29	0	0
2017-09-20 12:57:26.650064	0	0	0
2017-09-20 12:57:26.652566	-16	0	0
2017-09-20 12:57:26.655069	0	0	0
2017-09-20 12:57:26.657572	-20	0	0
2017-09-20 12:57:26.660072	3	0	0
2017-09-20 12:57:26.662574	-15	0	0
2017-09-20 12:57:26.665077	-25	0	0
2017-09-20 12:57:26.667581	-32	0	0
2017-09-20 12:57:26.670079	-19	0	0
2017-09-20 12:57:26.672579	1	0	0
2017-09-20 12:57:26.675082	-10	0	0
2017-09-20 12:57:26.677582	-4	0	0
2017-09-20 12:57:26.680075	-23	0	0
2017-09-20 12:57:26.682576	-14	0	0
2017-09-20 12:57:26.685075	-20	0	0
2017-09-20 12:57:26.687575	-21	0	0
2017-09-20 12:57:26.690073	-14	0	0
2017-09-20 12:57:26.692575	-11	0	0
2017-09-20 12:57:26.695080	-15	0	0
2017-09-20 12:57:26.697582	-25	0	0
2017-09-20 12:57:26.700084	-29	0	0
2017-09-20 12:57:26.702584	-33	0	0
2017-09-20 12:57:26.705082	-27	0	0
2017-09-20 12:57:26.707587	-26	0	0
2017-09-20 12:57:26.710088	-35	0	0
2017-09-20 12:57:26.712590	-28	0	0
2017-09-20 12:57:26.715094	-15	0	0
2017-09-20 12:57:26.717593	-24	0	0
2017-09-20 12:57:26.720089	-20	0	0
2017-09-20 12:57:26.722594	-22	0	0
2017-09-20 12:57:26.725096	-16	0	0
2017-09-20 12:57:26.727597	-23	0	0
2017-09-20 12:57:26.730099	-28	0	0
2017-09-20 12:57:26.732599	-24	0	0
2017-09-20 12:57:26.735103	-14	0	0
2017-09-20 12:57:26.737605	-19	0	0
2017-09-20 12:57:26.740101	-14	0	0
2017-09-20 12:57:26.742603	-12	0	0
2017-09-20 12:57:26.745102	-12	0	0
2017-09-20 12:57:26.747603	-8	0	0
2017-09-20 12:57:26.750102	-6	0	0
2017-09-20 12:57:26.752605	-8	0	0
2017-09-20 12:57:26.755103	-3	0	0
2017-09-20 12:57:26.757608	-4	0	0
2017-09-20 12:57:26.760111	-3	0	0
2017-09-20 12:57:26.762612	2	0	0
2017-09-20 12:57:26.765116	-12	0	0
2017-09-20 12:57:26.767616	0	0	0
2017-09-20 12:57:26.770114	-2	0	0
2017-09-20 12:57:26.772607	-10	0	0
2017-09-20 12:57:26.775108	-2	0	0
2017-09-20 12:57:26.777609	3	0	0
2017-09-20 12:57:26.780109	1	0	0
2017-09-20 12:57:26.782611	16	0	0
2017-09-20 12:57:26.785108	17	0	0
2017-09-20 12:57:26.787609	33	0	0
2017-09-20 12:57:26.790110	-8	0	0
2017-09-20 12:57:26.792612	5	0	0
2017-09-20 12:57:26.795110	14	0	0
2017-09-20 12:57:26.797608	17	0	0
2017-09-20 12:57:26.800112	37	0	0
2017-09-20 12:57:26.802615	15	0	0
2017-09-20 12:57:26.805116	9	0	0
2017-09-20 12:57:26.807618	14	0	0
2017-09-20 12:57:26.810121	21	0	0
2017-09-20 12:57:26.812624	13	0	0
2017-09-20 12:57:26.815124	12	0	0
2017-09-20 12:57:26.817624	10	0	0
2017-09-20 12:57:26.820124	24	0	0
2017-09-20 12:57:26.822624	-2	0	0
2017-09-20 12:57:26.825121	2	0	0
2017-09-20 12:57:26.827625	-2	0	0
2017-09-20 12:57:26.830122	9	0	0
2017-09-20 12:57:26.832622	7	0	0
2017-09-20 12:57:26.835124	4	0	0
2017-09-20 12:57:26.837625	6	0	0
2017-09-20 12:57:26.840125	-1	0	0
2017-09-20 12:57:26.842628	-1	0	0
2017-09-20 12:57:26.845134	-9	0	0
2017-09-20 12:57:26.847634	-7	0	0
2017-09-20 12:57:26.850131	-15	0	0
2017-09-20 12:57:26.852636	-11	0	0
2017-09-20 12:57:26.855135	-15	0	0
2017-09-20 12:57:26.857630	-30	0	0
2017-09-20 12:57:26.860128	-25	0	0
2017-09-20 12:57:26.862630	-20	0	0
2017-09-20 12:57:26.865130	-33	0	0
2017-09-20 12:57:26.867632	-33	0	0
2017-09-20 12:57:26.870127	-33	0	0
2017-09-20 12:57:26.872630	-44	0	0
2017-09-20 12:57:26.875134	-39	0	0
2017-09-20 12:57:26.877636	-51	0	0
2017-09-20 12:57:26.880132	-48	0	0
2017-09-20 12:57:26.882635	-53	0	0
2017-09-20 12:57:26.885138	-42	0	0
2017-09-20 12:57:26.887644	-50	0	0
2017-09-20 12:57:26.890143	-51	0	0
2017-09-20 12:57:26.892646	-49	0	0
2017-09-20 12:57:26.895150	-52	0	0
2017-09-20 12:57:26.897652	-38	0	0
2017-09-20 12:57:26.900147	-38	0	0
2017-09-20 12:57:26.902645	-42	0	0
2017-09-20 12:57:26.905145	-36	0	0
2017-09-20 12:57:26.907644	-41	0	0
2017-09-20 12:57:26.910141	-41	0	0
2017-09-20 12:57:26.912641	-28	0	0
2017-09-20 12:57:26.915145	-35	0	0
2017-09-20 12:57:26.917646	-40	0	0
2017-09-20 12:57:26.920144	-30	0	0
2017-09-20 12:57:26.922646	-30	0	0
2017-09-20 12:57:26.925144	-21	0	0
2017-09-20 12:57:26.927644	-28	0	0
2017-09-20 12:57:26.930142	-20	0	0
2017-09-20 12:57:26.932638	-17	0	0
2017-09-20 12:57:26.935137	-16	0	0
2017-09-20 12:57:26.937638	-20	0	0
2017-09-20 12:57:26.940136	-9	0	0
2017-09-20 12:57:26.942638	-1	0	0
2017-09-20 12:57:26.945138	-11	0	0
2017-09-20 12:57:26.947638	5	0	0
2017-09-20 12:57:26.950134	-1	0	0
2017-09-20 12:57:26.952637	3	0	0
2017-09-20 12:57:26.955133	0	0	0
2017-09-20 12:57:26.957636	-3	0	0
2017-09-20 12:57:26.960132	14	0	0
2017-09-20 12:57:26.962631	16	0	0
2017-09-20 12:57:26.965125	16	0	0
2017-09-20 12:57:26.967630	3	0	0
2017-09-20 12:57:26.970129	6	0	0
2017-09-20 12:57:26.972632	14	0	0
2017-09-20 12:57:26.975135	8	0	0
2017-09-20 12:57:26.977635	10	0	0
2017-09-20 12:57:26.980135	7	0	0
2017-09-20 12:57:26.982633	10	0	0
2017-09-20 12:57:26.985132	7	0	0
2017-09-20 12:57:26.987632	9	0	0
2017-09-20 12:57:26.990132	2	0	0
2017-09-20 12:57:26.992634	7	0	0
2017-09-20 12:57:26.995135	1	0	0
2017-09-20 12:57:26.997636	6	0	0
2017-09-20 12:57:27.000134	15	0	0
2017-09-20 12:57:27.002629	-8	0	0
2017-09-20 12:57:27.005122	6	0	0
2017-09-20 12:57:27.007621	0	0	0
2017-09-20 12:57:27.010121	4	0	0
2017-09-20 12:57:27.012627	-5	0	0
2017-09-20 12:57:27.015123	4	0	0
2017-09-20 12:57:27.017617	0	0	0
2017-09-20 12:57:27.020116	-2	0	0
2017-09-20 12:57:27.022609	-9	0	0
2017-09-20 12:57:27.025103	-4	0	0
2017-09-20 12:57:27.027602	-5	0	0
2017-09-20 12:57:27.030096	-10	0	0
2017-09-20 12:57:27.032593	-9	0	0
2017-09-20 12:57:27.035094	-11	0	0
2017-09-20 12:57:27.037598	-4	0	0
2017-09-20 12:57:27.040096	-17	0	0
2017-09-20 12:57:27.042598	-21	0	0
2017-09-20 12:57:27.045099	-16	0	0
2017-09-20 12:57:27.047602	-16	0	0
2017-09-20 12:57:27.050102	-10	0	0
2017-09-20 12:57:27.052602	-27	0	0
2017-09-20 12:57:27.055095	-17	0	0
2017-09-20 12:57:27.057599	-21	0	0
2017-09-20 12:57:27.060097	-14	0	0
2017-09-20 12:57:27.062596	-20	0	0
2017-09-20 12:57:27.065100	-13	0	0
2017-09-20 12:57:27.067603	-11	0	0
2017-09-20 12:57:27.070102	-24	0	0
2017-09-20 12:57:27.072604	-9	0	0
2017-09-20 12:57:27.075110	-16	0	0
2017-09-20 12:57:27.077616	-14	0	0
2017-09-20 12:57:27.080116	-20	0	0
2017-09-20 12:57:27.082611	-19	0	0
2017-09-20 12:57:27.085106	-20	0	0
2017-09-20 12:57:27.087611	-17	0	0
2017-09-20 12:57:27.090111	-12	0	0
2017-09-20 12:57:27.092605	-13	0	0
2017-09-20 12:57:27.095109	-17	0	0
2017-09-20 12:57:27.097612	-17	0	0
2017-09-20 12:57:27.100112	-15	0	0
2017-09-20 12:57:27.102616	-16	0	0
2017-09-20 12:57:27.105118	-6	0	0
2017-09-20 12:57:27.107622	-15	0	0
2017-09-20 12:57:27.110123	-15	0	0
2017-09-20 12:57:27.112625	-7	0	0
2017-09-20 12:57:27.115126	-1	0	0
2017-09-20 12:57:27.117628	3	0	0
2017-09-20 12:57:27.120126	-2	0	0
2017-09-20 12:57:27.122627	-4	0	0
2017-09-20 12:57:27.125127	0	0	0
2017-09-20 12:57:27.127629	-3	0	0
2017-09-20 12:57:27.130130	-13	0	0
2017-09-20 12:57:27.132627	-5	0	0
2017-09-20 12:57:27.135127	-3	0	0
2017-09-20 12:57:27.137628	-7	0	0
2017-09-20 12:57:27.140133	-6	0	0
2017-09-20 12:57:27.142631	-9	0	0
2017-09-20 12:57:27.145132	-3	0	0
2017-09-20 12:57:27.147629	-19	0	0
2017-09-20 12:57:27.150130	-12	0	0
2017-09-20 12:57:27.152629	-14	0	0
2017-09-20 12:57:27.155133	-10	0	0
2017-09-20 12:57:27.157628	-12	0	0
2017-09-20 12:57:27.160127	3	0	0
2017-09-20 12:57:27.162630	-12	0	0
2017-09-20 12:57:27.165131	-11	0	0
2017-09-20 12:57:27.167633	-10	0	0
2017-09-20 12:57:27.170131	-9	0	0
2017-09-20 12:57:27.172635	-21	0	0
2017-09-20 12:57:27.175140	-17	0	0
2017-09-20 12:57:27.177635	-25	0	0
2017-09-20 12:57:27.180135	-21	0	0
2017-09-20 12:57:27.182636	-18	0	0
2017-09-20 12:57:27.185140	-19	0	0
2017-09-20 12:57:27.187642	-31	0	0
2017-09-20 12:57:27.190141	-23	0	0
2017-09-20 12:57:27.192637	-28	0	0
2017-09-20 12:57:27.195141	-22	0	0
2017-09-20 12:57:27.197640	-33	0	0
2017-09-20 12:57:27.200138	-24	0	0
2017-09-20 12:57:27.202642	-24	0	0
2017-09-20 12:57:27.205145	-20	0	0
2017-09-20 12:57:27.207648	-31	0	0
2017-09-20 12:57:27.210149	-27	0	0
2017-09-20 12:57:27.212652	-10	0	0
2017-09-20 12:57:27.215156	-23	0	0
2017-09-20 12:57:27.217661	-13	0	0
2017-09-20 12:57:27.220161	-21	0	0
2017-09-20 12:57:27.222665	-19	0	0
2017-09-20 12:57:27.225164	-9	0	0
2017-09-20 12:57:27.227665	-11	0	0
2017-09-20 12:57:27.230161	-16	0	0
2017-09-20 12:57:27.232667	-5	0	0
2017-09-20 12:57:27.235164	-1	0	0
2017-09-20 12:57:27.237660	-13	0	0
2017-09-20 12:57:27.240161	-5	0	0
2017-09-20 12:57:27.242661	-2	0	0
2017-09-20 12:57:27.245155	-7	0	0
2017-09-20 12:57:27.247658	-10	0	0
2017-09-20 12:57:27.250155	5	0	0
2017-09-20 12:57:27.252661	5	0	0
2017-09-20 12:57:27.255162	1	0	0
2017-09-20 12:57:27.257664	8	0	0
2017-09-20 12:57:27.260161	2	0	0
2017-09-20 12:57:27.262661	0	0	0
2017-09-20 12:57:27.265159	-1	0	0
2017-09-20 12:57:27.267657	0	0	0
2017-09-20 12:57:27.270152	2	0	0
2017-09-20 12:57:27.272654	13	0	0
2017-09-20 12:57:27.275154	5	0	0
2017-09-20 12:57:27.277657	-8	0	0
2017-09-20 12:57:27.280158	-3	0	0
2017-09-20 12:57:27.282652	-6	0	0
2017-09-20 12:57:27.285155	-6	0	0
2017-09-20 12:57:27.287657	-8	0	0
2017-09-20 12:57:27.290160	-15	0	0
2017-09-20 12:57:27.292717	-5	0	0
2017-09-20 12:57:27.295157	-13	0	0
2017-09-20 12:57:27.297657	-19	0	0
2017-09-20 12:57:27.300155	-17	0	0
2017-09-20 12:57:27.302657	-11	0	0
2017-09-20 12:57:27.305159	-16	0	0
2017-09-20 12:57:27.307659	-16	0	0
2017-09-20 12:57:27.310163	-15	0	0
2017-09-20 12:57:27.312659	-28	0	0
2017-09-20 12:57:27.315164	-17	0	0
2017-09-20 12:57:27.317661	-18	0	0
2017-09-20 12:57:27.320157	-13	0	0
2017-09-20 12:57:27.322657	-24	0	0
2017-09-20 12:57:27.325158	-27	0	0
2017-09-20 12:57:27.327663	-21	0	0
2017-09-20 12:57:27.330158	-17	0	0
2017-09-20 12:57:27.332664	-11	0	0
2017-09-20 12:57:27.335167	-25	0	0
2017-09-20 12:57:27.337672	-21	0	0
2017-09-20 12:57:27.340168	-24	0	0
2017-09-20 12:57:27.342675	-17	0	0
2017-09-20 12:57:27.345178	-18	0	0
2017-09-20 12:57:27.347679	-16	0	0
2017-09-20 12:57:27.350183	-9	0	0
2017-09-20 12:57:27.352684	-24	0	0
2017-09-20 12:57:27.355180	-23	0	0
2017-09-20 12:57:27.357680	-17	0	0
2017-09-20 12:57:27.360185	-19	0	0
2017-09-20 12:57:27.362683	-10	0	0
2017-09-20 12:57:27.365185	-3	0	0
2017-09-20 12:57:27.367685	-7	0	0
2017-09-20 12:57:27.370184	-4	0	0
2017-09-20 12:57:27.372685	-7	0	0
2017-09-20 12:57:27.375185	-6	0	0
2017-09-20 12:57:27.377689	-6	0	0
2017-09-20 12:57:27.380188	-4	0	0
2017-09-20 12:57:27.382695	-1	0	0
2017-09-20 12:57:27.385196	5	0	0
2017-09-20 12:57:27.387697	8	0	0
2017-09-20 12:57:27.390196	1	0	0
2017-09-20 12:57:27.392696	1	0	0
2017-09-20 12:57:27.395197	7	0	0
2017-09-20 12:57:27.397700	-1	0	0
2017-09-20 12:57:27.400196	-7	0	0
2017-09-20 12:57:27.402696	6	0	0
2017-09-20 12:57:27.405202	9	0	0
2017-09-20 12:57:27.407700	-5	0	0
2017-09-20 12:57:27.410199	-15	0	0
2017-09-20 12:57:27.412703	-5	0	0
2017-09-20 12:57:27.415206	-6	0	0
2017-09-20 12:57:27.417711	-8	0	0
2017-09-20 12:57:27.420208	-2	0	0
2017-09-20 12:57:27.422706	-3	0	0
2017-09-20 12:57:27.425205	-2	0	0
2017-09-20 12:57:27.427705	-6	0	0
2017-09-20 12:57:27.430207	-13	0	0
2017-09-20 12:57:27.432712	-9	0	0
2017-09-20 12:57:27.435214	-18	0	0
2017-09-20 12:57:27.437713	-11	0	0
2017-09-20 12:57:27.440211	-15	0	0
2017-09-20 12:57:27.442712	-26	0	0
2017-09-20 12:57:27.445210	-29	0	0
2017-09-20 12:57:27.447710	-29	0	0
2017-09-20 12:57:27.450211	-15	0	0
2017-09-20 12:57:27.452710	-16	0	0
2017-09-20 12:57:27.455212	-33	0	0
2017-09-20 12:57:27.457711	-27	0	0
2017-09-20 12:57:27.460210	-29	0	0
2017-09-20 12:57:27.462704	-23	0	0
2017-09-20 12:57:27.465208	-32	0	0
2017-09-20 12:57:27.467713	-24	0	0
2017-09-20 12:57:27.470215	-30	0	0
2017-09-20 12:57:27.472719	-37	0	0
2017-09-20 12:57:27.475229	-30	0	0
2017-09-20 12:57:27.477728	-22	0	0
2017-09-20 12:57:27.480232	-23	0	0
2017-09-20 12:57:27.482731	-24	0	0
2017-09-20 12:57:27.485233	-21	0	0
2017-09-20 12:57:27.487736	-23	0	0
2017-09-20 12:57:27.490239	-20	0	0
2017-09-20 12:57:27.492739	-17	0	0
2017-09-20 12:57:27.495241	-9	0	0
2017-09-20 12:57:27.497745	-11	0	0
2017-09-20 12:57:27.500242	-17	0	0
2017-09-20 12:57:27.502740	-9	0	0
2017-09-20 12:57:27.505239	-12	0	0
2017-09-20 12:57:27.507736	-5	0	0
2017-09-20 12:57:27.510240	-7	0	0
2017-09-20 12:57:27.512743	-9	0	0
2017-09-20 12:57:27.515251	-1	0	0
2017-09-20 12:57:27.517755	-5	0	0
2017-09-20 12:57:27.520256	-1	0	0
2017-09-20 12:57:27.522756	9	0	0
2017-09-20 12:57:27.525256	0	0	0
2017-09-20 12:57:27.527753	5	0	0
2017-09-20 12:57:27.530250	5	0	0
2017-09-20 12:57:27.532752	2	0	0
2017-09-20 12:57:27.535249	6	0	0
2017-09-20 12:57:27.537750	11	0	0
2017-09-20 12:57:27.540249	2	0	0
2017-09-20 12:57:27.542753	14	0	0
2017-09-20 12:57:27.545256	-2	0	0
2017-09-20 12:57:27.547757	-2	0	0
2017-09-20 12:57:27.550258	-5	0	0
2017-09-20 12:57:27.552760	0	0	0
2017-09-20 12:57:27.555265	4	0	0
2017-09-20 12:57:27.557766	5	0	0
2017-09-20 12:57:27.560266	2	0	0
2017-09-20 12:57:27.562768	0	0	0
2017-09-20 12:57:27.565269	2	0	0
2017-09-20 12:57:27.567768	-5	0	0
2017-09-20 12:57:27.570268	-3	0	0
2017-09-20 12:57:27.572770	-11	0	0
2017-09-20 12:57:27.575276	-5	0	0
2017-09-20 12:57:27.577780	-9	0	0
2017-09-20 12:57:27.580280	-10	0	0
2017-09-20 12:57:27.582775	-19	0	0
2017-09-20 12:57:27.585277	-16	0	0
2017-09-20 12:57:27.587780	-7	0	0
2017-09-20 12:57:27.590279	-19	0	0
2017-09-20 12:57:27.592774	-23	0	0
2017-09-20 12:57:27.595278	-15	0	0
2017-09-20 12:57:27.597779	-26	0	0
2017-09-20 12:57:27.600283	-22	0	0
2017-09-20 12:57:27.602784	-18	0	0
2017-09-20 12:57:27.605285	-26	0	0
2017-09-20 12:57:27.607785	-16	0	0
2017-09-20 12:57:27.610285	-18	0	0
2017-09-20 12:57:27.612790	-28	0	0
2017-09-20 12:57:27.615293	-22	0	0
2017-09-20 12:57:27.617797	-23	0	0
2017-09-20 12:57:27.620294	-17	0	0
2017-09-20 12:57:27.622790	-18	0	0
2017-09-20 12:57:27.625292	-19	0	0
2017-09-20 12:57:27.627792	-30	0	0
2017-09-20 12:57:27.630292	-16	0	0
2017-09-20 12:57:27.632797	-29	0	0
2017-09-20 12:57:27.635298	-24	0	0
2017-09-20 12:57:27.637799	-20	0	0
2017-09-20 12:57:27.640297	-26	0	0
2017-09-20 12:57:27.642798	-20	0	0
2017-09-20 12:57:27.645302	-22	0	0
2017-09-20 12:57:27.647806	-12	0	0
2017-09-20 12:57:27.650303	-16	0	0
2017-09-20 12:57:27.652807	-31	0	0
2017-09-20 12:57:27.655300	-18	0	0
2017-09-20 12:57:27.657805	-22	0	0
2017-09-20 12:57:27.660302	-22	0	0
2017-09-20 12:57:27.662807	-6	0	0
2017-09-20 12:57:27.665312	-11	0	0
2017-09-20 12:57:27.667817	-12	0	0
2017-09-20 12:57:27.670312	-18	0	0
2017-09-20 12:57:27.672813	-8	0	0
2017-09-20 12:57:27.675311	-15	0	0
2017-09-20 12:57:27.677817	-19	0	0
2017-09-20 12:57:27.680312	-9	0	0
2017-09-20 12:57:27.682813	-15	0	0
2017-09-20 12:57:27.685317	-7	0	0
2017-09-20 12:57:27.687815	-8	0	0
2017-09-20 12:57:27.690309	0	0	0
2017-09-20 12:57:27.692816	-12	0	0
2017-09-20 12:57:27.695320	-4	0	0
2017-09-20 12:57:27.697825	-8	0	0
2017-09-20 12:57:27.700323	-9	0	0
2017-09-20 12:57:27.702825	-6	0	0
2017-09-20 12:57:27.705327	-4	0	0
2017-09-20 12:57:27.707828	-10	0	0
2017-09-20 12:57:27.710329	-10	0	0
2017-09-20 12:57:27.712830	-9	0	0
2017-09-20 12:57:27.715334	-8	0	0
2017-09-20 12:57:27.717832	11	0	0
2017-09-20 12:57:27.720328	-14	0	0
2017-09-20 12:57:27.722828	0	0	0
2017-09-20 12:57:27.725331	-6	0	0
2017-09-20 12:57:27.727834	-22	0	0
2017-09-20 12:57:27.730332	-10	0	0
2017-09-20 12:57:27.732838	-8	0	0
2017-09-20 12:57:27.735342	-9	0	0
2017-09-20 12:57:27.737844	-10	0	0
2017-09-20 12:57:27.740340	-11	0	0
2017-09-20 12:57:27.742843	-24	0	0
2017-09-20 12:57:27.745337	-14	0	0
2017-09-20 12:57:27.747843	-20	0	0
2017-09-20 12:57:27.750338	-5	0	0
2017-09-20 12:57:27.752842	-13	0	0
2017-09-20 12:57:27.755347	-12	0	0
2017-09-20 12:57:27.757851	-9	0	0
2017-09-20 12:57:27.760348	-24	0	0
2017-09-20 12:57:27.762846	-22	0	0
2017-09-20 12:57:27.765351	-21	0	0
2017-09-20 12:57:27.767851	-12	0	0
2017-09-20 12:57:27.770346	-21	0	0
2017-09-20 12:57:27.772848	-10	0	0
2017-09-20 12:57:27.775352	-17	0	0
2017-09-20 12:57:27.777846	-8	0	0
2017-09-20 12:57:27.780344	-6	0	0
2017-09-20 12:57:27.782845	-7	0	0
2017-09-20 12:57:27.785346	-13	0	0
2017-09-20 12:57:27.787849	0	0	0
2017-09-20 12:57:27.790345	-2	0	0
2017-09-20 12:57:27.792840	-15	0	0
2017-09-20 12:57:27.795335	-6	0	0
2017-09-20 12:57:27.797832	-1	0	0
2017-09-20 12:57:27.800334	-7	0	0
2017-09-20 12:57:27.802832	-8	0	0
2017-09-20 12:57:27.805337	-2	0	0
2017-09-20 12:57:27.807841	-3	0	0
2017-09-20 12:57:27.810340	-1	0	0
2017-09-20 12:57:27.812843	-1	0	0
2017-09-20 12:57:27.815346	1	0	0
2017-09-20 12:57:27.817852	-2	0	0
2017-09-20 12:57:27.820356	0	0	0
2017-09-20 12:57:27.822857	10	0	0
2017-09-20 12:57:27.825356	2	0	0
2017-09-20 12:57:27.827859	-3	0	0
2017-09-20 12:57:27.830361	-1	0	0
2017-09-20 12:57:27.832859	-1	0	0
2017-09-20 12:57:27.835360	-5	0	0
2017-09-20 12:57:27.837860	9	0	0
2017-09-20 12:57:27.840359	0	0	0
2017-09-20 12:57:27.842859	8	0	0
2017-09-20 12:57:27.845361	-1	0	0
2017-09-20 12:57:27.847866	-2	0	0
2017-09-20 12:57:27.850366	-5	0	0
2017-09-20 12:57:27.852866	1	0	0
2017-09-20 12:57:27.855366	-4	0	0
2017-09-20 12:57:27.857861	-14	0	0
2017-09-20 12:57:27.860365	-11	0	0
2017-09-20 12:57:27.862869	-12	0	0
2017-09-20 12:57:27.865374	-11	0	0
2017-09-20 12:57:27.867875	-8	0	0
2017-09-20 12:57:27.870370	-13	0	0
2017-09-20 12:57:27.872865	-17	0	0
2017-09-20 12:57:27.875365	-26	0	0
2017-09-20 12:57:27.877871	-22	0	0
2017-09-20 12:57:27.880377	-26	0	0
2017-09-20 12:57:27.882881	-15	0	0
2017-09-20 12:57:27.885382	-17	0	0
2017-09-20 12:57:27.887879	-17	0	0
2017-09-20 12:57:27.890380	-20	0	0
2017-09-20 12:57:27.892880	-12	0	0
2017-09-20 12:57:27.895382	-25	0	0
2017-09-20 12:57:27.897887	-27	0	0
2017-09-20 12:57:27.900386	-22	0	0
2017-09-20 12:57:27.902886	-22	0	0
2017-09-20 12:57:27.905389	-28	0	0
2017-09-20 12:57:27.907891	-14	0	0
2017-09-20 12:57:27.910392	-13	0	0
2017-09-20 12:57:27.912894	-19	0	0
2017-09-20 12:57:27.915394	-17	0	0
2017-09-20 12:57:27.917897	-15	0	0
2017-09-20 12:57:27.920395	-20	0	0
2017-09-20 12:57:27.922893	-15	0	0
2017-09-20 12:57:27.925393	-15	0	0
2017-09-20 12:57:27.927892	-8	0	0
2017-09-20 12:57:27.930388	-4	0	0
2017-09-20 12:57:27.932889	-6	0	0
2017-09-20 12:57:27.935392	-5	0	0
2017-09-20 12:57:27.937895	-9	0	0
2017-09-20 12:57:27.940390	-12	0	0
2017-09-20 12:57:27.942890	-11	0	0
2017-09-20 12:57:27.945392	-15	0	0
2017-09-20 12:57:27.947892	-13	0	0
2017-09-20 12:57:27.950387	-3	0	0
2017-09-20 12:57:27.952886	-8	0	0
2017-09-20 12:57:27.955388	-11	0	0
2017-09-20 12:57:27.957889	-7	0	0
2017-09-20 12:57:27.960386	-12	0	0
2017-09-20 12:57:27.962882	-15	0	0
2017-09-20 12:57:27.965381	-9	0	0
2017-09-20 12:57:27.967879	-3	0	0
2017-09-20 12:57:27.970380	-4	0	0
2017-09-20 12:57:27.972879	-12	0	0
2017-09-20 12:57:27.975383	-7	0	0
2017-09-20 12:57:27.977883	-7	0	0
2017-09-20 12:57:27.980382	-5	0	0
2017-09-20 12:57:27.982881	-10	0	0
2017-09-20 12:57:27.985377	-7	0	0
2017-09-20 12:57:27.987876	-11	0	0
2017-09-20 12:57:27.990378	-24	0	0
2017-09-20 12:57:27.992882	-28	0	0
2017-09-20 12:57:27.995377	-11	0	0
2017-09-20 12:57:27.997878	-21	0	0
2017-09-20 12:57:28.000381	-24	0	0
2017-09-20 12:57:28.002883	-20	0	0
2017-09-20 12:57:28.005385	-13	0	0
2017-09-20 12:57:28.007886	-12	0	0
2017-09-20 12:57:28.010387	-10	0	0
2017-09-20 12:57:28.012893	-27	0	0
2017-09-20 12:57:28.015395	-21	0	0
2017-09-20 12:57:28.017891	-15	0	0
2017-09-20 12:57:28.020394	-18	0	0
2017-09-20 12:57:28.022898	-22	0	0
2017-09-20 12:57:28.025392	-11	0	0
2017-09-20 12:57:28.027898	-10	0	0
2017-09-20 12:57:28.030400	-11	0	0
2017-09-20 12:57:28.032894	-10	0	0
2017-09-20 12:57:28.035388	-16	0	0
2017-09-20 12:57:28.037885	-16	0	0
2017-09-20 12:57:28.040390	-18	0	0
2017-09-20 12:57:28.042891	-24	0	0
2017-09-20 12:57:28.045396	-12	0	0
2017-09-20 12:57:28.047890	-18	0	0
2017-09-20 12:57:28.050390	-17	0	0
2017-09-20 12:57:28.052896	-14	0	0
2017-09-20 12:57:28.055399	-7	0	0
2017-09-20 12:57:28.057902	-10	0	0
2017-09-20 12:57:28.060397	-19	0	0
2017-09-20 12:57:28.062896	-17	0	0
2017-09-20 12:57:28.065396	-8	0	0
2017-09-20 12:57:28.067894	-20	0	0
2017-09-20 12:57:28.070404	-6	0	0
2017-09-20 12:57:28.072893	-11	0	0
2017-09-20 12:57:28.075388	-10	0	0
2017-09-20 12:57:28.077888	-10	0	0
2017-09-20 12:57:28.080391	-2	0	0
2017-09-20 12:57:28.082887	-7	0	0
2017-09-20 12:57:28.085388	-4	0	0
2017-09-20 12:57:28.087889	-4	0	0
2017-09-20 12:57:28.090391	-1	0	0
2017-09-20 12:57:28.092893	-15	0	0
2017-09-20 12:57:28.095396	-6	0	0
2017-09-20 12:57:28.097898	-4	0	0
2017-09-20 12:57:28.100395	-11	0	0
2017-09-20 12:57:28.102900	-5	0	0
2017-09-20 12:57:28.105399	-10	0	0
2017-09-20 12:57:28.107900	-8	0	0
2017-09-20 12:57:28.110405	-1	0	0
2017-09-20 12:57:28.112905	-6	0	0
2017-09-20 12:57:28.115406	-10	0	0
2017-09-20 12:57:28.117900	-10	0	0
2017-09-20 12:57:28.120400	-1	0	0
2017-09-20 12:57:28.122897	-2	0	0
2017-09-20 12:57:28.125398	-7	0	0
2017-09-20 12:57:28.127898	-2	0	0
2017-09-20 12:57:28.130393	-6	0	0
2017-09-20 12:57:28.132896	-3	0	0
2017-09-20 12:57:28.135400	-1	0	0
2017-09-20 12:57:28.137900	-9	0	0
2017-09-20 12:57:28.140400	-10	0	0
2017-09-20 12:57:28.142905	-14	0	0
2017-09-20 12:57:28.145402	1	0	0
2017-09-20 12:57:28.147900	-11	0	0
2017-09-20 12:57:28.150400	-18	0	0
2017-09-20 12:57:28.152902	-8	0	0
2017-09-20 12:57:28.155404	-19	0	0
2017-09-20 12:57:28.157905	-10	0	0
2017-09-20 12:57:28.160405	-11	0	0
2017-09-20 12:57:28.162904	-8	0	0
2017-09-20 12:57:28.165408	-15	0	0
2017-09-20 12:57:28.167911	-9	0	0
2017-09-20 12:57:28.170408	-17	0	0
2017-09-20 12:57:28.172907	-14	0	0
2017-09-20 12:57:28.175403	-4	0	0
2017-09-20 12:57:28.177907	-13	0	0
2017-09-20 12:57:28.180402	-17	0	0
2017-09-20 12:57:28.182904	-7	0	0
2017-09-20 12:57:28.185403	-13	0	0
2017-09-20 12:57:28.187905	-17	0	0
2017-09-20 12:57:28.190404	-16	0	0
2017-09-20 12:57:28.192908	-9	0	0
2017-09-20 12:57:28.195413	-14	0	0
2017-09-20 12:57:28.197918	-17	0	0
2017-09-20 12:57:28.200424	-17	0	0
2017-09-20 12:57:28.202928	-18	0	0
2017-09-20 12:57:28.205429	-15	0	0
2017-09-20 12:57:28.207934	-20	0	0
2017-09-20 12:57:28.210429	-17	0	0
2017-09-20 12:57:28.212934	-22	0	0
2017-09-20 12:57:28.215438	-9	0	0
2017-09-20 12:57:28.217932	-13	0	0
2017-09-20 12:57:28.220432	-11	0	0
2017-09-20 12:57:28.222932	-2	0	0
2017-09-20 12:57:28.225429	-12	0	0
2017-09-20 12:57:28.227931	-17	0	0
2017-09-20 12:57:28.230427	-17	0	0
2017-09-20 12:57:28.232928	-12	0	0
2017-09-20 12:57:28.235431	-11	0	0
2017-09-20 12:57:28.237932	-14	0	0
2017-09-20 12:57:28.240436	-10	0	0
2017-09-20 12:57:28.242933	-22	0	0
2017-09-20 12:57:28.245437	-4	0	0
2017-09-20 12:57:28.247937	-1	0	0
2017-09-20 12:57:28.250436	-14	0	0
2017-09-20 12:57:28.252938	-6	0	0
2017-09-20 12:57:28.255442	-13	0	0
2017-09-20 12:57:28.257944	-10	0	0
2017-09-20 12:57:28.260440	-6	0	0
2017-09-20 12:57:28.262942	-8	0	0
2017-09-20 12:57:28.265442	-10	0	0
2017-09-20 12:57:28.267944	-16	0	0
2017-09-20 12:57:28.270443	-3	0	0
2017-09-20 12:57:28.272937	-14	0	0
2017-09-20 12:57:28.275440	-4	0	0
2017-09-20 12:57:28.277944	-3	0	0
2017-09-20 12:57:28.280441	-19	0	0
2017-09-20 12:57:28.282941	-5	0	0
2017-09-20 12:57:28.285443	-8	0	0
2017-09-20 12:57:28.287942	-7	0	0
2017-09-20 12:57:28.290442	-10	0	0
2017-09-20 12:57:28.292947	-7	0	0
2017-09-20 12:57:28.295441	1	0	0
2017-09-20 12:57:28.297935	0	0	0
2017-09-20 12:57:28.300437	-7	0	0
2017-09-20 12:57:28.302935	-8	0	0
2017-09-20 12:57:28.305437	-21	0	0
2017-09-20 12:57:28.307939	-9	0	0
2017-09-20 12:57:28.310443	-8	0	0
2017-09-20 12:57:28.312941	-6	0	0
2017-09-20 12:57:28.315436	-12	0	0
2017-09-20 12:57:28.317933	-4	0	0
2017-09-20 12:57:28.320430	-15	0	0
2017-09-20 12:57:28.322936	-7	0	0
2017-09-20 12:57:28.325437	-10	0	0
2017-09-20 12:57:28.327943	-6	0	0
2017-09-20 12:57:28.330441	-6	0	0
2017-09-20 12:57:28.332944	-4	0	0
2017-09-20 12:57:28.335448	-11	0	0
2017-09-20 12:57:28.337952	-9	0	0
2017-09-20 12:57:28.340457	-12	0	0
2017-09-20 12:57:28.342957	-13	0	0
2017-09-20 12:57:28.345456	-5	0	0
2017-09-20 12:57:28.347960	-17	0	0
2017-09-20 12:57:28.350466	-20	0	0
2017-09-20 12:57:28.352968	-16	0	0
2017-09-20 12:57:28.355465	-21	0	0
2017-09-20 12:57:28.357968	-15	0	0
2017-09-20 12:57:28.360470	-13	0	0
2017-09-20 12:57:28.362974	-10	0	0
2017-09-20 12:57:28.365477	-15	0	0
2017-09-20 12:57:28.367981	-20	0	0
2017-09-20 12:57:28.370484	-16	0	0
2017-09-20 12:57:28.372986	-24	0	0
2017-09-20 12:57:28.375488	-15	0	0
2017-09-20 12:57:28.377991	-27	0	0
2017-09-20 12:57:28.380486	-28	0	0
2017-09-20 12:57:28.382990	-25	0	0
2017-09-20 12:57:28.385491	-5	0	0
2017-09-20 12:57:28.387990	-15	0	0
2017-09-20 12:57:28.390492	-25	0	0
2017-09-20 12:57:28.392994	-9	0	0
2017-09-20 12:57:28.395495	-15	0	0
2017-09-20 12:57:28.397993	-15	0	0
2017-09-20 12:57:28.400488	0	0	0
2017-09-20 12:57:28.402985	-5	0	0
2017-09-20 12:57:28.405479	-8	0	0
2017-09-20 12:57:28.407981	-10	0	0
2017-09-20 12:57:28.410482	-4	0	0
2017-09-20 12:57:28.412986	-1	0	0
2017-09-20 12:57:28.415489	-21	0	0
2017-09-20 12:57:28.417990	1	0	0
2017-09-20 12:57:28.420494	-21	0	0
2017-09-20 12:57:28.422997	-6	0	0
2017-09-20 12:57:28.425503	-11	0	0
2017-09-20 12:57:28.428007	3	0	0
2017-09-20 12:57:28.430510	-2	0	0
2017-09-20 12:57:28.433010	6	0	0
2017-09-20 12:57:28.435513	-2	0	0
2017-09-20 12:57:28.438016	2	0	0
2017-09-20 12:57:28.440523	-13	0	0
2017-09-20 12:57:28.443028	1	0	0
2017-09-20 12:57:28.445532	-6	0	0
2017-09-20 12:57:28.448032	1	0	0
2017-09-20 12:57:28.450528	1	0	0
2017-09-20 12:57:28.453031	-6	0	0
2017-09-20 12:57:28.455523	2	0	0
2017-09-20 12:57:28.458029	-2	0	0
2017-09-20 12:57:28.460526	-6	0	0
2017-09-20 12:57:28.463026	-9	0	0
2017-09-20 12:57:28.465526	-6	0	0
2017-09-20 12:57:28.468027	-10	0	0
2017-09-20 12:57:28.470531	-9	0	0
2017-09-20 12:57:28.473031	-3	0	0
2017-09-20 12:57:28.475526	-2	0	0
2017-09-20 12:57:28.478030	-11	0	0
2017-09-20 12:57:28.480525	-13	0	0
2017-09-20 12:57:28.483028	-9	0	0
2017-09-20 12:57:28.485530	-19	0	0
2017-09-20 12:57:28.488034	-18	0	0
2017-09-20 12:57:28.490533	-26	0	0
2017-09-20 12:57:28.493028	-23	0	0
2017-09-20 12:57:28.495533	-28	0	0
2017-09-20 12:57:28.498037	-13	0	0
2017-09-20 12:57:28.500534	-16	0	0
2017-09-20 12:57:28.503035	-25	0	0
2017-09-20 12:57:28.505530	-20	0	0
2017-09-20 12:57:28.508032	-4	0	0
2017-09-20 12:57:28.510538	-27	0	0
2017-09-20 12:57:28.513041	-4	0	0
2017-09-20 12:57:28.515540	-8	0	0
2017-09-20 12:57:28.518042	-20	0	0
2017-09-20 12:57:28.520542	-10	0	0
2017-09-20 12:57:28.523047	-26	0	0
2017-09-20 12:57:28.525552	-15	0	0
2017-09-20 12:57:28.528055	-23	0	0
2017-09-20 12:57:28.530552	-17	0	0
2017-09-20 12:57:28.533057	-3	0	0
2017-09-20 12:57:28.535555	-14	0	0
2017-09-20 12:57:28.538061	-6	0	0
2017-09-20 12:57:28.540556	-8	0	0
2017-09-20 12:57:28.543057	-20	0	0
2017-09-20 12:57:28.545557	-19	0	0
2017-09-20 12:57:28.548058	-13	0	0
2017-09-20 12:57:28.550555	-15	0	0
2017-09-20 12:57:28.553055	-3	0	0
2017-09-20 12:57:28.555558	-12	0	0
2017-09-20 12:57:28.558057	-9	0	0
2017-09-20 12:57:28.560553	-9	0	0
2017-09-20 12:57:28.563054	-5	0	0
2017-09-20 12:57:28.565556	-18	0	0
2017-09-20 12:57:28.568062	-6	0	0
2017-09-20 12:57:28.570556	-7	0	0
2017-09-20 12:57:28.573057	0	0	0
2017-09-20 12:57:28.575564	-8	0	0
2017-09-20 12:57:28.578084	-7	0	0
2017-09-20 12:57:28.580562	-9	0	0
2017-09-20 12:57:28.583063	-10	0	0
2017-09-20 12:57:28.585565	-10	0	0
2017-09-20 12:57:28.588083	-20	0	0
2017-09-20 12:57:28.590574	-6	0	0
2017-09-20 12:57:28.593079	-5	0	0
2017-09-20 12:57:28.595577	-8	0	0
2017-09-20 12:57:28.598084	-11	0	0
2017-09-20 12:57:28.600574	-5	0	0
2017-09-20 12:57:28.603076	-18	0	0
2017-09-20 12:57:28.605578	-9	0	0
2017-09-20 12:57:28.608090	-9	0	0
2017-09-20 12:57:28.610570	-7	0	0
2017-09-20 12:57:28.613063	-9	0	0
2017-09-20 12:57:28.615567	-5	0	0
2017-09-20 12:57:28.618086	-12	0	0
2017-09-20 12:57:28.620565	-11	0	0
2017-09-20 12:57:28.623070	-15	0	0
2017-09-20 12:57:28.625574	-4	0	0
2017-09-20 12:57:28.628082	-9	0	0
2017-09-20 12:57:28.630573	-8	0	0
2017-09-20 12:57:28.633074	-7	0	0
2017-09-20 12:57:28.635578	-16	0	0
2017-09-20 12:57:28.638086	-18	0	0
2017-09-20 12:57:28.640577	-14	0	0
2017-09-20 12:57:28.643080	-16	0	0
2017-09-20 12:57:28.645584	-15	0	0
2017-09-20 12:57:28.648093	-7	0	0
2017-09-20 12:57:28.650582	-12	0	0
2017-09-20 12:57:28.653088	-16	0	0
2017-09-20 12:57:28.655583	-22	0	0
2017-09-20 12:57:28.658083	-12	0	0
2017-09-20 12:57:28.660573	-13	0	0
2017-09-20 12:57:28.663077	-18	0	0
2017-09-20 12:57:28.665589	-19	0	0
2017-09-20 12:57:28.668086	-14	0	0
2017-09-20 12:57:28.670581	-17	0	0
2017-09-20 12:57:28.673082	-15	0	0
2017-09-20 12:57:28.675581	-12	0	0
2017-09-20 12:57:28.678094	-16	0	0
2017-09-20 12:57:28.680581	-15	0	0
2017-09-20 12:57:28.683084	-9	0	0
2017-09-20 12:57:28.685587	-14	0	0
2017-09-20 12:57:28.688095	-20	0	0
2017-09-20 12:57:28.690589	-11	0	0
2017-09-20 12:57:28.693089	-17	0	0
2017-09-20 12:57:28.695589	-11	0	0
2017-09-20 12:57:28.698097	-19	0	0
2017-09-20 12:57:28.700589	-19	0	0
2017-09-20 12:57:28.703093	-14	0	0
2017-09-20 12:57:28.705598	-4	0	0
2017-09-20 12:57:28.708100	-10	0	0
2017-09-20 12:57:28.710593	-3	0	0
2017-09-20 12:57:28.713101	-5	0	0
2017-09-20 12:57:28.715603	-11	0	0
2017-09-20 12:57:28.718109	-6	0	0
2017-09-20 12:57:28.720604	-5	0	0
2017-09-20 12:57:28.723110	-11	0	0
2017-09-20 12:57:28.725607	-11	0	0
2017-09-20 12:57:28.728112	-9	0	0
2017-09-20 12:57:28.730611	-3	0	0
2017-09-20 12:57:28.733110	1	0	0
2017-09-20 12:57:28.735614	-7	0	0
2017-09-20 12:57:28.738120	-7	0	0
2017-09-20 12:57:28.740610	-1	0	0
2017-09-20 12:57:28.743113	-9	0	0
2017-09-20 12:57:28.745612	-4	0	0
2017-09-20 12:57:28.748111	2	0	0
2017-09-20 12:57:28.750613	-12	0	0
2017-09-20 12:57:28.753113	-6	0	0
2017-09-20 12:57:28.755616	-5	0	0
2017-09-20 12:57:28.758122	-9	0	0
2017-09-20 12:57:28.760621	-4	0	0
2017-09-20 12:57:28.763123	-8	0	0
2017-09-20 12:57:28.765623	-7	0	0
2017-09-20 12:57:28.768128	-7	0	0
2017-09-20 12:57:28.770633	-9	0	0
2017-09-20 12:57:28.773135	-17	0	0
2017-09-20 12:57:28.775638	-4	0	0
2017-09-20 12:57:28.778146	-4	0	0
2017-09-20 12:57:28.780645	-6	0	0
2017-09-20 12:57:28.783149	-3	0	0
2017-09-20 12:57:28.785651	-6	0	0
2017-09-20 12:57:28.788157	-19	0	0
2017-09-20 12:57:28.790644	-11	0	0
2017-09-20 12:57:28.793179	-16	0	0
2017-09-20 12:57:28.795690	-9	0	0
2017-09-20 12:57:28.798160	-14	0	0
2017-09-20 12:57:28.800645	-15	0	0
2017-09-20 12:57:28.803150	-22	0	0
2017-09-20 12:57:28.805645	-10	0	0
2017-09-20 12:57:28.808141	-10	0	0
2017-09-20 12:57:28.810637	-10	0	0
2017-09-20 12:57:28.813133	-17	0	0
2017-09-20 12:57:28.815637	-19	0	0
2017-09-20 12:57:28.818142	-1	0	0
2017-09-20 12:57:28.820639	-15	0	0
2017-09-20 12:57:28.823142	-15	0	0
2017-09-20 12:57:28.825644	-8	0	0
2017-09-20 12:57:28.828147	-6	0	0
2017-09-20 12:57:28.830640	-18	0	0
2017-09-20 12:57:28.833144	-10	0	0
2017-09-20 12:57:28.835646	-4	0	0
2017-09-20 12:57:28.838148	-10	0	0
2017-09-20 12:57:28.840648	-15	0	0
2017-09-20 12:57:28.843151	-9	0	0
2017-09-20 12:57:28.845651	-12	0	0
2017-09-20 12:57:28.848156	-7	0	0
2017-09-20 12:57:28.850647	-10	0	0
2017-09-20 12:57:28.853152	-2	0	0
2017-09-20 12:57:28.855647	-9	0	0
2017-09-20 12:57:28.858152	-4	0	0
2017-09-20 12:57:28.860642	-10	0	0
2017-09-20 12:57:28.863147	-5	0	0
2017-09-20 12:57:28.865649	-6	0	0
2017-09-20 12:57:28.868157	1	0	0
2017-09-20 12:57:28.870656	3	0	0
2017-09-20 12:57:28.873160	-4	0	0
2017-09-20 12:57:28.875662	-12	0	0
2017-09-20 12:57:28.878168	-13	0	0
2017-09-20 12:57:28.880666	1	0	0
2017-09-20 12:57:28.883169	-8	0	0
2017-09-20 12:57:28.885674	-14	0	0
2017-09-20 12:57:28.888173	-12	0	0
2017-09-20 12:57:28.890662	0	0	0
2017-09-20 12:57:28.893165	-5	0	0
2017-09-20 12:57:28.895667	-3	0	0
2017-09-20 12:57:28.898176	-9	0	0
2017-09-20 12:57:28.900672	1	0	0
2017-09-20 12:57:28.903175	-11	0	0
2017-09-20 12:57:28.905680	-13	0	0
2017-09-20 12:57:28.908182	-11	0	0
2017-09-20 12:57:28.910679	2	0	0
2017-09-20 12:57:28.913185	-16	0	0
2017-09-20 12:57:28.915686	-5	0	0
2017-09-20 12:57:28.918193	-10	0	0
2017-09-20 12:57:28.920681	-10	0	0
2017-09-20 12:57:28.923183	-11	0	0
2017-09-20 12:57:28.925685	-6	0	0
2017-09-20 12:57:28.928195	-15	0	0
2017-09-20 12:57:28.930686	-13	0	0
2017-09-20 12:57:28.933190	-21	0	0
2017-09-20 12:57:28.935685	-24	0	0
2017-09-20 12:57:28.938183	-22	0	0
2017-09-20 12:57:28.940672	-20	0	0
2017-09-20 12:57:28.943178	-16	0	0
2017-09-20 12:57:28.945684	-26	0	0
2017-09-20 12:57:28.948192	-15	0	0
2017-09-20 12:57:28.950678	-11	0	0
2017-09-20 12:57:28.953183	-29	0	0
2017-09-20 12:57:28.955684	-26	0	0
2017-09-20 12:57:28.958192	-20	0	0
2017-09-20 12:57:28.960690	-23	0	0
2017-09-20 12:57:28.963194	-29	0	0
2017-09-20 12:57:28.965699	-21	0	0
2017-09-20 12:57:28.968204	-19	0	0
2017-09-20 12:57:28.970701	-22	0	0
2017-09-20 12:57:28.973205	-24	0	0
2017-09-20 12:57:28.975708	-20	0	0
2017-09-20 12:57:28.978213	-26	0	0
2017-09-20 12:57:28.980702	-20	0	0
2017-09-20 12:57:28.983207	-30	0	0
2017-09-20 12:57:28.985713	-13	0	0
2017-09-20 12:57:28.988217	-18	0	0
2017-09-20 12:57:28.990718	-23	0	0
2017-09-20 12:57:28.993222	-13	0	0
2017-09-20 12:57:28.995723	-15	0	0
2017-09-20 12:57:28.998229	-12	0	0
2017-09-20 12:57:29.000727	-4	0	0
2017-09-20 12:57:29.003226	-4	0	0
2017-09-20 12:57:29.005721	-12	0	0
2017-09-20 12:57:29.008223	-19	0	0
2017-09-20 12:57:29.010721	-15	0	0
2017-09-20 12:57:29.013218	7	0	0
2017-09-20 12:57:29.015717	-1	0	0
2017-09-20 12:57:29.018215	-2	0	0
2017-09-20 12:57:29.020717	-3	0	0
2017-09-20 12:57:29.023213	-1	0	0
2017-09-20 12:57:29.025712	-1	0	0
2017-09-20 12:57:29.028219	-1	0	0
2017-09-20 12:57:29.030712	6	0	0
2017-09-20 12:57:29.033220	-8	0	0
2017-09-20 12:57:29.035723	0	0	0
2017-09-20 12:57:29.038232	-3	0	0
2017-09-20 12:57:29.040724	-8	0	0
2017-09-20 12:57:29.043225	-20	0	0
2017-09-20 12:57:29.045727	-2	0	0
2017-09-20 12:57:29.048231	-18	0	0
2017-09-20 12:57:29.050726	-6	0	0
2017-09-20 12:57:29.053232	-13	0	0
2017-09-20 12:57:29.055735	-13	0	0
2017-09-20 12:57:29.058243	-8	0	0
2017-09-20 12:57:29.060743	-16	0	0
2017-09-20 12:57:29.063242	-13	0	0
2017-09-20 12:57:29.065742	-16	0	0
2017-09-20 12:57:29.068242	-6	0	0
2017-09-20 12:57:29.070735	-7	0	0
2017-09-20 12:57:29.073240	-15	0	0
2017-09-20 12:57:29.075739	-12	0	0
2017-09-20 12:57:29.078244	-9	0	0
2017-09-20 12:57:29.080744	-7	0	0
2017-09-20 12:57:29.083243	-9	0	0
2017-09-20 12:57:29.085745	-14	0	0
2017-09-20 12:57:29.088250	-18	0	0
2017-09-20 12:57:29.090740	-13	0	0
2017-09-20 12:57:29.093245	-12	0	0
2017-09-20 12:57:29.095745	-8	0	0
2017-09-20 12:57:29.098252	-9	0	0
2017-09-20 12:57:29.100748	-13	0	0
2017-09-20 12:57:29.103253	-9	0	0
2017-09-20 12:57:29.105747	-5	0	0
2017-09-20 12:57:29.108255	-10	0	0
2017-09-20 12:57:29.110749	-11	0	0
2017-09-20 12:57:29.113249	-15	0	0
2017-09-20 12:57:29.115749	-8	0	0
2017-09-20 12:57:29.118255	3	0	0
2017-09-20 12:57:29.120745	-7	0	0
2017-09-20 12:57:29.123250	-17	0	0
2017-09-20 12:57:29.125744	-42	0	0
2017-09-20 12:57:29.128251	13	0	0
2017-09-20 12:57:29.130752	-5	0	0
2017-09-20 12:57:29.133252	9	0	0
2017-09-20 12:57:29.135755	-22	0	0
2017-09-20 12:57:29.138260	-34	0	0
2017-09-20 12:57:29.140758	-8	0	0
2017-09-20 12:57:29.143260	10	0	0
2017-09-20 12:57:29.145765	5	0	0
2017-09-20 12:57:29.148271	1	0	0
2017-09-20 12:57:29.150771	1	0	0
2017-09-20 12:57:29.153273	14	0	0
2017-09-20 12:57:29.155777	-1	0	0
2017-09-20 12:57:29.158283	-5	0	0
2017-09-20 12:57:29.160780	4	0	0
2017-09-20 12:57:29.163284	20	0	0
2017-09-20 12:57:29.165786	16	0	0
2017-09-20 12:57:29.168291	3	0	0
2017-09-20 12:57:29.170784	5	0	0
2017-09-20 12:57:29.173285	7	0	0
2017-09-20 12:57:29.175790	10	0	0
2017-09-20 12:57:29.178298	8	0	0
2017-09-20 12:57:29.180796	-3	0	0
2017-09-20 12:57:29.183296	9	0	0
2017-09-20 12:57:29.185796	8	0	0
2017-09-20 12:57:29.188301	11	0	0
2017-09-20 12:57:29.190801	1	0	0
2017-09-20 12:57:29.193302	-10	0	0
2017-09-20 12:57:29.195803	0	0	0
2017-09-20 12:57:29.198308	2	0	0
2017-09-20 12:57:29.200797	-10	0	0
2017-09-20 12:57:29.203299	-3	0	0
2017-09-20 12:57:29.205796	-6	0	0
2017-09-20 12:57:29.208294	-6	0	0
2017-09-20 12:57:29.210786	-5	0	0
2017-09-20 12:57:29.213293	-12	0	0
2017-09-20 12:57:29.215789	-3	0	0
2017-09-20 12:57:29.218285	-10	0	0
2017-09-20 12:57:29.220775	-16	0	0
2017-09-20 12:57:29.223276	-16	0	0
2017-09-20 12:57:29.225774	-18	0	0
2017-09-20 12:57:29.228270	-29	0	0
2017-09-20 12:57:29.230762	-21	0	0
2017-09-20 12:57:29.233265	-14	0	0
2017-09-20 12:57:29.235764	-35	0	0
2017-09-20 12:57:29.238268	-49	0	0
2017-09-20 12:57:29.240760	-44	0	0
2017-09-20 12:57:29.243262	-16	0	0
2017-09-20 12:57:29.245767	-30	0	0
2017-09-20 12:57:29.248272	-45	0	0
2017-09-20 12:57:29.250770	-35	0	0
2017-09-20 12:57:29.253272	-32	0	0
2017-09-20 12:57:29.255776	-20	0	0
2017-09-20 12:57:29.258282	-17	0	0
2017-09-20 12:57:29.260772	-37	0	0
2017-09-20 12:57:29.263278	-41	0	0
2017-09-20 12:57:29.265768	-59	0	0
2017-09-20 12:57:29.268263	-43	0	0
2017-09-20 12:57:29.270767	-37	0	0
2017-09-20 12:57:29.273269	-32	0	0
2017-09-20 12:57:29.275766	-39	0	0
2017-09-20 12:57:29.278273	-37	0	0
2017-09-20 12:57:29.280762	-34	0	0
2017-09-20 12:57:29.283263	-51	0	0
2017-09-20 12:57:29.285766	-47	0	0
2017-09-20 12:57:29.288275	-40	0	0
2017-09-20 12:57:29.290767	-25	0	0
2017-09-20 12:57:29.293269	-49	0	0
2017-09-20 12:57:29.295775	-22	0	0
2017-09-20 12:57:29.298283	-24	0	0
2017-09-20 12:57:29.300782	-32	0	0
2017-09-20 12:57:29.303285	-25	0	0
2017-09-20 12:57:29.305791	-20	0	0
2017-09-20 12:57:29.308287	-12	0	0
2017-09-20 12:57:29.310777	-1	0	0
2017-09-20 12:57:29.313280	-5	0	0
2017-09-20 12:57:29.315784	-17	0	0
2017-09-20 12:57:29.318293	-15	0	0
2017-09-20 12:57:29.320792	-8	0	0
2017-09-20 12:57:29.323296	-4	0	0
2017-09-20 12:57:29.325798	-11	0	0
2017-09-20 12:57:29.328306	-6	0	0
2017-09-20 12:57:29.330806	-4	0	0
2017-09-20 12:57:29.333307	-13	0	0
2017-09-20 12:57:29.335811	2	0	0
2017-09-20 12:57:29.338316	13	0	0
2017-09-20 12:57:29.340806	-3	0	0
2017-09-20 12:57:29.343312	2	0	0
2017-09-20 12:57:29.345814	14	0	0
2017-09-20 12:57:29.348319	17	0	0
2017-09-20 12:57:29.350818	31	0	0
2017-09-20 12:57:29.353326	-2	0	0
2017-09-20 12:57:29.355827	2	0	0
2017-09-20 12:57:29.358333	24	0	0
2017-09-20 12:57:29.360824	38	0	0
2017-09-20 12:57:29.363329	38	0	0
2017-09-20 12:57:29.365831	24	0	0
2017-09-20 12:57:29.368335	6	0	0
2017-09-20 12:57:29.370829	-5	0	0
2017-09-20 12:57:29.373326	11	0	0
2017-09-20 12:57:29.375824	41	0	0
2017-09-20 12:57:29.378327	26	0	0
2017-09-20 12:57:29.380817	17	0	0
2017-09-20 12:57:29.383317	13	0	0
2017-09-20 12:57:29.385819	4	0	0
2017-09-20 12:57:29.388323	1	0	0
2017-09-20 12:57:29.390810	0	0	0
2017-09-20 12:57:29.393314	-2	0	0
2017-09-20 12:57:29.395807	0	0	0
2017-09-20 12:57:29.398315	-4	0	0
2017-09-20 12:57:29.400805	0	0	0
2017-09-20 12:57:29.403308	-20	0	0
2017-09-20 12:57:29.405810	-19	0	0
2017-09-20 12:57:29.408318	-28	0	0
2017-09-20 12:57:29.410809	-17	0	0
2017-09-20 12:57:29.413313	-23	0	0
2017-09-20 12:57:29.415813	-30	0	0
2017-09-20 12:57:29.418320	-21	0	0
2017-09-20 12:57:29.420820	-38	0	0
2017-09-20 12:57:29.423324	-38	0	0
2017-09-20 12:57:29.425827	-33	0	0
2017-09-20 12:57:29.428334	-42	0	0
2017-09-20 12:57:29.430823	-48	0	0
2017-09-20 12:57:29.433328	-34	0	0
2017-09-20 12:57:29.435833	-17	0	0
2017-09-20 12:57:29.438329	-43	0	0
2017-09-20 12:57:29.440829	-30	0	0
2017-09-20 12:57:29.443334	-50	0	0
2017-09-20 12:57:29.445837	-38	0	0
2017-09-20 12:57:29.448345	-28	0	0
2017-09-20 12:57:29.450836	-21	0	0
2017-09-20 12:57:29.453337	-16	0	0
2017-09-20 12:57:29.455837	1	0	0
2017-09-20 12:57:29.458343	-5	0	0
2017-09-20 12:57:29.460844	-13	0	0
2017-09-20 12:57:29.463344	-26	0	0
2017-09-20 12:57:29.465844	-15	0	0
2017-09-20 12:57:29.468351	16	0	0
2017-09-20 12:57:29.470842	24	0	0
2017-09-20 12:57:29.473346	16	0	0
2017-09-20 12:57:29.475849	1	0	0
2017-09-20 12:57:29.478352	0	0	0
2017-09-20 12:57:29.480853	-1	0	0
2017-09-20 12:57:29.483357	-9	0	0
2017-09-20 12:57:29.485859	4	0	0
2017-09-20 12:57:29.488363	7	0	0
2017-09-20 12:57:29.490860	3	0	0
2017-09-20 12:57:29.493366	3	0	0
2017-09-20 12:57:29.495872	1	0	0
2017-09-20 12:57:29.498379	-4	0	0
2017-09-20 12:57:29.500868	-17	0	0
2017-09-20 12:57:29.503373	-1	0	0
2017-09-20 12:57:29.505877	0	0	0
2017-09-20 12:57:29.508387	-6	0	0
2017-09-20 12:57:29.510875	1	0	0
2017-09-20 12:57:29.513376	-5	0	0
2017-09-20 12:57:29.515873	-1	0	0
2017-09-20 12:57:29.518374	5	0	0
2017-09-20 12:57:29.520875	13	0	0
2017-09-20 12:57:29.523372	4	0	0
2017-09-20 12:57:29.525878	-13	0	0
2017-09-20 12:57:29.528386	-20	0	0
2017-09-20 12:57:29.530876	-1	0	0
2017-09-20 12:57:29.533376	13	0	0
2017-09-20 12:57:29.535877	-2	0	0
2017-09-20 12:57:29.538383	-4	0	0
2017-09-20 12:57:29.540885	-8	0	0
2017-09-20 12:57:29.543385	-10	0	0
2017-09-20 12:57:29.545887	-12	0	0
2017-09-20 12:57:29.548385	-26	0	0
2017-09-20 12:57:29.550874	-8	0	0
2017-09-20 12:57:29.553376	-16	0	0
2017-09-20 12:57:29.555877	-40	0	0
2017-09-20 12:57:29.558385	-37	0	0
2017-09-20 12:57:29.560874	-40	0	0
2017-09-20 12:57:29.563373	-64	0	0
2017-09-20 12:57:29.565877	-22	0	0
2017-09-20 12:57:29.568382	-41	0	0
2017-09-20 12:57:29.570878	-34	0	0
2017-09-20 12:57:29.573383	-6	0	0
2017-09-20 12:57:29.575885	-59	0	0
2017-09-20 12:57:29.578390	-22	0	0
2017-09-20 12:57:29.580881	-46	0	0
2017-09-20 12:57:29.583388	-26	0	0
2017-09-20 12:57:29.585888	-32	0	0
2017-09-20 12:57:29.588394	-20	0	0
2017-09-20 12:57:29.590882	-34	0	0
2017-09-20 12:57:29.593384	-18	0	0
2017-09-20 12:57:29.595887	-36	0	0
2017-09-20 12:57:29.598392	-23	0	0
2017-09-20 12:57:29.600890	-36	0	0
2017-09-20 12:57:29.603393	-25	0	0
2017-09-20 12:57:29.605895	-40	0	0
2017-09-20 12:57:29.608401	-26	0	0
2017-09-20 12:57:29.610890	-15	0	0
2017-09-20 12:57:29.613393	-15	0	0
2017-09-20 12:57:29.615898	-33	0	0
2017-09-20 12:57:29.618403	-17	0	0
2017-09-20 12:57:29.620903	-5	0	0
2017-09-20 12:57:29.623407	11	0	0
2017-09-20 12:57:29.625908	-4	0	0
2017-09-20 12:57:29.628414	-3	0	0
2017-09-20 12:57:29.630910	-22	0	0
2017-09-20 12:57:29.633414	6	0	0
2017-09-20 12:57:29.635913	4	0	0
2017-09-20 12:57:29.638415	3	0	0
2017-09-20 12:57:29.640913	9	0	0
2017-09-20 12:57:29.643411	5	0	0
2017-09-20 12:57:29.645906	16	0	0
2017-09-20 12:57:29.648408	0	0	0
2017-09-20 12:57:29.650909	-4	0	0
2017-09-20 12:57:29.653412	-7	0	0
2017-09-20 12:57:29.655915	8	0	0
2017-09-20 12:57:29.658422	0	0	0
2017-09-20 12:57:29.660921	11	0	0
2017-09-20 12:57:29.663423	12	0	0
2017-09-20 12:57:29.665922	7	0	0
2017-09-20 12:57:29.668428	5	0	0
2017-09-20 12:57:29.670925	11	0	0
2017-09-20 12:57:29.673426	10	0	0
2017-09-20 12:57:29.675927	2	0	0
2017-09-20 12:57:29.678432	26	0	0
2017-09-20 12:57:29.680932	14	0	0
2017-09-20 12:57:29.683438	10	0	0
2017-09-20 12:57:29.685939	8	0	0
2017-09-20 12:57:29.688444	0	0	0
2017-09-20 12:57:29.690938	19	0	0
2017-09-20 12:57:29.693441	5	0	0
2017-09-20 12:57:29.695942	5	0	0
2017-09-20 12:57:29.698448	0	0	0
2017-09-20 12:57:29.700947	1	0	0
2017-09-20 12:57:29.703450	-6	0	0
2017-09-20 12:57:29.705952	-4	0	0
2017-09-20 12:57:29.708461	-11	0	0
2017-09-20 12:57:29.710960	-9	0	0
2017-09-20 12:57:29.713464	-15	0	0
2017-09-20 12:57:29.715965	-18	0	0
2017-09-20 12:57:29.718468	-20	0	0
2017-09-20 12:57:29.720958	-35	0	0
2017-09-20 12:57:29.723462	-27	0	0
2017-09-20 12:57:29.725964	-26	0	0
2017-09-20 12:57:29.728460	-25	0	0
2017-09-20 12:57:29.730952	-26	0	0
2017-09-20 12:57:29.733452	-21	0	0
2017-09-20 12:57:29.735952	-24	0	0
2017-09-20 12:57:29.738450	-13	0	0
2017-09-20 12:57:29.740938	-27	0	0
2017-09-20 12:57:29.743443	-34	0	0
2017-09-20 12:57:29.745944	-19	0	0
2017-09-20 12:57:29.748450	-14	0	0
2017-09-20 12:57:29.750948	-30	0	0
2017-09-20 12:57:29.753448	-39	0	0
2017-09-20 12:57:29.755958	-36	0	0
2017-09-20 12:57:29.758450	-27	0	0
2017-09-20 12:57:29.760941	-35	0	0
2017-09-20 12:57:29.763442	-30	0	0
2017-09-20 12:57:29.765942	-35	0	0
2017-09-20 12:57:29.768437	-36	0	0
2017-09-20 12:57:29.770931	-29	0	0
2017-09-20 12:57:29.773433	-28	0	0
2017-09-20 12:57:29.775935	-29	0	0
2017-09-20 12:57:29.778441	-15	0	0
2017-09-20 12:57:29.780931	-17	0	0
2017-09-20 12:57:29.783436	-17	0	0
2017-09-20 12:57:29.785931	-13	0	0
2017-09-20 12:57:29.788436	-17	0	0
2017-09-20 12:57:29.790926	-18	0	0
2017-09-20 12:57:29.793428	-9	0	0
2017-09-20 12:57:29.795933	-12	0	0
2017-09-20 12:57:29.798437	-8	0	0
2017-09-20 12:57:29.800933	-13	0	0
2017-09-20 12:57:29.803435	-1	0	0
2017-09-20 12:57:29.805940	-4	0	0
2017-09-20 12:57:29.808443	-4	0	0
2017-09-20 12:57:29.810935	-4	0	0
2017-09-20 12:57:29.813437	-7	0	0
2017-09-20 12:57:29.815940	11	0	0
2017-09-20 12:57:29.818443	0	0	0
2017-09-20 12:57:29.820941	2	0	0
2017-09-20 12:57:29.823446	-11	0	0
2017-09-20 12:57:29.825950	6	0	0
2017-09-20 12:57:29.828455	-15	0	0
2017-09-20 12:57:29.830944	-1	0	0
2017-09-20 12:57:29.833443	-1	0	0
2017-09-20 12:57:29.835942	-2	0	0
2017-09-20 12:57:29.838446	1	0	0
2017-09-20 12:57:29.840946	-2	0	0
2017-09-20 12:57:29.843447	0	0	0
2017-09-20 12:57:29.845949	-10	0	0
2017-09-20 12:57:29.848457	-11	0	0
2017-09-20 12:57:29.850957	-15	0	0
2017-09-20 12:57:29.853461	-4	0	0
2017-09-20 12:57:29.855963	-8	0	0
2017-09-20 12:57:29.858468	-10	0	0
2017-09-20 12:57:29.860966	-18	0	0
2017-09-20 12:57:29.863466	-22	0	0
2017-09-20 12:57:29.865968	-15	0	0
2017-09-20 12:57:29.868476	-22	0	0
2017-09-20 12:57:29.870971	-24	0	0
2017-09-20 12:57:29.873477	-24	0	0
2017-09-20 12:57:29.875978	-16	0	0
2017-09-20 12:57:29.878487	-14	0	0
2017-09-20 12:57:29.880986	-21	0	0
2017-09-20 12:57:29.883490	-22	0	0
2017-09-20 12:57:29.885981	-17	0	0
2017-09-20 12:57:29.888485	-31	0	0
2017-09-20 12:57:29.890987	-30	0	0
2017-09-20 12:57:29.893482	-20	0	0
2017-09-20 12:57:29.895983	-21	0	0
2017-09-20 12:57:29.898490	-21	0	0
