timestamp	x	y	z
2017-09-20 12:56:53.806695	-20	0	0
2017-09-20 12:56:53.809145	-25	0	0
2017-09-20 12:56:53.811645	-19	0	0
2017-09-20 12:56:53.814143	-19	0	0
2017-09-20 12:56:53.816688	-15	0	0
2017-09-20 12:56:53.819205	-16	0	0
2017-09-20 12:56:53.821710	-17	0	0
2017-09-20 12:56:53.824154	-28	0	0
2017-09-20 12:56:53.826659	-7	0	0
2017-09-20 12:56:53.829144	-12	0	0
2017-09-20 12:56:53.831669	-11	0	0
2017-09-20 12:56:53.834319	-11	0	0
2017-09-20 12:56:53.836794	-23	0	0
2017-09-20 12:56:53.839339	-18	0	0
2017-09-20 12:56:53.841709	-24	0	0
2017-09-20 12:56:53.844158	-24	0	0
2017-09-20 12:56:53.846667	-14	0	0
2017-09-20 12:56:53.849162	-15	0	0
2017-09-20 12:56:53.851661	-11	0	0
2017-09-20 12:56:53.854160	-16	0	0
2017-09-20 12:56:53.856654	-5	0	0
2017-09-20 12:56:53.859163	-9	0	0
2017-09-20 12:56:53.861655	-10	0	0
2017-09-20 12:56:53.864154	-11	0	0
2017-09-20 12:56:53.866658	-13	0	0
2017-09-20 12:56:53.869152	3	0	0
2017-09-20 12:56:53.871653	-6	0	0
2017-09-20 12:56:53.874149	-2	0	0
2017-09-20 12:56:53.876661	-9	0	0
2017-09-20 12:56:53.879158	-6	0	0
2017-09-20 12:56:53.881660	-8	0	0
2017-09-20 12:56:53.884162	-4	0	0
2017-09-20 12:56:53.886667	-5	0	0
2017-09-20 12:56:53.889159	-16	0	0
2017-09-20 12:56:53.891659	-4	0	0
2017-09-20 12:56:53.894166	-10	0	0
2017-09-20 12:56:53.896662	-8	0	0
2017-09-20 12:56:53.899165	-18	0	0
2017-09-20 12:56:53.901661	-12	0	0
2017-09-20 12:56:53.904157	-13	0	0
2017-09-20 12:56:53.906668	-13	0	0
2017-09-20 12:56:53.909162	-10	0	0
2017-09-20 12:56:53.911659	-9	0	0
2017-09-20 12:56:53.914161	-16	0	0
2017-09-20 12:56:53.916670	-19	0	0
2017-09-20 12:56:53.919164	-13	0	0
2017-09-20 12:56:53.921659	-13	0	0
2017-09-20 12:56:53.924162	-7	0	0
2017-09-20 12:56:53.926665	-9	0	0
2017-09-20 12:56:53.929155	-10	0	0
2017-09-20 12:56:53.931654	-15	0	0
2017-09-20 12:56:53.934160	-12	0	0
2017-09-20 12:56:53.936661	-12	0	0
2017-09-20 12:56:53.939160	-13	0	0
2017-09-20 12:56:53.941661	-10	0	0
2017-09-20 12:56:53.944165	-14	0	0
2017-09-20 12:56:53.946670	-17	0	0
2017-09-20 12:56:53.949165	-12	0	0
2017-09-20 12:56:53.951661	-9	0	0
2017-09-20 12:56:53.954163	-19	0	0
2017-09-20 12:56:53.956673	-1	0	0
2017-09-20 12:56:53.959167	-8	0	0
2017-09-20 12:56:53.961684	-35	0	0
2017-09-20 12:56:53.964175	-4	0	0
2017-09-20 12:56:53.966686	-17	0	0
2017-09-20 12:56:53.969187	-3	0	0
2017-09-20 12:56:53.971689	-14	0	0
2017-09-20 12:56:53.974191	0	0	0
2017-09-20 12:56:53.976693	-10	0	0
2017-09-20 12:56:53.979196	8	0	0
2017-09-20 12:56:53.981695	-2	0	0
2017-09-20 12:56:53.984194	-2	0	0
2017-09-20 12:56:53.986697	2	0	0
2017-09-20 12:56:53.989201	4	0	0
2017-09-20 12:56:53.991701	-9	0	0
2017-09-20 12:56:53.994203	0	0	0
2017-09-20 12:56:53.996699	-10	0	0
2017-09-20 12:56:53.999198	-28	0	0
2017-09-20 12:56:54.001697	-2	0	0
2017-09-20 12:56:54.004197	-40	0	0
2017-09-20 12:56:54.006690	8	0	0
2017-09-20 12:56:54.009190	-23	0	0
2017-09-20 12:56:54.011694	-4	0	0
2017-09-20 12:56:54.014201	-6	0	0
2017-09-20 12:56:54.016697	-13	0	0
2017-09-20 12:56:54.019200	-4	0	0
2017-09-20 12:56:54.021702	-12	0	0
2017-09-20 12:56:54.024199	-6	0	0
2017-09-20 12:56:54.026694	-9	0	0
2017-09-20 12:56:54.029198	-11	0	0
2017-09-20 12:56:54.031702	-17	0	0
2017-09-20 12:56:54.034203	-4	0	0
2017-09-20 12:56:54.036700	-10	0	0
2017-09-20 12:56:54.039195	-5	0	0
2017-09-20 12:56:54.041699	-10	0	0
2017-09-20 12:56:54.044203	-3	0	0
2017-09-20 12:56:54.046699	-10	0	0
2017-09-20 12:56:54.049203	3	0	0
2017-09-20 12:56:54.051707	-3	0	0
2017-09-20 12:56:54.054207	-9	0	0
2017-09-20 12:56:54.056706	-16	0	0
2017-09-20 12:56:54.059210	-16	0	0
2017-09-20 12:56:54.061707	6	0	0
2017-09-20 12:56:54.064207	10	0	0
2017-09-20 12:56:54.066709	-3	0	0
2017-09-20 12:56:54.069214	-38	0	0
2017-09-20 12:56:54.071713	-40	0	0
2017-09-20 12:56:54.074209	-22	0	0
2017-09-20 12:56:54.076711	-2	0	0
2017-09-20 12:56:54.079209	-1	0	0
2017-09-20 12:56:54.081702	-15	0	0
2017-09-20 12:56:54.084207	-28	0	0
2017-09-20 12:56:54.086708	-28	0	0
2017-09-20 12:56:54.089210	-39	0	0
2017-09-20 12:56:54.091705	-27	0	0
2017-09-20 12:56:54.094204	-23	0	0
2017-09-20 12:56:54.096708	-5	0	0
2017-09-20 12:56:54.099209	-14	0	0
2017-09-20 12:56:54.101706	-18	0	0
2017-09-20 12:56:54.104210	-25	0	0
2017-09-20 12:56:54.106714	-35	0	0
2017-09-20 12:56:54.109209	-21	0	0
2017-09-20 12:56:54.111711	-28	0	0
2017-09-20 12:56:54.114206	-27	0	0
2017-09-20 12:56:54.116701	-14	0	0
2017-09-20 12:56:54.119195	-16	0	0
2017-09-20 12:56:54.121701	-22	0	0
2017-09-20 12:56:54.124205	-10	0	0
2017-09-20 12:56:54.126709	-24	0	0
2017-09-20 12:56:54.129211	-23	0	0
2017-09-20 12:56:54.131714	-13	0	0
2017-09-20 12:56:54.134224	-10	0	0
2017-09-20 12:56:54.136717	-6	0	0
2017-09-20 12:56:54.139216	-12	0	0
2017-09-20 12:56:54.141713	-22	0	0
2017-09-20 12:56:54.144213	3	0	0
2017-09-20 12:56:54.146716	12	0	0
2017-09-20 12:56:54.149220	9	0	0
2017-09-20 12:56:54.151720	-1	0	0
2017-09-20 12:56:54.154228	-1	0	0
2017-09-20 12:56:54.156722	-3	0	0
2017-09-20 12:56:54.159214	3	0	0
2017-09-20 12:56:54.161721	-3	0	0
2017-09-20 12:56:54.164215	9	0	0
2017-09-20 12:56:54.166708	7	0	0
2017-09-20 12:56:54.169205	-7	0	0
2017-09-20 12:56:54.171711	-13	0	0
2017-09-20 12:56:54.174212	-4	0	0
2017-09-20 12:56:54.176706	-15	0	0
2017-09-20 12:56:54.179208	-4	0	0
2017-09-20 12:56:54.181714	-10	0	0
2017-09-20 12:56:54.184209	0	0	0
2017-09-20 12:56:54.186707	-7	0	0
2017-09-20 12:56:54.189208	-5	0	0
2017-09-20 12:56:54.191703	-3	0	0
2017-09-20 12:56:54.194205	0	0	0
2017-09-20 12:56:54.196709	-1	0	0
2017-09-20 12:56:54.199206	-8	0	0
2017-09-20 12:56:54.201709	-11	0	0
2017-09-20 12:56:54.204212	-10	0	0
2017-09-20 12:56:54.206708	-10	0	0
2017-09-20 12:56:54.209211	-6	0	0
2017-09-20 12:56:54.211716	-6	0	0
2017-09-20 12:56:54.214226	-11	0	0
2017-09-20 12:56:54.216717	-10	0	0
2017-09-20 12:56:54.219217	5	0	0
2017-09-20 12:56:54.221725	-16	0	0
2017-09-20 12:56:54.224227	-7	0	0
2017-09-20 12:56:54.226725	-1	0	0
2017-09-20 12:56:54.229228	-9	0	0
2017-09-20 12:56:54.231717	-2	0	0
2017-09-20 12:56:54.234233	-24	0	0
2017-09-20 12:56:54.236717	-20	0	0
2017-09-20 12:56:54.239217	6	0	0
2017-09-20 12:56:54.241728	13	0	0
2017-09-20 12:56:54.244273	-10	0	0
2017-09-20 12:56:54.246717	-38	0	0
2017-09-20 12:56:54.249217	-45	0	0
2017-09-20 12:56:54.251720	-17	0	0
2017-09-20 12:56:54.254227	9	0	0
2017-09-20 12:56:54.256722	11	0	0
2017-09-20 12:56:54.259225	-4	0	0
2017-09-20 12:56:54.261719	-28	0	0
2017-09-20 12:56:54.264221	-24	0	0
2017-09-20 12:56:54.266725	-27	0	0
2017-09-20 12:56:54.269220	-23	0	0
2017-09-20 12:56:54.271717	-13	0	0
2017-09-20 12:56:54.274229	-9	0	0
2017-09-20 12:56:54.276712	2	0	0
2017-09-20 12:56:54.279215	-9	0	0
2017-09-20 12:56:54.281715	-22	0	0
2017-09-20 12:56:54.284226	-20	0	0
2017-09-20 12:56:54.286715	-7	0	0
2017-09-20 12:56:54.289220	-14	0	0
2017-09-20 12:56:54.291721	-16	0	0
2017-09-20 12:56:54.294231	-6	0	0
2017-09-20 12:56:54.296723	-7	0	0
2017-09-20 12:56:54.299221	-4	0	0
2017-09-20 12:56:54.301718	-1	0	0
2017-09-20 12:56:54.304222	-2	0	0
2017-09-20 12:56:54.306725	-3	0	0
2017-09-20 12:56:54.309231	-5	0	0
2017-09-20 12:56:54.311728	-14	0	0
2017-09-20 12:56:54.314239	0	0	0
2017-09-20 12:56:54.316734	1	0	0
2017-09-20 12:56:54.319237	-1	0	0
2017-09-20 12:56:54.321739	-2	0	0
2017-09-20 12:56:54.324241	-10	0	0
2017-09-20 12:56:54.326736	0	0	0
2017-09-20 12:56:54.329236	7	0	0
2017-09-20 12:56:54.331741	-8	0	0
2017-09-20 12:56:54.334244	-8	0	0
2017-09-20 12:56:54.336748	-5	0	0
2017-09-20 12:56:54.339248	-8	0	0
2017-09-20 12:56:54.341744	-10	0	0
2017-09-20 12:56:54.344248	-10	0	0
2017-09-20 12:56:54.346750	-10	0	0
2017-09-20 12:56:54.349255	-3	0	0
2017-09-20 12:56:54.351753	-10	0	0
2017-09-20 12:56:54.354253	-2	0	0
2017-09-20 12:56:54.356757	-24	0	0
2017-09-20 12:56:54.359260	-29	0	0
2017-09-20 12:56:54.361754	-25	0	0
2017-09-20 12:56:54.364257	-9	0	0
2017-09-20 12:56:54.366758	-1	0	0
2017-09-20 12:56:54.369257	-17	0	0
2017-09-20 12:56:54.371759	-33	0	0
2017-09-20 12:56:54.374262	-33	0	0
2017-09-20 12:56:54.376757	-40	0	0
2017-09-20 12:56:54.379257	-24	0	0
2017-09-20 12:56:54.381755	-33	0	0
2017-09-20 12:56:54.384254	-11	0	0
2017-09-20 12:56:54.386757	-25	0	0
2017-09-20 12:56:54.389261	-23	0	0
2017-09-20 12:56:54.391760	-31	0	0
2017-09-20 12:56:54.394266	-42	0	0
2017-09-20 12:56:54.396762	-30	0	0
2017-09-20 12:56:54.399266	-31	0	0
2017-09-20 12:56:54.401780	-30	0	0
2017-09-20 12:56:54.404270	-33	0	0
2017-09-20 12:56:54.406773	-40	0	0
2017-09-20 12:56:54.409278	-16	0	0
2017-09-20 12:56:54.411782	-26	0	0
2017-09-20 12:56:54.414282	-20	0	0
2017-09-20 12:56:54.416784	-37	0	0
2017-09-20 12:56:54.419284	-28	0	0
2017-09-20 12:56:54.421779	-20	0	0
2017-09-20 12:56:54.424277	-19	0	0
2017-09-20 12:56:54.426777	-12	0	0
2017-09-20 12:56:54.429273	-27	0	0
2017-09-20 12:56:54.431768	-18	0	0
2017-09-20 12:56:54.434274	-18	0	0
2017-09-20 12:56:54.436771	-2	0	0
2017-09-20 12:56:54.439268	-30	0	0
2017-09-20 12:56:54.441772	-20	0	0
2017-09-20 12:56:54.444276	5	0	0
2017-09-20 12:56:54.446782	-16	0	0
2017-09-20 12:56:54.449286	-11	0	0
2017-09-20 12:56:54.451786	-18	0	0
2017-09-20 12:56:54.454287	-6	0	0
2017-09-20 12:56:54.456793	-13	0	0
2017-09-20 12:56:54.459298	-9	0	0
2017-09-20 12:56:54.461806	-3	0	0
2017-09-20 12:56:54.464301	0	0	0
2017-09-20 12:56:54.466802	4	0	0
2017-09-20 12:56:54.469298	-12	0	0
2017-09-20 12:56:54.471799	-4	0	0
2017-09-20 12:56:54.474304	-11	0	0
2017-09-20 12:56:54.476796	8	0	0
2017-09-20 12:56:54.479305	-1	0	0
2017-09-20 12:56:54.481807	-1	0	0
2017-09-20 12:56:54.484297	7	0	0
2017-09-20 12:56:54.486806	-4	0	0
2017-09-20 12:56:54.489306	-2	0	0
2017-09-20 12:56:54.491808	-6	0	0
2017-09-20 12:56:54.494299	-5	0	0
2017-09-20 12:56:54.496794	-6	0	0
2017-09-20 12:56:54.499290	-4	0	0
2017-09-20 12:56:54.501788	-13	0	0
2017-09-20 12:56:54.504287	-6	0	0
2017-09-20 12:56:54.506783	-16	0	0
2017-09-20 12:56:54.509291	-6	0	0
2017-09-20 12:56:54.511790	-19	0	0
2017-09-20 12:56:54.514285	-17	0	0
2017-09-20 12:56:54.516781	-9	0	0
2017-09-20 12:56:54.519276	-8	0	0
2017-09-20 12:56:54.521781	-13	0	0
2017-09-20 12:56:54.524287	-36	0	0
2017-09-20 12:56:54.526784	-36	0	0
2017-09-20 12:56:54.529282	-26	0	0
2017-09-20 12:56:54.531787	-24	0	0
2017-09-20 12:56:54.534290	-18	0	0
2017-09-20 12:56:54.536785	-15	0	0
2017-09-20 12:56:54.539283	-18	0	0
2017-09-20 12:56:54.541777	-33	0	0
2017-09-20 12:56:54.544282	-28	0	0
2017-09-20 12:56:54.546787	-36	0	0
2017-09-20 12:56:54.549287	-35	0	0
2017-09-20 12:56:54.551782	-23	0	0
2017-09-20 12:56:54.554285	-14	0	0
2017-09-20 12:56:54.556783	-15	0	0
2017-09-20 12:56:54.559281	-11	0	0
2017-09-20 12:56:54.561777	-6	0	0
2017-09-20 12:56:54.564284	-16	0	0
2017-09-20 12:56:54.566784	-12	0	0
2017-09-20 12:56:54.569286	-8	0	0
2017-09-20 12:56:54.571782	-5	0	0
2017-09-20 12:56:54.574283	6	0	0
2017-09-20 12:56:54.576785	2	0	0
2017-09-20 12:56:54.579286	3	0	0
2017-09-20 12:56:54.581799	3	0	0
2017-09-20 12:56:54.584289	11	0	0
2017-09-20 12:56:54.586789	15	0	0
2017-09-20 12:56:54.589294	1	0	0
2017-09-20 12:56:54.591790	8	0	0
2017-09-20 12:56:54.594295	16	0	0
2017-09-20 12:56:54.596790	21	0	0
2017-09-20 12:56:54.599289	28	0	0
2017-09-20 12:56:54.601802	14	0	0
2017-09-20 12:56:54.604289	13	0	0
2017-09-20 12:56:54.606789	19	0	0
2017-09-20 12:56:54.609290	22	0	0
2017-09-20 12:56:54.611796	7	0	0
2017-09-20 12:56:54.614292	19	0	0
2017-09-20 12:56:54.616788	10	0	0
2017-09-20 12:56:54.619291	26	0	0
2017-09-20 12:56:54.621784	12	0	0
2017-09-20 12:56:54.624285	20	0	0
2017-09-20 12:56:54.626786	13	0	0
2017-09-20 12:56:54.629292	12	0	0
2017-09-20 12:56:54.631789	9	0	0
2017-09-20 12:56:54.634288	8	0	0
2017-09-20 12:56:54.636793	-1	0	0
2017-09-20 12:56:54.639287	10	0	0
2017-09-20 12:56:54.641798	2	0	0
2017-09-20 12:56:54.644292	-7	0	0
2017-09-20 12:56:54.646796	-13	0	0
2017-09-20 12:56:54.649296	-14	0	0
2017-09-20 12:56:54.651805	-17	0	0
2017-09-20 12:56:54.654299	-23	0	0
2017-09-20 12:56:54.656796	-32	0	0
2017-09-20 12:56:54.659298	-45	0	0
2017-09-20 12:56:54.661803	-40	0	0
2017-09-20 12:56:54.664292	-47	0	0
2017-09-20 12:56:54.666791	-56	0	0
2017-09-20 12:56:54.669288	-58	0	0
2017-09-20 12:56:54.671787	-55	0	0
2017-09-20 12:56:54.674282	-43	0	0
2017-09-20 12:56:54.676782	-57	0	0
2017-09-20 12:56:54.679281	-59	0	0
2017-09-20 12:56:54.681786	-74	0	0
2017-09-20 12:56:54.684286	-47	0	0
2017-09-20 12:56:54.686786	-37	0	0
2017-09-20 12:56:54.689288	-61	0	0
2017-09-20 12:56:54.691796	-49	0	0
2017-09-20 12:56:54.694288	-42	0	0
2017-09-20 12:56:54.696791	-24	0	0
2017-09-20 12:56:54.699291	-56	0	0
2017-09-20 12:56:54.701798	-28	0	0
2017-09-20 12:56:54.704293	-60	0	0
2017-09-20 12:56:54.706795	1	0	0
2017-09-20 12:56:54.709302	-44	0	0
2017-09-20 12:56:54.711799	-33	0	0
2017-09-20 12:56:54.714301	-35	0	0
2017-09-20 12:56:54.716798	-20	0	0
2017-09-20 12:56:54.719296	-23	0	0
2017-09-20 12:56:54.721808	-5	0	0
2017-09-20 12:56:54.724305	-18	0	0
2017-09-20 12:56:54.726806	0	0	0
2017-09-20 12:56:54.729304	9	0	0
2017-09-20 12:56:54.731811	-9	0	0
2017-09-20 12:56:54.734304	-7	0	0
2017-09-20 12:56:54.736797	-13	0	0
2017-09-20 12:56:54.739297	4	0	0
2017-09-20 12:56:54.741803	5	0	0
2017-09-20 12:56:54.744295	14	0	0
2017-09-20 12:56:54.746799	1	0	0
2017-09-20 12:56:54.749295	-1	0	0
2017-09-20 12:56:54.751793	-2	0	0
2017-09-20 12:56:54.754294	9	0	0
2017-09-20 12:56:54.756791	3	0	0
2017-09-20 12:56:54.759289	0	0	0
2017-09-20 12:56:54.761804	-1	0	0
2017-09-20 12:56:54.764300	-4	0	0
2017-09-20 12:56:54.766798	1	0	0
2017-09-20 12:56:54.769297	2	0	0
2017-09-20 12:56:54.771799	-12	0	0
2017-09-20 12:56:54.774291	-2	0	0
2017-09-20 12:56:54.776794	11	0	0
2017-09-20 12:56:54.779295	5	0	0
2017-09-20 12:56:54.781801	-2	0	0
2017-09-20 12:56:54.784285	10	0	0
2017-09-20 12:56:54.786789	3	0	0
2017-09-20 12:56:54.789294	0	0	0
2017-09-20 12:56:54.791790	-3	0	0
2017-09-20 12:56:54.794294	0	0	0
2017-09-20 12:56:54.796791	3	0	0
2017-09-20 12:56:54.799286	4	0	0
2017-09-20 12:56:54.801802	-2	0	0
2017-09-20 12:56:54.804293	1	0	0
2017-09-20 12:56:54.806795	0	0	0
2017-09-20 12:56:54.809316	3	0	0
2017-09-20 12:56:54.811786	5	0	0
2017-09-20 12:56:54.814290	8	0	0
2017-09-20 12:56:54.816791	-1	0	0
2017-09-20 12:56:54.819285	4	0	0
2017-09-20 12:56:54.821798	9	0	0
2017-09-20 12:56:54.824285	4	0	0
2017-09-20 12:56:54.826790	11	0	0
2017-09-20 12:56:54.829288	-6	0	0
2017-09-20 12:56:54.831785	4	0	0
2017-09-20 12:56:54.834289	5	0	0
2017-09-20 12:56:54.836789	12	0	0
2017-09-20 12:56:54.839288	-3	0	0
2017-09-20 12:56:54.841800	2	0	0
2017-09-20 12:56:54.844292	4	0	0
2017-09-20 12:56:54.846791	-1	0	0
2017-09-20 12:56:54.849297	-3	0	0
2017-09-20 12:56:54.851807	-1	0	0
2017-09-20 12:56:54.854300	-4	0	0
2017-09-20 12:56:54.856799	0	0	0
2017-09-20 12:56:54.859301	-12	0	0
2017-09-20 12:56:54.861805	-8	0	0
2017-09-20 12:56:54.864297	-7	0	0
2017-09-20 12:56:54.866795	3	0	0
2017-09-20 12:56:54.869300	-2	0	0
2017-09-20 12:56:54.871800	-4	0	0
2017-09-20 12:56:54.874306	-12	0	0
2017-09-20 12:56:54.876806	-10	0	0
2017-09-20 12:56:54.879306	-6	0	0
2017-09-20 12:56:54.881810	-5	0	0
2017-09-20 12:56:54.884316	-15	0	0
2017-09-20 12:56:54.886815	-14	0	0
2017-09-20 12:56:54.889319	-10	0	0
2017-09-20 12:56:54.891823	-14	0	0
2017-09-20 12:56:54.894319	-16	0	0
2017-09-20 12:56:54.896812	-17	0	0
2017-09-20 12:56:54.899315	-22	0	0
2017-09-20 12:56:54.901815	-17	0	0
2017-09-20 12:56:54.904310	-12	0	0
2017-09-20 12:56:54.906815	-17	0	0
2017-09-20 12:56:54.909308	-5	0	0
2017-09-20 12:56:54.911804	-16	0	0
2017-09-20 12:56:54.914311	-13	0	0
2017-09-20 12:56:54.916815	-20	0	0
2017-09-20 12:56:54.919311	-13	0	0
2017-09-20 12:56:54.921817	-14	0	0
2017-09-20 12:56:54.924314	-15	0	0
2017-09-20 12:56:54.926806	-24	0	0
2017-09-20 12:56:54.929307	-24	0	0
2017-09-20 12:56:54.931811	-28	0	0
2017-09-20 12:56:54.934308	-25	0	0
2017-09-20 12:56:54.936802	-30	0	0
2017-09-20 12:56:54.939308	-32	0	0
2017-09-20 12:56:54.941812	-30	0	0
2017-09-20 12:56:54.944310	-12	0	0
2017-09-20 12:56:54.946802	-21	0	0
2017-09-20 12:56:54.949296	-32	0	0
2017-09-20 12:56:54.951794	-31	0	0
2017-09-20 12:56:54.954295	-29	0	0
2017-09-20 12:56:54.956796	-28	0	0
2017-09-20 12:56:54.959292	-13	0	0
2017-09-20 12:56:54.961804	-34	0	0
2017-09-20 12:56:54.964297	-26	0	0
2017-09-20 12:56:54.966793	-27	0	0
2017-09-20 12:56:54.969288	-19	0	0
2017-09-20 12:56:54.971799	-30	0	0
2017-09-20 12:56:54.974293	-32	0	0
2017-09-20 12:56:54.976797	-24	0	0
2017-09-20 12:56:54.979291	-13	0	0
2017-09-20 12:56:54.981796	-17	0	0
2017-09-20 12:56:54.984290	-11	0	0
2017-09-20 12:56:54.986784	-19	0	0
2017-09-20 12:56:54.989281	-20	0	0
2017-09-20 12:56:54.991780	-32	0	0
2017-09-20 12:56:54.994286	-22	0	0
2017-09-20 12:56:54.996793	-29	0	0
2017-09-20 12:56:54.999297	-19	0	0
2017-09-20 12:56:55.001801	-19	0	0
2017-09-20 12:56:55.004298	-14	0	0
2017-09-20 12:56:55.006795	-18	0	0
2017-09-20 12:56:55.009293	-20	0	0
2017-09-20 12:56:55.011801	-16	0	0
2017-09-20 12:56:55.014287	-18	0	0
2017-09-20 12:56:55.016787	-10	0	0
2017-09-20 12:56:55.019283	-15	0	0
2017-09-20 12:56:55.021779	-21	0	0
2017-09-20 12:56:55.024274	-8	0	0
2017-09-20 12:56:55.026772	-13	0	0
2017-09-20 12:56:55.029270	-9	0	0
2017-09-20 12:56:55.031772	1	0	0
2017-09-20 12:56:55.034271	-1	0	0
2017-09-20 12:56:55.036766	-1	0	0
2017-09-20 12:56:55.039263	2	0	0
2017-09-20 12:56:55.041767	0	0	0
2017-09-20 12:56:55.044271	7	0	0
2017-09-20 12:56:55.046772	-4	0	0
2017-09-20 12:56:55.049273	5	0	0
2017-09-20 12:56:55.051774	11	0	0
2017-09-20 12:56:55.054275	8	0	0
2017-09-20 12:56:55.056780	-3	0	0
2017-09-20 12:56:55.059278	8	0	0
2017-09-20 12:56:55.061773	6	0	0
2017-09-20 12:56:55.064279	-1	0	0
2017-09-20 12:56:55.066780	-4	0	0
2017-09-20 12:56:55.069280	-6	0	0
2017-09-20 12:56:55.071778	-1	0	0
2017-09-20 12:56:55.074272	-5	0	0
2017-09-20 12:56:55.076768	-7	0	0
2017-09-20 12:56:55.079268	-16	0	0
2017-09-20 12:56:55.081771	-20	0	0
2017-09-20 12:56:55.084266	-13	0	0
2017-09-20 12:56:55.086761	-11	0	0
2017-09-20 12:56:55.089263	-20	0	0
2017-09-20 12:56:55.091764	-7	0	0
2017-09-20 12:56:55.094265	-25	0	0
2017-09-20 12:56:55.096758	-22	0	0
2017-09-20 12:56:55.099259	-22	0	0
2017-09-20 12:56:55.101760	-29	0	0
2017-09-20 12:56:55.104261	-23	0	0
2017-09-20 12:56:55.106761	-29	0	0
2017-09-20 12:56:55.109265	-40	0	0
2017-09-20 12:56:55.111764	-35	0	0
2017-09-20 12:56:55.114259	-42	0	0
2017-09-20 12:56:55.116753	-44	0	0
2017-09-20 12:56:55.119250	-46	0	0
2017-09-20 12:56:55.121753	-46	0	0
2017-09-20 12:56:55.124255	-41	0	0
2017-09-20 12:56:55.126751	-56	0	0
2017-09-20 12:56:55.129253	-40	0	0
2017-09-20 12:56:55.131756	-47	0	0
2017-09-20 12:56:55.134261	-25	0	0
2017-09-20 12:56:55.136754	-48	0	0
2017-09-20 12:56:55.139255	-34	0	0
2017-09-20 12:56:55.141755	-32	0	0
2017-09-20 12:56:55.144259	-22	0	0
2017-09-20 12:56:55.146755	-32	0	0
2017-09-20 12:56:55.149261	-25	0	0
2017-09-20 12:56:55.151756	-38	0	0
2017-09-20 12:56:55.154261	-35	0	0
2017-09-20 12:56:55.156759	-11	0	0
2017-09-20 12:56:55.159256	-21	0	0
2017-09-20 12:56:55.161762	-12	0	0
2017-09-20 12:56:55.164260	-26	0	0
2017-09-20 12:56:55.166763	-22	0	0
2017-09-20 12:56:55.169260	-26	0	0
2017-09-20 12:56:55.171763	-13	0	0
2017-09-20 12:56:55.174269	-31	0	0
2017-09-20 12:56:55.176764	-14	0	0
2017-09-20 12:56:55.179267	-13	0	0
2017-09-20 12:56:55.181763	6	0	0
2017-09-20 12:56:55.184264	-7	0	0
2017-09-20 12:56:55.186769	-3	0	0
2017-09-20 12:56:55.189266	-7	0	0
2017-09-20 12:56:55.191764	5	0	0
2017-09-20 12:56:55.194269	4	0	0
2017-09-20 12:56:55.196769	13	0	0
2017-09-20 12:56:55.199271	7	0	0
2017-09-20 12:56:55.201766	11	0	0
2017-09-20 12:56:55.204267	13	0	0
2017-09-20 12:56:55.206769	7	0	0
2017-09-20 12:56:55.209270	13	0	0
2017-09-20 12:56:55.211766	16	0	0
2017-09-20 12:56:55.214299	27	0	0
2017-09-20 12:56:55.216776	9	0	0
2017-09-20 12:56:55.219266	27	0	0
2017-09-20 12:56:55.221763	11	0	0
2017-09-20 12:56:55.224259	15	0	0
2017-09-20 12:56:55.226755	10	0	0
2017-09-20 12:56:55.229259	23	0	0
2017-09-20 12:56:55.231764	9	0	0
2017-09-20 12:56:55.234261	12	0	0
2017-09-20 12:56:55.236764	6	0	0
2017-09-20 12:56:55.239258	17	0	0
2017-09-20 12:56:55.241752	26	0	0
2017-09-20 12:56:55.244259	16	0	0
2017-09-20 12:56:55.246757	12	0	0
2017-09-20 12:56:55.249262	20	0	0
2017-09-20 12:56:55.251766	21	0	0
2017-09-20 12:56:55.254268	11	0	0
2017-09-20 12:56:55.256763	13	0	0
2017-09-20 12:56:55.259262	18	0	0
2017-09-20 12:56:55.261767	12	0	0
2017-09-20 12:56:55.264261	2	0	0
2017-09-20 12:56:55.266762	9	0	0
2017-09-20 12:56:55.269275	-1	0	0
2017-09-20 12:56:55.271772	4	0	0
2017-09-20 12:56:55.274272	4	0	0
2017-09-20 12:56:55.276768	-2	0	0
2017-09-20 12:56:55.279275	-3	0	0
2017-09-20 12:56:55.281776	-11	0	0
2017-09-20 12:56:55.284276	1	0	0
2017-09-20 12:56:55.286774	-13	0	0
2017-09-20 12:56:55.289275	2	0	0
2017-09-20 12:56:55.291780	0	0	0
2017-09-20 12:56:55.294277	0	0	0
2017-09-20 12:56:55.296785	-5	0	0
2017-09-20 12:56:55.299284	-4	0	0
2017-09-20 12:56:55.301779	-12	0	0
2017-09-20 12:56:55.304280	-5	0	0
2017-09-20 12:56:55.306780	-10	0	0
2017-09-20 12:56:55.309282	-4	0	0
2017-09-20 12:56:55.311780	-14	0	0
2017-09-20 12:56:55.314283	-2	0	0
2017-09-20 12:56:55.316779	-5	0	0
2017-09-20 12:56:55.319282	-5	0	0
2017-09-20 12:56:55.321785	-14	0	0
2017-09-20 12:56:55.324288	-7	0	0
2017-09-20 12:56:55.326786	-13	0	0
2017-09-20 12:56:55.329289	-9	0	0
2017-09-20 12:56:55.331783	-17	0	0
2017-09-20 12:56:55.334286	-14	0	0
2017-09-20 12:56:55.336782	-16	0	0
2017-09-20 12:56:55.339283	-12	0	0
2017-09-20 12:56:55.341781	-17	0	0
2017-09-20 12:56:55.344282	-14	0	0
2017-09-20 12:56:55.346783	-16	0	0
2017-09-20 12:56:55.349280	-7	0	0
2017-09-20 12:56:55.351777	-15	0	0
2017-09-20 12:56:55.354270	-10	0	0
2017-09-20 12:56:55.356768	-1	0	0
2017-09-20 12:56:55.359263	-19	0	0
2017-09-20 12:56:55.361759	-18	0	0
2017-09-20 12:56:55.364257	-12	0	0
2017-09-20 12:56:55.366762	-19	0	0
2017-09-20 12:56:55.369268	-33	0	0
2017-09-20 12:56:55.371772	-31	0	0
2017-09-20 12:56:55.374268	-29	0	0
2017-09-20 12:56:55.376761	-41	0	0
2017-09-20 12:56:55.379260	-18	0	0
2017-09-20 12:56:55.381758	-32	0	0
2017-09-20 12:56:55.384263	-36	0	0
2017-09-20 12:56:55.386764	-47	0	0
2017-09-20 12:56:55.389262	-39	0	0
2017-09-20 12:56:55.391760	-39	0	0
2017-09-20 12:56:55.394266	-31	0	0
2017-09-20 12:56:55.396764	-42	0	0
2017-09-20 12:56:55.399263	-36	0	0
2017-09-20 12:56:55.401759	-46	0	0
2017-09-20 12:56:55.404255	-36	0	0
2017-09-20 12:56:55.406757	-34	0	0
2017-09-20 12:56:55.409260	-49	0	0
2017-09-20 12:56:55.411763	-35	0	0
2017-09-20 12:56:55.414259	-36	0	0
2017-09-20 12:56:55.416760	-30	0	0
2017-09-20 12:56:55.419256	-33	0	0
2017-09-20 12:56:55.421755	-36	0	0
2017-09-20 12:56:55.424255	-34	0	0
2017-09-20 12:56:55.426756	-37	0	0
2017-09-20 12:56:55.429252	-38	0	0
2017-09-20 12:56:55.431751	-34	0	0
2017-09-20 12:56:55.434249	-31	0	0
2017-09-20 12:56:55.436755	-24	0	0
2017-09-20 12:56:55.439255	-25	0	0
2017-09-20 12:56:55.441748	-28	0	0
2017-09-20 12:56:55.444251	-17	0	0
2017-09-20 12:56:55.446751	-23	0	0
2017-09-20 12:56:55.449248	-18	0	0
2017-09-20 12:56:55.451750	-21	0	0
2017-09-20 12:56:55.454258	-6	0	0
2017-09-20 12:56:55.456758	-4	0	0
2017-09-20 12:56:55.459255	-17	0	0
2017-09-20 12:56:55.461750	3	0	0
2017-09-20 12:56:55.464251	-2	0	0
2017-09-20 12:56:55.466755	-2	0	0
2017-09-20 12:56:55.469251	1	0	0
2017-09-20 12:56:55.471751	4	0	0
2017-09-20 12:56:55.474252	6	0	0
2017-09-20 12:56:55.476751	4	0	0
2017-09-20 12:56:55.479251	5	0	0
2017-09-20 12:56:55.481755	9	0	0
2017-09-20 12:56:55.484260	4	0	0
2017-09-20 12:56:55.486755	9	0	0
2017-09-20 12:56:55.489254	10	0	0
2017-09-20 12:56:55.491752	-3	0	0
2017-09-20 12:56:55.494251	14	0	0
2017-09-20 12:56:55.496755	4	0	0
2017-09-20 12:56:55.499259	16	0	0
2017-09-20 12:56:55.501757	0	0	0
2017-09-20 12:56:55.504251	0	0	0
2017-09-20 12:56:55.506752	11	0	0
2017-09-20 12:56:55.509256	2	0	0
2017-09-20 12:56:55.511755	2	0	0
2017-09-20 12:56:55.514283	16	0	0
2017-09-20 12:56:55.516760	9	0	0
2017-09-20 12:56:55.519258	11	0	0
2017-09-20 12:56:55.521764	16	0	0
2017-09-20 12:56:55.524268	11	0	0
2017-09-20 12:56:55.526768	9	0	0
2017-09-20 12:56:55.529273	6	0	0
2017-09-20 12:56:55.531779	8	0	0
2017-09-20 12:56:55.534278	2	0	0
2017-09-20 12:56:55.536784	12	0	0
2017-09-20 12:56:55.539282	4	0	0
2017-09-20 12:56:55.541777	2	0	0
2017-09-20 12:56:55.544274	-7	0	0
2017-09-20 12:56:55.546772	5	0	0
2017-09-20 12:56:55.549277	-8	0	0
2017-09-20 12:56:55.551770	-10	0	0
2017-09-20 12:56:55.554271	8	0	0
2017-09-20 12:56:55.556776	-3	0	0
2017-09-20 12:56:55.559280	-2	0	0
2017-09-20 12:56:55.561781	5	0	0
2017-09-20 12:56:55.564280	-1	0	0
2017-09-20 12:56:55.566778	-6	0	0
2017-09-20 12:56:55.569274	-11	0	0
2017-09-20 12:56:55.571773	-6	0	0
2017-09-20 12:56:55.574272	-4	0	0
2017-09-20 12:56:55.576765	-6	0	0
2017-09-20 12:56:55.579260	3	0	0
2017-09-20 12:56:55.581757	-7	0	0
2017-09-20 12:56:55.584259	12	0	0
2017-09-20 12:56:55.586760	-11	0	0
2017-09-20 12:56:55.589256	-5	0	0
2017-09-20 12:56:55.591753	2	0	0
2017-09-20 12:56:55.594256	-16	0	0
2017-09-20 12:56:55.596759	-6	0	0
2017-09-20 12:56:55.599263	-4	0	0
2017-09-20 12:56:55.601753	1	0	0
2017-09-20 12:56:55.604253	5	0	0
2017-09-20 12:56:55.606756	7	0	0
2017-09-20 12:56:55.609263	-13	0	0
2017-09-20 12:56:55.611766	5	0	0
2017-09-20 12:56:55.614266	-15	0	0
2017-09-20 12:56:55.616768	5	0	0
2017-09-20 12:56:55.619275	-12	0	0
2017-09-20 12:56:55.621776	-8	0	0
2017-09-20 12:56:55.624281	-2	0	0
2017-09-20 12:56:55.626777	1	0	0
2017-09-20 12:56:55.629280	2	0	0
2017-09-20 12:56:55.631776	-4	0	0
2017-09-20 12:56:55.634279	-13	0	0
2017-09-20 12:56:55.636774	3	0	0
2017-09-20 12:56:55.639271	0	0	0
2017-09-20 12:56:55.641776	-16	0	0
2017-09-20 12:56:55.644281	-13	0	0
2017-09-20 12:56:55.646780	-16	0	0
2017-09-20 12:56:55.649283	-22	0	0
2017-09-20 12:56:55.651792	-20	0	0
2017-09-20 12:56:55.654281	-28	0	0
2017-09-20 12:56:55.656784	-24	0	0
2017-09-20 12:56:55.659285	-16	0	0
2017-09-20 12:56:55.661793	-27	0	0
2017-09-20 12:56:55.664288	-23	0	0
2017-09-20 12:56:55.666793	-38	0	0
2017-09-20 12:56:55.669290	-23	0	0
2017-09-20 12:56:55.671789	-30	0	0
2017-09-20 12:56:55.674281	-21	0	0
2017-09-20 12:56:55.676779	-35	0	0
2017-09-20 12:56:55.679277	-22	0	0
2017-09-20 12:56:55.681781	-29	0	0
2017-09-20 12:56:55.684284	-28	0	0
2017-09-20 12:56:55.686785	-38	0	0
2017-09-20 12:56:55.689291	-36	0	0
2017-09-20 12:56:55.691798	-50	0	0
2017-09-20 12:56:55.694290	-37	0	0
2017-09-20 12:56:55.696795	-44	0	0
2017-09-20 12:56:55.699297	-38	0	0
2017-09-20 12:56:55.701803	-43	0	0
2017-09-20 12:56:55.704291	-36	0	0
2017-09-20 12:56:55.706786	-30	0	0
2017-09-20 12:56:55.709281	-39	0	0
2017-09-20 12:56:55.711779	-28	0	0
2017-09-20 12:56:55.714275	-32	0	0
2017-09-20 12:56:55.716771	-38	0	0
2017-09-20 12:56:55.719267	-38	0	0
2017-09-20 12:56:55.721772	-24	0	0
2017-09-20 12:56:55.724275	-34	0	0
2017-09-20 12:56:55.726776	-32	0	0
2017-09-20 12:56:55.729276	-32	0	0
2017-09-20 12:56:55.731782	-33	0	0
2017-09-20 12:56:55.734282	-27	0	0
2017-09-20 12:56:55.736776	-24	0	0
2017-09-20 12:56:55.739276	-23	0	0
2017-09-20 12:56:55.741770	-18	0	0
2017-09-20 12:56:55.744296	-32	0	0
2017-09-20 12:56:55.746812	-22	0	0
2017-09-20 12:56:55.749276	-3	0	0
2017-09-20 12:56:55.751768	-8	0	0
2017-09-20 12:56:55.754276	-4	0	0
2017-09-20 12:56:55.756770	-11	0	0
2017-09-20 12:56:55.759275	-6	0	0
2017-09-20 12:56:55.761767	-6	0	0
2017-09-20 12:56:55.764273	-1	0	0
2017-09-20 12:56:55.766775	4	0	0
2017-09-20 12:56:55.769278	-2	0	0
2017-09-20 12:56:55.771772	-1	0	0
2017-09-20 12:56:55.774273	-4	0	0
2017-09-20 12:56:55.776774	8	0	0
2017-09-20 12:56:55.779272	-4	0	0
2017-09-20 12:56:55.781774	2	0	0
2017-09-20 12:56:55.784273	8	0	0
2017-09-20 12:56:55.786774	-5	0	0
2017-09-20 12:56:55.789267	5	0	0
2017-09-20 12:56:55.791766	12	0	0
2017-09-20 12:56:55.794267	1	0	0
2017-09-20 12:56:55.796765	9	0	0
2017-09-20 12:56:55.799262	13	0	0
2017-09-20 12:56:55.801766	11	0	0
2017-09-20 12:56:55.804267	11	0	0
2017-09-20 12:56:55.806762	19	0	0
2017-09-20 12:56:55.809353	11	0	0
2017-09-20 12:56:55.811759	16	0	0
2017-09-20 12:56:55.814251	17	0	0
2017-09-20 12:56:55.816754	18	0	0
2017-09-20 12:56:55.819253	6	0	0
2017-09-20 12:56:55.821749	9	0	0
2017-09-20 12:56:55.824246	5	0	0
2017-09-20 12:56:55.826749	6	0	0
2017-09-20 12:56:55.829245	5	0	0
2017-09-20 12:56:55.831742	3	0	0
2017-09-20 12:56:55.834245	11	0	0
2017-09-20 12:56:55.836740	3	0	0
2017-09-20 12:56:55.839240	-2	0	0
2017-09-20 12:56:55.841733	-7	0	0
2017-09-20 12:56:55.844238	-5	0	0
2017-09-20 12:56:55.846735	-7	0	0
2017-09-20 12:56:55.849238	-10	0	0
2017-09-20 12:56:55.851738	-10	0	0
2017-09-20 12:56:55.854238	-9	0	0
2017-09-20 12:56:55.856742	-7	0	0
2017-09-20 12:56:55.859243	-15	0	0
2017-09-20 12:56:55.861741	-21	0	0
2017-09-20 12:56:55.864240	-8	0	0
2017-09-20 12:56:55.866742	-17	0	0
2017-09-20 12:56:55.869240	-11	0	0
2017-09-20 12:56:55.871738	-9	0	0
2017-09-20 12:56:55.874244	-16	0	0
2017-09-20 12:56:55.876745	-16	0	0
2017-09-20 12:56:55.879240	-18	0	0
2017-09-20 12:56:55.881745	-13	0	0
2017-09-20 12:56:55.884313	-19	0	0
2017-09-20 12:56:55.886815	-18	0	0
2017-09-20 12:56:55.889318	-17	0	0
2017-09-20 12:56:55.891821	-19	0	0
2017-09-20 12:56:55.894322	-11	0	0
2017-09-20 12:56:55.896822	-13	0	0
2017-09-20 12:56:55.899320	-6	0	0
2017-09-20 12:56:55.901816	-5	0	0
2017-09-20 12:56:55.904317	0	0	0
2017-09-20 12:56:55.906817	-10	0	0
2017-09-20 12:56:55.909323	-14	0	0
2017-09-20 12:56:55.911825	-13	0	0
2017-09-20 12:56:55.914324	-9	0	0
2017-09-20 12:56:55.916826	-6	0	0
2017-09-20 12:56:55.919323	-8	0	0
2017-09-20 12:56:55.921817	-9	0	0
2017-09-20 12:56:55.924319	-9	0	0
2017-09-20 12:56:55.926818	-14	0	0
2017-09-20 12:56:55.929316	-21	0	0
2017-09-20 12:56:55.931817	-14	0	0
2017-09-20 12:56:55.934322	-17	0	0
2017-09-20 12:56:55.936827	-28	0	0
2017-09-20 12:56:55.939328	-20	0	0
2017-09-20 12:56:55.941826	-27	0	0
2017-09-20 12:56:55.944323	-22	0	0
2017-09-20 12:56:55.946815	-24	0	0
2017-09-20 12:56:55.949312	-42	0	0
2017-09-20 12:56:55.951807	-21	0	0
2017-09-20 12:56:55.954310	-28	0	0
2017-09-20 12:56:55.956809	-29	0	0
2017-09-20 12:56:55.959307	-39	0	0
2017-09-20 12:56:55.961809	-20	0	0
2017-09-20 12:56:55.964306	-36	0	0
2017-09-20 12:56:55.966809	-38	0	0
2017-09-20 12:56:55.969304	-30	0	0
2017-09-20 12:56:55.971810	-40	0	0
2017-09-20 12:56:55.974310	-38	0	0
2017-09-20 12:56:55.976813	-33	0	0
2017-09-20 12:56:55.979316	-33	0	0
2017-09-20 12:56:55.981819	-34	0	0
2017-09-20 12:56:55.984322	-28	0	0
2017-09-20 12:56:55.986823	-23	0	0
2017-09-20 12:56:55.989321	-27	0	0
2017-09-20 12:56:55.991820	-21	0	0
2017-09-20 12:56:55.994325	-26	0	0
2017-09-20 12:56:55.996828	-22	0	0
2017-09-20 12:56:55.999327	-22	0	0
2017-09-20 12:56:56.001824	-13	0	0
2017-09-20 12:56:56.004323	-28	0	0
2017-09-20 12:56:56.006828	-12	0	0
2017-09-20 12:56:56.009323	-16	0	0
2017-09-20 12:56:56.011828	2	0	0
2017-09-20 12:56:56.014327	-9	0	0
2017-09-20 12:56:56.016827	-10	0	0
2017-09-20 12:56:56.019324	-5	0	0
2017-09-20 12:56:56.021822	-11	0	0
2017-09-20 12:56:56.024324	-9	0	0
2017-09-20 12:56:56.026821	-4	0	0
2017-09-20 12:56:56.029322	-3	0	0
2017-09-20 12:56:56.031820	-1	0	0
2017-09-20 12:56:56.034315	-7	0	0
2017-09-20 12:56:56.036811	-7	0	0
2017-09-20 12:56:56.039310	0	0	0
2017-09-20 12:56:56.041811	7	0	0
2017-09-20 12:56:56.044311	9	0	0
2017-09-20 12:56:56.046805	6	0	0
2017-09-20 12:56:56.049308	4	0	0
2017-09-20 12:56:56.051814	20	0	0
2017-09-20 12:56:56.054317	10	0	0
2017-09-20 12:56:56.056818	7	0	0
2017-09-20 12:56:56.059316	6	0	0
2017-09-20 12:56:56.061811	9	0	0
2017-09-20 12:56:56.064315	8	0	0
2017-09-20 12:56:56.066818	9	0	0
2017-09-20 12:56:56.069322	16	0	0
2017-09-20 12:56:56.071819	7	0	0
2017-09-20 12:56:56.074320	6	0	0
2017-09-20 12:56:56.076814	5	0	0
2017-09-20 12:56:56.079310	1	0	0
2017-09-20 12:56:56.081812	4	0	0
2017-09-20 12:56:56.084320	-8	0	0
2017-09-20 12:56:56.086817	4	0	0
2017-09-20 12:56:56.089318	-6	0	0
2017-09-20 12:56:56.091824	-2	0	0
2017-09-20 12:56:56.094321	-7	0	0
2017-09-20 12:56:56.096813	-5	0	0
2017-09-20 12:56:56.099321	-7	0	0
2017-09-20 12:56:56.101817	-14	0	0
2017-09-20 12:56:56.104319	-4	0	0
2017-09-20 12:56:56.106822	-3	0	0
2017-09-20 12:56:56.109320	-18	0	0
2017-09-20 12:56:56.111819	-15	0	0
2017-09-20 12:56:56.114320	-12	0	0
2017-09-20 12:56:56.116819	-18	0	0
2017-09-20 12:56:56.119315	-14	0	0
2017-09-20 12:56:56.121819	-12	0	0
2017-09-20 12:56:56.124324	-18	0	0
2017-09-20 12:56:56.126824	-24	0	0
2017-09-20 12:56:56.129325	-19	0	0
2017-09-20 12:56:56.131821	-8	0	0
2017-09-20 12:56:56.134325	-8	0	0
2017-09-20 12:56:56.136820	-15	0	0
2017-09-20 12:56:56.139326	-14	0	0
2017-09-20 12:56:56.141827	-17	0	0
2017-09-20 12:56:56.144331	-13	0	0
2017-09-20 12:56:56.146835	-7	0	0
2017-09-20 12:56:56.149333	-10	0	0
2017-09-20 12:56:56.151833	-14	0	0
2017-09-20 12:56:56.154338	-1	0	0
2017-09-20 12:56:56.156838	-12	0	0
2017-09-20 12:56:56.159333	-8	0	0
2017-09-20 12:56:56.161839	-13	0	0
2017-09-20 12:56:56.164342	-2	0	0
2017-09-20 12:56:56.166840	-13	0	0
2017-09-20 12:56:56.169337	3	0	0
2017-09-20 12:56:56.171840	-9	0	0
2017-09-20 12:56:56.174336	-9	0	0
2017-09-20 12:56:56.176841	-14	0	0
2017-09-20 12:56:56.179340	-6	0	0
2017-09-20 12:56:56.181840	-16	0	0
2017-09-20 12:56:56.184345	-12	0	0
2017-09-20 12:56:56.186850	-4	0	0
2017-09-20 12:56:56.189344	-11	0	0
2017-09-20 12:56:56.191849	-5	0	0
2017-09-20 12:56:56.194343	-15	0	0
2017-09-20 12:56:56.196856	-12	0	0
2017-09-20 12:56:56.199351	-9	0	0
2017-09-20 12:56:56.201849	-17	0	0
2017-09-20 12:56:56.204342	-13	0	0
2017-09-20 12:56:56.206845	-15	0	0
2017-09-20 12:56:56.209350	-14	0	0
2017-09-20 12:56:56.211853	-25	0	0
2017-09-20 12:56:56.214347	-20	0	0
2017-09-20 12:56:56.216840	-17	0	0
2017-09-20 12:56:56.219345	-27	0	0
2017-09-20 12:56:56.221841	-10	0	0
2017-09-20 12:56:56.224343	-19	0	0
2017-09-20 12:56:56.226848	-4	0	0
2017-09-20 12:56:56.229346	-11	0	0
2017-09-20 12:56:56.231843	-23	0	0
2017-09-20 12:56:56.234339	-28	0	0
2017-09-20 12:56:56.236833	-28	0	0
2017-09-20 12:56:56.239330	-16	0	0
2017-09-20 12:56:56.241836	-16	0	0
2017-09-20 12:56:56.244331	-16	0	0
2017-09-20 12:56:56.246829	-23	0	0
2017-09-20 12:56:56.249333	-10	0	0
2017-09-20 12:56:56.251836	-17	0	0
2017-09-20 12:56:56.254331	-19	0	0
2017-09-20 12:56:56.256836	-18	0	0
2017-09-20 12:56:56.259340	-19	0	0
2017-09-20 12:56:56.261837	-10	0	0
2017-09-20 12:56:56.264333	-13	0	0
2017-09-20 12:56:56.266827	-17	0	0
2017-09-20 12:56:56.269325	-3	0	0
2017-09-20 12:56:56.271828	-13	0	0
2017-09-20 12:56:56.274332	-13	0	0
2017-09-20 12:56:56.276834	-16	0	0
2017-09-20 12:56:56.279331	-8	0	0
2017-09-20 12:56:56.281836	-3	0	0
2017-09-20 12:56:56.284343	-2	0	0
2017-09-20 12:56:56.286846	-3	0	0
2017-09-20 12:56:56.289345	3	0	0
2017-09-20 12:56:56.291847	-9	0	0
2017-09-20 12:56:56.294348	3	0	0
2017-09-20 12:56:56.296853	-2	0	0
2017-09-20 12:56:56.299353	-2	0	0
2017-09-20 12:56:56.301852	-6	0	0
2017-09-20 12:56:56.304350	3	0	0
2017-09-20 12:56:56.306851	7	0	0
2017-09-20 12:56:56.309356	2	0	0
2017-09-20 12:56:56.311853	7	0	0
2017-09-20 12:56:56.314357	5	0	0
2017-09-20 12:56:56.316852	13	0	0
2017-09-20 12:56:56.319348	-3	0	0
2017-09-20 12:56:56.321848	11	0	0
2017-09-20 12:56:56.324353	-6	0	0
2017-09-20 12:56:56.326856	-4	0	0
2017-09-20 12:56:56.329356	5	0	0
2017-09-20 12:56:56.331855	6	0	0
2017-09-20 12:56:56.334362	-10	0	0
2017-09-20 12:56:56.336864	-2	0	0
2017-09-20 12:56:56.339361	-2	0	0
2017-09-20 12:56:56.341865	-5	0	0
2017-09-20 12:56:56.344361	-1	0	0
2017-09-20 12:56:56.346865	-6	0	0
2017-09-20 12:56:56.349361	-8	0	0
2017-09-20 12:56:56.351863	-10	0	0
2017-09-20 12:56:56.354367	-11	0	0
2017-09-20 12:56:56.356864	-7	0	0
2017-09-20 12:56:56.359363	-18	0	0
2017-09-20 12:56:56.361858	-11	0	0
2017-09-20 12:56:56.364354	-29	0	0
2017-09-20 12:56:56.366853	-27	0	0
2017-09-20 12:56:56.369359	-14	0	0
2017-09-20 12:56:56.371858	-16	0	0
2017-09-20 12:56:56.374353	-16	0	0
2017-09-20 12:56:56.376850	-14	0	0
2017-09-20 12:56:56.379355	-17	0	0
2017-09-20 12:56:56.381850	-16	0	0
2017-09-20 12:56:56.384353	-11	0	0
2017-09-20 12:56:56.386852	-26	0	0
2017-09-20 12:56:56.389355	-15	0	0
2017-09-20 12:56:56.391855	-22	0	0
2017-09-20 12:56:56.394350	-12	0	0
2017-09-20 12:56:56.396846	-29	0	0
2017-09-20 12:56:56.399343	-30	0	0
2017-09-20 12:56:56.401848	-26	0	0
2017-09-20 12:56:56.404343	-25	0	0
2017-09-20 12:56:56.406842	-13	0	0
2017-09-20 12:56:56.409342	-7	0	0
2017-09-20 12:56:56.411844	-23	0	0
2017-09-20 12:56:56.414339	-12	0	0
2017-09-20 12:56:56.416844	-12	0	0
2017-09-20 12:56:56.419347	-15	0	0
2017-09-20 12:56:56.421847	-19	0	0
2017-09-20 12:56:56.424341	-16	0	0
2017-09-20 12:56:56.426837	-12	0	0
2017-09-20 12:56:56.429332	-10	0	0
2017-09-20 12:56:56.431833	-11	0	0
2017-09-20 12:56:56.434335	-6	0	0
2017-09-20 12:56:56.436836	-9	0	0
2017-09-20 12:56:56.439330	-2	0	0
2017-09-20 12:56:56.441824	-4	0	0
2017-09-20 12:56:56.444322	0	0	0
2017-09-20 12:56:56.446821	-6	0	0
2017-09-20 12:56:56.449322	5	0	0
2017-09-20 12:56:56.451825	-7	0	0
2017-09-20 12:56:56.454322	-7	0	0
2017-09-20 12:56:56.456826	-14	0	0
2017-09-20 12:56:56.459328	-1	0	0
2017-09-20 12:56:56.461822	-16	0	0
2017-09-20 12:56:56.464325	-8	0	0
2017-09-20 12:56:56.466826	-2	0	0
2017-09-20 12:56:56.469330	-15	0	0
2017-09-20 12:56:56.471825	-2	0	0
2017-09-20 12:56:56.474322	-7	0	0
2017-09-20 12:56:56.476816	-7	0	0
2017-09-20 12:56:56.479323	-16	0	0
2017-09-20 12:56:56.481819	-8	0	0
2017-09-20 12:56:56.484325	-7	0	0
2017-09-20 12:56:56.486825	-21	0	0
2017-09-20 12:56:56.489328	-14	0	0
2017-09-20 12:56:56.491830	-9	0	0
2017-09-20 12:56:56.494330	-14	0	0
2017-09-20 12:56:56.496835	-21	0	0
2017-09-20 12:56:56.499341	-16	0	0
2017-09-20 12:56:56.501846	-11	0	0
2017-09-20 12:56:56.504348	-12	0	0
2017-09-20 12:56:56.506849	-14	0	0
2017-09-20 12:56:56.509348	-22	0	0
2017-09-20 12:56:56.511847	-19	0	0
2017-09-20 12:56:56.514343	-28	0	0
2017-09-20 12:56:56.516838	-30	0	0
2017-09-20 12:56:56.519333	-35	0	0
2017-09-20 12:56:56.521839	-23	0	0
2017-09-20 12:56:56.524344	-25	0	0
2017-09-20 12:56:56.526842	-32	0	0
2017-09-20 12:56:56.529345	-29	0	0
2017-09-20 12:56:56.531850	-22	0	0
2017-09-20 12:56:56.534347	-16	0	0
2017-09-20 12:56:56.536843	-19	0	0
2017-09-20 12:56:56.539341	-21	0	0
2017-09-20 12:56:56.541840	-12	0	0
2017-09-20 12:56:56.544333	-9	0	0
2017-09-20 12:56:56.546841	-13	0	0
2017-09-20 12:56:56.549346	-14	0	0
2017-09-20 12:56:56.551840	-9	0	0
2017-09-20 12:56:56.554336	-16	0	0
2017-09-20 12:56:56.556837	-12	0	0
2017-09-20 12:56:56.559334	-11	0	0
2017-09-20 12:56:56.561840	-9	0	0
2017-09-20 12:56:56.564344	-4	0	0
2017-09-20 12:56:56.566846	-13	0	0
2017-09-20 12:56:56.569352	-12	0	0
2017-09-20 12:56:56.571850	-6	0	0
2017-09-20 12:56:56.574347	-13	0	0
2017-09-20 12:56:56.576842	-7	0	0
2017-09-20 12:56:56.579349	-1	0	0
2017-09-20 12:56:56.581848	-8	0	0
2017-09-20 12:56:56.584352	-2	0	0
2017-09-20 12:56:56.586855	-4	0	0
2017-09-20 12:56:56.589348	1	0	0
2017-09-20 12:56:56.591842	9	0	0
2017-09-20 12:56:56.594343	8	0	0
2017-09-20 12:56:56.596839	7	0	0
2017-09-20 12:56:56.599334	6	0	0
2017-09-20 12:56:56.601833	8	0	0
2017-09-20 12:56:56.604337	3	0	0
2017-09-20 12:56:56.606833	8	0	0
2017-09-20 12:56:56.609333	10	0	0
2017-09-20 12:56:56.611829	0	0	0
2017-09-20 12:56:56.614322	0	0	0
2017-09-20 12:56:56.616817	6	0	0
2017-09-20 12:56:56.619319	4	0	0
2017-09-20 12:56:56.621821	3	0	0
2017-09-20 12:56:56.624321	6	0	0
2017-09-20 12:56:56.626825	-8	0	0
2017-09-20 12:56:56.629321	-6	0	0
2017-09-20 12:56:56.631824	-6	0	0
2017-09-20 12:56:56.634316	-19	0	0
2017-09-20 12:56:56.636813	-6	0	0
2017-09-20 12:56:56.639308	-8	0	0
2017-09-20 12:56:56.641811	-5	0	0
2017-09-20 12:56:56.644316	-9	0	0
2017-09-20 12:56:56.646818	-11	0	0
2017-09-20 12:56:56.649318	-3	0	0
2017-09-20 12:56:56.651820	-10	0	0
2017-09-20 12:56:56.654316	-13	0	0
2017-09-20 12:56:56.656809	-11	0	0
2017-09-20 12:56:56.659313	-20	0	0
2017-09-20 12:56:56.661812	-18	0	0
2017-09-20 12:56:56.664306	-13	0	0
2017-09-20 12:56:56.666811	-23	0	0
2017-09-20 12:56:56.669316	-21	0	0
2017-09-20 12:56:56.671816	-18	0	0
2017-09-20 12:56:56.674320	-18	0	0
2017-09-20 12:56:56.676822	-28	0	0
2017-09-20 12:56:56.679321	-12	0	0
2017-09-20 12:56:56.681826	-24	0	0
2017-09-20 12:56:56.684330	-17	0	0
2017-09-20 12:56:56.686831	-29	0	0
2017-09-20 12:56:56.689333	-9	0	0
2017-09-20 12:56:56.691834	-17	0	0
2017-09-20 12:56:56.694339	-16	0	0
2017-09-20 12:56:56.696835	-18	0	0
2017-09-20 12:56:56.699337	-11	0	0
2017-09-20 12:56:56.701838	-20	0	0
2017-09-20 12:56:56.704341	-19	0	0
2017-09-20 12:56:56.706844	-18	0	0
2017-09-20 12:56:56.709338	-7	0	0
2017-09-20 12:56:56.711837	-11	0	0
2017-09-20 12:56:56.714343	-14	0	0
2017-09-20 12:56:56.716842	-9	0	0
2017-09-20 12:56:56.719347	-12	0	0
2017-09-20 12:56:56.721842	-8	0	0
2017-09-20 12:56:56.724337	-8	0	0
2017-09-20 12:56:56.726837	-3	0	0
2017-09-20 12:56:56.729341	-10	0	0
2017-09-20 12:56:56.731841	1	0	0
2017-09-20 12:56:56.734345	-12	0	0
2017-09-20 12:56:56.736845	-9	0	0
2017-09-20 12:56:56.739344	-12	0	0
2017-09-20 12:56:56.741843	-4	0	0
2017-09-20 12:56:56.744336	-7	0	0
2017-09-20 12:56:56.746837	-3	0	0
2017-09-20 12:56:56.749333	-17	0	0
2017-09-20 12:56:56.751830	4	0	0
2017-09-20 12:56:56.754334	-15	0	0
2017-09-20 12:56:56.756830	-7	0	0
2017-09-20 12:56:56.759327	1	0	0
2017-09-20 12:56:56.761826	-3	0	0
2017-09-20 12:56:56.764322	-10	0	0
2017-09-20 12:56:56.766820	-6	0	0
2017-09-20 12:56:56.769323	-9	0	0
2017-09-20 12:56:56.771825	-6	0	0
2017-09-20 12:56:56.774324	-10	0	0
2017-09-20 12:56:56.776828	-8	0	0
2017-09-20 12:56:56.779329	-6	0	0
2017-09-20 12:56:56.781828	-11	0	0
2017-09-20 12:56:56.784322	-12	0	0
2017-09-20 12:56:56.786826	-6	0	0
2017-09-20 12:56:56.789321	-17	0	0
2017-09-20 12:56:56.791827	-16	0	0
2017-09-20 12:56:56.794325	-5	0	0
2017-09-20 12:56:56.796826	-16	0	0
2017-09-20 12:56:56.799321	-30	0	0
2017-09-20 12:56:56.801827	-10	0	0
2017-09-20 12:56:56.804325	-17	0	0
2017-09-20 12:56:56.806823	-19	0	0
2017-09-20 12:56:56.809320	-8	0	0
2017-09-20 12:56:56.811823	-14	0	0
2017-09-20 12:56:56.814318	-20	0	0
2017-09-20 12:56:56.816820	-7	0	0
2017-09-20 12:56:56.819317	-15	0	0
2017-09-20 12:56:56.821813	-26	0	0
2017-09-20 12:56:56.824317	-12	0	0
2017-09-20 12:56:56.826815	-13	0	0
2017-09-20 12:56:56.829311	-7	0	0
2017-09-20 12:56:56.831809	-6	0	0
2017-09-20 12:56:56.834302	2	0	0
2017-09-20 12:56:56.836799	-4	0	0
2017-09-20 12:56:56.839296	-3	0	0
2017-09-20 12:56:56.841806	-11	0	0
2017-09-20 12:56:56.844306	-5	0	0
2017-09-20 12:56:56.846801	-2	0	0
2017-09-20 12:56:56.849295	-6	0	0
2017-09-20 12:56:56.851803	-7	0	0
2017-09-20 12:56:56.854293	-5	0	0
2017-09-20 12:56:56.856797	-3	0	0
2017-09-20 12:56:56.859298	-9	0	0
2017-09-20 12:56:56.861805	-1	0	0
2017-09-20 12:56:56.864302	1	0	0
2017-09-20 12:56:56.866805	-6	0	0
2017-09-20 12:56:56.869305	-8	0	0
2017-09-20 12:56:56.871800	6	0	0
2017-09-20 12:56:56.874304	-7	0	0
2017-09-20 12:56:56.876797	1	0	0
2017-09-20 12:56:56.879302	3	0	0
2017-09-20 12:56:56.881802	0	0	0
2017-09-20 12:56:56.884309	-15	0	0
2017-09-20 12:56:56.886812	-10	0	0
2017-09-20 12:56:56.889309	-4	0	0
2017-09-20 12:56:56.891812	-17	0	0
2017-09-20 12:56:56.894315	-1	0	0
2017-09-20 12:56:56.896809	-10	0	0
2017-09-20 12:56:56.899310	-3	0	0
2017-09-20 12:56:56.901807	-4	0	0
2017-09-20 12:56:56.904313	-4	0	0
2017-09-20 12:56:56.906817	-21	0	0
2017-09-20 12:56:56.909315	-20	0	0
2017-09-20 12:56:56.911813	-21	0	0
2017-09-20 12:56:56.914312	-19	0	0
2017-09-20 12:56:56.916819	-1	0	0
2017-09-20 12:56:56.919316	-12	0	0
2017-09-20 12:56:56.921812	-19	0	0
2017-09-20 12:56:56.924307	-14	0	0
2017-09-20 12:56:56.926834	-28	0	0
2017-09-20 12:56:56.929303	-19	0	0
2017-09-20 12:56:56.931810	-17	0	0
2017-09-20 12:56:56.934302	-18	0	0
2017-09-20 12:56:56.936799	-20	0	0
2017-09-20 12:56:56.939300	-38	0	0
2017-09-20 12:56:56.941803	-18	0	0
2017-09-20 12:56:56.944306	-32	0	0
2017-09-20 12:56:56.946808	-30	0	0
2017-09-20 12:56:56.949302	-24	0	0
2017-09-20 12:56:56.951801	-21	0	0
2017-09-20 12:56:56.954305	-32	0	0
2017-09-20 12:56:56.956801	-26	0	0
2017-09-20 12:56:56.959305	-27	0	0
2017-09-20 12:56:56.961808	-12	0	0
2017-09-20 12:56:56.964307	-20	0	0
2017-09-20 12:56:56.966808	-23	0	0
2017-09-20 12:56:56.969308	-11	0	0
2017-09-20 12:56:56.971810	-20	0	0
2017-09-20 12:56:56.974304	-18	0	0
2017-09-20 12:56:56.976798	-13	0	0
2017-09-20 12:56:56.979296	-3	0	0
2017-09-20 12:56:56.981799	-12	0	0
2017-09-20 12:56:56.984287	-3	0	0
2017-09-20 12:56:56.986787	2	0	0
2017-09-20 12:56:56.989284	-6	0	0
2017-09-20 12:56:56.991782	-2	0	0
2017-09-20 12:56:56.994285	-2	0	0
2017-09-20 12:56:56.996782	-12	0	0
2017-09-20 12:56:56.999279	-6	0	0
2017-09-20 12:56:57.001770	0	0	0
2017-09-20 12:56:57.004275	-5	0	0
2017-09-20 12:56:57.006769	-12	0	0
2017-09-20 12:56:57.009265	-7	0	0
2017-09-20 12:56:57.011767	-4	0	0
2017-09-20 12:56:57.014264	-2	0	0
2017-09-20 12:56:57.016759	-4	0	0
2017-09-20 12:56:57.019260	-9	0	0
2017-09-20 12:56:57.021765	0	0	0
2017-09-20 12:56:57.024264	-11	0	0
2017-09-20 12:56:57.026759	-18	0	0
2017-09-20 12:56:57.029256	-6	0	0
2017-09-20 12:56:57.031759	-2	0	0
2017-09-20 12:56:57.034256	-11	0	0
2017-09-20 12:56:57.036752	-2	0	0
2017-09-20 12:56:57.039248	-7	0	0
2017-09-20 12:56:57.041750	-7	0	0
2017-09-20 12:56:57.044252	-15	0	0
2017-09-20 12:56:57.046754	-8	0	0
2017-09-20 12:56:57.049258	-10	0	0
2017-09-20 12:56:57.051757	-2	0	0
2017-09-20 12:56:57.054260	-15	0	0
2017-09-20 12:56:57.056753	-10	0	0
2017-09-20 12:56:57.059250	-19	0	0
2017-09-20 12:56:57.061749	-3	0	0
2017-09-20 12:56:57.064248	-15	0	0
2017-09-20 12:56:57.066748	-13	0	0
2017-09-20 12:56:57.069244	-11	0	0
2017-09-20 12:56:57.071741	-13	0	0
2017-09-20 12:56:57.074245	-15	0	0
2017-09-20 12:56:57.076749	-12	0	0
2017-09-20 12:56:57.079252	-9	0	0
2017-09-20 12:56:57.081745	-6	0	0
2017-09-20 12:56:57.084241	-12	0	0
2017-09-20 12:56:57.086743	-17	0	0
2017-09-20 12:56:57.089246	-16	0	0
2017-09-20 12:56:57.091747	-7	0	0
2017-09-20 12:56:57.094244	-9	0	0
2017-09-20 12:56:57.096739	-9	0	0
2017-09-20 12:56:57.099243	-7	0	0
2017-09-20 12:56:57.101739	-8	0	0
2017-09-20 12:56:57.104237	-13	0	0
2017-09-20 12:56:57.106733	-7	0	0
2017-09-20 12:56:57.109227	0	0	0
2017-09-20 12:56:57.111734	-14	0	0
2017-09-20 12:56:57.114228	-9	0	0
2017-09-20 12:56:57.116725	-15	0	0
2017-09-20 12:56:57.119223	-17	0	0
2017-09-20 12:56:57.121729	-17	0	0
2017-09-20 12:56:57.124234	-9	0	0
2017-09-20 12:56:57.126737	5	0	0
2017-09-20 12:56:57.129239	-6	0	0
2017-09-20 12:56:57.131738	-14	0	0
2017-09-20 12:56:57.134240	-6	0	0
2017-09-20 12:56:57.136737	-6	0	0
2017-09-20 12:56:57.139236	-12	0	0
2017-09-20 12:56:57.141735	-8	0	0
2017-09-20 12:56:57.144233	-12	0	0
2017-09-20 12:56:57.146736	-12	0	0
2017-09-20 12:56:57.149236	-3	0	0
2017-09-20 12:56:57.151738	-14	0	0
2017-09-20 12:56:57.154233	-14	0	0
2017-09-20 12:56:57.156729	-14	0	0
2017-09-20 12:56:57.159223	-12	0	0
2017-09-20 12:56:57.161730	-14	0	0
2017-09-20 12:56:57.164235	-16	0	0
2017-09-20 12:56:57.166738	-9	0	0
2017-09-20 12:56:57.169240	-9	0	0
2017-09-20 12:56:57.171739	-17	0	0
2017-09-20 12:56:57.174238	-16	0	0
2017-09-20 12:56:57.176732	-13	0	0
2017-09-20 12:56:57.179231	1	0	0
2017-09-20 12:56:57.181737	-10	0	0
2017-09-20 12:56:57.184241	-16	0	0
2017-09-20 12:56:57.186744	-5	0	0
2017-09-20 12:56:57.189245	-19	0	0
2017-09-20 12:56:57.191742	-16	0	0
2017-09-20 12:56:57.194247	-13	0	0
2017-09-20 12:56:57.196745	-11	0	0
2017-09-20 12:56:57.199249	-13	0	0
2017-09-20 12:56:57.201745	-15	0	0
2017-09-20 12:56:57.204251	-11	0	0
2017-09-20 12:56:57.206746	-21	0	0
2017-09-20 12:56:57.209246	-9	0	0
2017-09-20 12:56:57.211752	-12	0	0
2017-09-20 12:56:57.214259	-15	0	0
2017-09-20 12:56:57.216764	-26	0	0
2017-09-20 12:56:57.219263	-4	0	0
2017-09-20 12:56:57.221760	-8	0	0
2017-09-20 12:56:57.224258	-2	0	0
2017-09-20 12:56:57.226754	-12	0	0
2017-09-20 12:56:57.229248	-12	0	0
2017-09-20 12:56:57.231749	-8	0	0
2017-09-20 12:56:57.234245	-19	0	0
2017-09-20 12:56:57.236743	-11	0	0
2017-09-20 12:56:57.239242	-14	0	0
2017-09-20 12:56:57.241747	-4	0	0
2017-09-20 12:56:57.244241	-12	0	0
2017-09-20 12:56:57.246763	-3	0	0
2017-09-20 12:56:57.249274	-7	0	0
2017-09-20 12:56:57.251743	-8	0	0
2017-09-20 12:56:57.254237	-11	0	0
2017-09-20 12:56:57.256729	-7	0	0
2017-09-20 12:56:57.259238	-10	0	0
2017-09-20 12:56:57.261739	-9	0	0
2017-09-20 12:56:57.264238	-7	0	0
2017-09-20 12:56:57.266734	-12	0	0
2017-09-20 12:56:57.269236	-6	0	0
2017-09-20 12:56:57.271741	-9	0	0
2017-09-20 12:56:57.274240	0	0	0
2017-09-20 12:56:57.276738	-13	0	0
2017-09-20 12:56:57.279235	-11	0	0
2017-09-20 12:56:57.281729	-5	0	0
2017-09-20 12:56:57.284230	-8	0	0
2017-09-20 12:56:57.286731	4	0	0
2017-09-20 12:56:57.289229	-7	0	0
2017-09-20 12:56:57.291727	-13	0	0
2017-09-20 12:56:57.294231	-12	0	0
2017-09-20 12:56:57.296729	-11	0	0
2017-09-20 12:56:57.299235	-10	0	0
2017-09-20 12:56:57.301729	-12	0	0
2017-09-20 12:56:57.304226	-10	0	0
2017-09-20 12:56:57.306731	-11	0	0
2017-09-20 12:56:57.309227	-15	0	0
2017-09-20 12:56:57.311728	-16	0	0
2017-09-20 12:56:57.314226	-20	0	0
2017-09-20 12:56:57.316719	-18	0	0
2017-09-20 12:56:57.319221	-3	0	0
2017-09-20 12:56:57.321714	-10	0	0
2017-09-20 12:56:57.324226	-8	0	0
2017-09-20 12:56:57.326713	-9	0	0
2017-09-20 12:56:57.329209	-14	0	0
2017-09-20 12:56:57.331710	-10	0	0
2017-09-20 12:56:57.334212	-14	0	0
2017-09-20 12:56:57.336704	-8	0	0
2017-09-20 12:56:57.339209	-16	0	0
2017-09-20 12:56:57.341713	-15	0	0
2017-09-20 12:56:57.344211	-21	0	0
2017-09-20 12:56:57.346705	-19	0	0
2017-09-20 12:56:57.349200	-6	0	0
2017-09-20 12:56:57.351702	-7	0	0
2017-09-20 12:56:57.354214	-11	0	0
2017-09-20 12:56:57.356703	-10	0	0
2017-09-20 12:56:57.359199	-15	0	0
2017-09-20 12:56:57.361697	-5	0	0
2017-09-20 12:56:57.364200	-15	0	0
2017-09-20 12:56:57.366699	-11	0	0
2017-09-20 12:56:57.369202	-6	0	0
2017-09-20 12:56:57.371704	-6	0	0
2017-09-20 12:56:57.374216	-4	0	0
2017-09-20 12:56:57.376711	-4	0	0
2017-09-20 12:56:57.379211	-6	0	0
2017-09-20 12:56:57.381704	-8	0	0
2017-09-20 12:56:57.384202	-7	0	0
2017-09-20 12:56:57.386710	1	0	0
2017-09-20 12:56:57.389207	0	0	0
2017-09-20 12:56:57.391706	-6	0	0
2017-09-20 12:56:57.394204	-6	0	0
2017-09-20 12:56:57.396699	-10	0	0
2017-09-20 12:56:57.399199	-8	0	0
2017-09-20 12:56:57.401694	-8	0	0
2017-09-20 12:56:57.404201	-13	0	0
2017-09-20 12:56:57.406699	-11	0	0
2017-09-20 12:56:57.409197	-2	0	0
2017-09-20 12:56:57.411692	-1	0	0
2017-09-20 12:56:57.414191	-5	0	0
2017-09-20 12:56:57.416694	-12	0	0
2017-09-20 12:56:57.419195	-8	0	0
2017-09-20 12:56:57.421695	-4	0	0
2017-09-20 12:56:57.424200	-14	0	0
2017-09-20 12:56:57.426694	-8	0	0
2017-09-20 12:56:57.429193	-13	0	0
2017-09-20 12:56:57.431691	-10	0	0
2017-09-20 12:56:57.434185	-4	0	0
2017-09-20 12:56:57.436681	-14	0	0
2017-09-20 12:56:57.439177	-10	0	0
2017-09-20 12:56:57.441681	-6	0	0
2017-09-20 12:56:57.444183	-16	0	0
2017-09-20 12:56:57.446685	-5	0	0
2017-09-20 12:56:57.449184	-19	0	0
2017-09-20 12:56:57.451689	-16	0	0
2017-09-20 12:56:57.454194	-18	0	0
2017-09-20 12:56:57.456697	-8	0	0
2017-09-20 12:56:57.459199	-17	0	0
2017-09-20 12:56:57.461703	-13	0	0
2017-09-20 12:56:57.464206	-15	0	0
2017-09-20 12:56:57.466702	-11	0	0
2017-09-20 12:56:57.469197	-15	0	0
2017-09-20 12:56:57.471702	-11	0	0
2017-09-20 12:56:57.474217	-16	0	0
2017-09-20 12:56:57.476704	-8	0	0
2017-09-20 12:56:57.479200	-17	0	0
2017-09-20 12:56:57.481698	-15	0	0
2017-09-20 12:56:57.484193	-16	0	0
2017-09-20 12:56:57.486689	2	0	0
2017-09-20 12:56:57.489189	-12	0	0
2017-09-20 12:56:57.491690	-6	0	0
2017-09-20 12:56:57.494185	-7	0	0
2017-09-20 12:56:57.496687	-14	0	0
2017-09-20 12:56:57.499192	-8	0	0
2017-09-20 12:56:57.501697	-6	0	0
2017-09-20 12:56:57.504202	-3	0	0
2017-09-20 12:56:57.506701	2	0	0
2017-09-20 12:56:57.509209	-7	0	0
2017-09-20 12:56:57.511710	-5	0	0
2017-09-20 12:56:57.514216	-12	0	0
2017-09-20 12:56:57.516703	-15	0	0
2017-09-20 12:56:57.519197	-9	0	0
2017-09-20 12:56:57.521701	-12	0	0
2017-09-20 12:56:57.524210	-12	0	0
2017-09-20 12:56:57.526710	-12	0	0
2017-09-20 12:56:57.529211	0	0	0
2017-09-20 12:56:57.531715	-22	0	0
2017-09-20 12:56:57.534222	-9	0	0
2017-09-20 12:56:57.536716	-5	0	0
2017-09-20 12:56:57.539215	-11	0	0
2017-09-20 12:56:57.541712	0	0	0
2017-09-20 12:56:57.544210	-10	0	0
2017-09-20 12:56:57.546709	-21	0	0
2017-09-20 12:56:57.549214	-6	0	0
2017-09-20 12:56:57.551712	-14	0	0
2017-09-20 12:56:57.554222	-6	0	0
2017-09-20 12:56:57.556717	-17	0	0
2017-09-20 12:56:57.559219	-11	0	0
2017-09-20 12:56:57.561721	-2	0	0
2017-09-20 12:56:57.564221	-16	0	0
2017-09-20 12:56:57.566722	-9	0	0
2017-09-20 12:56:57.569227	-8	0	0
2017-09-20 12:56:57.571727	-1	0	0
2017-09-20 12:56:57.574231	-4	0	0
2017-09-20 12:56:57.576734	-9	0	0
2017-09-20 12:56:57.579231	-11	0	0
2017-09-20 12:56:57.581737	-13	0	0
2017-09-20 12:56:57.584232	-8	0	0
2017-09-20 12:56:57.586734	-15	0	0
2017-09-20 12:56:57.589239	-16	0	0
2017-09-20 12:56:57.591740	-11	0	0
2017-09-20 12:56:57.594245	-17	0	0
2017-09-20 12:56:57.596741	-12	0	0
2017-09-20 12:56:57.599235	-3	0	0
2017-09-20 12:56:57.601742	-13	0	0
2017-09-20 12:56:57.604247	-10	0	0
2017-09-20 12:56:57.606747	-11	0	0
2017-09-20 12:56:57.609247	-12	0	0
2017-09-20 12:56:57.611752	-6	0	0
2017-09-20 12:56:57.614254	-11	0	0
2017-09-20 12:56:57.616758	-14	0	0
2017-09-20 12:56:57.619256	-7	0	0
2017-09-20 12:56:57.621761	-2	0	0
2017-09-20 12:56:57.624262	-15	0	0
2017-09-20 12:56:57.626764	-15	0	0
2017-09-20 12:56:57.629260	-11	0	0
2017-09-20 12:56:57.631783	-14	0	0
2017-09-20 12:56:57.634253	-13	0	0
2017-09-20 12:56:57.636754	-13	0	0
2017-09-20 12:56:57.639250	-6	0	0
2017-09-20 12:56:57.641753	-17	0	0
2017-09-20 12:56:57.644255	-15	0	0
2017-09-20 12:56:57.646757	-16	0	0
2017-09-20 12:56:57.649254	-4	0	0
2017-09-20 12:56:57.651755	-16	0	0
2017-09-20 12:56:57.654260	-17	0	0
2017-09-20 12:56:57.656764	-9	0	0
2017-09-20 12:56:57.659265	-18	0	0
2017-09-20 12:56:57.661764	-10	0	0
2017-09-20 12:56:57.664268	-18	0	0
2017-09-20 12:56:57.666769	-7	0	0
2017-09-20 12:56:57.669270	-18	0	0
2017-09-20 12:56:57.671771	-9	0	0
2017-09-20 12:56:57.674267	-23	0	0
2017-09-20 12:56:57.676763	-17	0	0
2017-09-20 12:56:57.679259	-7	0	0
2017-09-20 12:56:57.681764	-12	0	0
2017-09-20 12:56:57.684267	-9	0	0
2017-09-20 12:56:57.686767	-3	0	0
2017-09-20 12:56:57.689264	-15	0	0
2017-09-20 12:56:57.691762	-12	0	0
2017-09-20 12:56:57.694264	-9	0	0
2017-09-20 12:56:57.696758	-6	0	0
2017-09-20 12:56:57.699258	-17	0	0
2017-09-20 12:56:57.701762	-17	0	0
2017-09-20 12:56:57.704262	-7	0	0
2017-09-20 12:56:57.706765	-9	0	0
2017-09-20 12:56:57.709270	-18	0	0
2017-09-20 12:56:57.711771	-9	0	0
2017-09-20 12:56:57.714265	-8	0	0
2017-09-20 12:56:57.716768	-15	0	0
2017-09-20 12:56:57.719264	-10	0	0
2017-09-20 12:56:57.721769	-7	0	0
2017-09-20 12:56:57.724269	-7	0	0
2017-09-20 12:56:57.726770	-8	0	0
2017-09-20 12:56:57.729264	-15	0	0
2017-09-20 12:56:57.731764	-14	0	0
2017-09-20 12:56:57.734266	-15	0	0
2017-09-20 12:56:57.736768	-23	0	0
2017-09-20 12:56:57.739271	-17	0	0
2017-09-20 12:56:57.741783	-4	0	0
2017-09-20 12:56:57.744274	-16	0	0
2017-09-20 12:56:57.746778	-2	0	0
2017-09-20 12:56:57.749275	-12	0	0
2017-09-20 12:56:57.751776	-7	0	0
2017-09-20 12:56:57.754279	3	0	0
2017-09-20 12:56:57.756776	-13	0	0
2017-09-20 12:56:57.759274	-1	0	0
2017-09-20 12:56:57.761769	-6	0	0
2017-09-20 12:56:57.764271	-6	0	0
2017-09-20 12:56:57.766768	-9	0	0
2017-09-20 12:56:57.769267	-10	0	0
2017-09-20 12:56:57.771768	3	0	0
2017-09-20 12:56:57.774271	-11	0	0
2017-09-20 12:56:57.776775	-13	0	0
2017-09-20 12:56:57.779276	-7	0	0
2017-09-20 12:56:57.781785	-4	0	0
2017-09-20 12:56:57.784273	-15	0	0
2017-09-20 12:56:57.786777	-9	0	0
2017-09-20 12:56:57.789278	-11	0	0
2017-09-20 12:56:57.791778	-21	0	0
2017-09-20 12:56:57.794282	-9	0	0
2017-09-20 12:56:57.796779	-8	0	0
2017-09-20 12:56:57.799276	-4	0	0
2017-09-20 12:56:57.801791	-15	0	0
2017-09-20 12:56:57.804275	1	0	0
2017-09-20 12:56:57.806772	-12	0	0
2017-09-20 12:56:57.809278	-2	0	0
2017-09-20 12:56:57.811784	-17	0	0
2017-09-20 12:56:57.814280	1	0	0
2017-09-20 12:56:57.816783	-12	0	0
2017-09-20 12:56:57.819282	-12	0	0
2017-09-20 12:56:57.821791	-26	0	0
2017-09-20 12:56:57.824284	-15	0	0
2017-09-20 12:56:57.826788	-27	0	0
2017-09-20 12:56:57.829287	-7	0	0
2017-09-20 12:56:57.831790	-15	0	0
2017-09-20 12:56:57.834298	-10	0	0
2017-09-20 12:56:57.836799	-11	0	0
2017-09-20 12:56:57.839296	-18	0	0
2017-09-20 12:56:57.841799	-18	0	0
2017-09-20 12:56:57.844292	-11	0	0
2017-09-20 12:56:57.846792	-18	0	0
2017-09-20 12:56:57.849292	-21	0	0
2017-09-20 12:56:57.851798	-6	0	0
2017-09-20 12:56:57.854295	-8	0	0
2017-09-20 12:56:57.856799	-9	0	0
2017-09-20 12:56:57.859297	-3	0	0
2017-09-20 12:56:57.861799	-5	0	0
2017-09-20 12:56:57.864290	-8	0	0
2017-09-20 12:56:57.866796	-7	0	0
2017-09-20 12:56:57.869289	-4	0	0
2017-09-20 12:56:57.871786	4	0	0
2017-09-20 12:56:57.874291	-3	0	0
2017-09-20 12:56:57.876787	-3	0	0
2017-09-20 12:56:57.879284	-5	0	0
2017-09-20 12:56:57.881795	-6	0	0
2017-09-20 12:56:57.884314	1	0	0
2017-09-20 12:56:57.886809	-1	0	0
2017-09-20 12:56:57.889315	-7	0	0
2017-09-20 12:56:57.891812	-2	0	0
2017-09-20 12:56:57.894308	-6	0	0
2017-09-20 12:56:57.896805	-4	0	0
2017-09-20 12:56:57.899310	-4	0	0
2017-09-20 12:56:57.901808	4	0	0
2017-09-20 12:56:57.904310	-8	0	0
2017-09-20 12:56:57.906814	-5	0	0
2017-09-20 12:56:57.909320	-6	0	0
2017-09-20 12:56:57.911822	-1	0	0
2017-09-20 12:56:57.914324	-16	0	0
2017-09-20 12:56:57.916821	-15	0	0
2017-09-20 12:56:57.919320	-12	0	0
2017-09-20 12:56:57.921824	-10	0	0
2017-09-20 12:56:57.924319	-11	0	0
2017-09-20 12:56:57.926823	-9	0	0
2017-09-20 12:56:57.929329	-9	0	0
2017-09-20 12:56:57.931829	-19	0	0
2017-09-20 12:56:57.934326	-18	0	0
2017-09-20 12:56:57.936818	-15	0	0
2017-09-20 12:56:57.939324	-28	0	0
2017-09-20 12:56:57.941824	-14	0	0
2017-09-20 12:56:57.944329	-21	0	0
2017-09-20 12:56:57.946829	-36	0	0
2017-09-20 12:56:57.949324	-14	0	0
2017-09-20 12:56:57.951820	-23	0	0
2017-09-20 12:56:57.954316	-29	0	0
2017-09-20 12:56:57.956815	-15	0	0
2017-09-20 12:56:57.959314	-22	0	0
2017-09-20 12:56:57.961820	-22	0	0
2017-09-20 12:56:57.964325	-14	0	0
2017-09-20 12:56:57.966822	-6	0	0
2017-09-20 12:56:57.969320	-14	0	0
2017-09-20 12:56:57.971827	-21	0	0
2017-09-20 12:56:57.974322	-18	0	0
2017-09-20 12:56:57.976818	-22	0	0
2017-09-20 12:56:57.979320	-15	0	0
2017-09-20 12:56:57.996187	-18	0	0
2017-09-20 12:56:57.998674	-18	0	0
2017-09-20 12:56:58.001162	-16	0	0
2017-09-20 12:56:58.003671	-10	0	0
2017-09-20 12:56:58.006166	-11	0	0
2017-09-20 12:56:58.008673	-19	0	0
2017-09-20 12:56:58.011168	-11	0	0
2017-09-20 12:56:58.013672	-11	0	0
2017-09-20 12:56:58.016173	-16	0	0
2017-09-20 12:56:58.018679	-25	0	0
2017-09-20 12:56:58.021171	-20	0	0
2017-09-20 12:56:58.023671	5	0	0
2017-09-20 12:56:58.026175	4	0	0
2017-09-20 12:56:58.028686	-6	0	0
2017-09-20 12:56:58.031184	2	0	0
2017-09-20 12:56:58.033680	3	0	0
2017-09-20 12:56:58.036185	1	0	0
2017-09-20 12:56:58.038693	-8	0	0
2017-09-20 12:56:58.041187	-10	0	0
2017-09-20 12:56:58.043686	-4	0	0
2017-09-20 12:56:58.046184	-2	0	0
2017-09-20 12:56:58.048685	-6	0	0
2017-09-20 12:56:58.051175	-3	0	0
2017-09-20 12:56:58.053672	-3	0	0
2017-09-20 12:56:58.056170	-8	0	0
2017-09-20 12:56:58.058673	0	0	0
2017-09-20 12:56:58.061163	8	0	0
2017-09-20 12:56:58.063668	-4	0	0
2017-09-20 12:56:58.066165	0	0	0
2017-09-20 12:56:58.068676	3	0	0
2017-09-20 12:56:58.071169	-4	0	0
2017-09-20 12:56:58.073673	5	0	0
2017-09-20 12:56:58.076177	-5	0	0
2017-09-20 12:56:58.078680	-2	0	0
2017-09-20 12:56:58.081173	-1	0	0
2017-09-20 12:56:58.083678	-5	0	0
2017-09-20 12:56:58.086181	-6	0	0
2017-09-20 12:56:58.088689	0	0	0
2017-09-20 12:56:58.091189	-16	0	0
2017-09-20 12:56:58.093686	-5	0	0
2017-09-20 12:56:58.096185	-9	0	0
2017-09-20 12:56:58.098693	-13	0	0
2017-09-20 12:56:58.101189	-14	0	0
2017-09-20 12:56:58.103690	-12	0	0
2017-09-20 12:56:58.106192	-11	0	0
2017-09-20 12:56:58.108690	-9	0	0
2017-09-20 12:56:58.111186	-20	0	0
2017-09-20 12:56:58.113690	-12	0	0
2017-09-20 12:56:58.116197	-26	0	0
2017-09-20 12:56:58.118697	-33	0	0
2017-09-20 12:56:58.121193	-18	0	0
2017-09-20 12:56:58.123690	-17	0	0
2017-09-20 12:56:58.126189	-19	0	0
2017-09-20 12:56:58.128694	-17	0	0
2017-09-20 12:56:58.131196	-24	0	0
2017-09-20 12:56:58.133692	-13	0	0
2017-09-20 12:56:58.136188	-28	0	0
2017-09-20 12:56:58.138701	-16	0	0
2017-09-20 12:56:58.141201	-32	0	0
2017-09-20 12:56:58.143701	-20	0	0
2017-09-20 12:56:58.146215	-21	0	0
2017-09-20 12:56:58.148717	-16	0	0
2017-09-20 12:56:58.151205	-17	0	0
2017-09-20 12:56:58.153700	-17	0	0
2017-09-20 12:56:58.156196	-19	0	0
2017-09-20 12:56:58.158695	-14	0	0
2017-09-20 12:56:58.161198	-16	0	0
2017-09-20 12:56:58.163700	-16	0	0
2017-09-20 12:56:58.166200	-7	0	0
2017-09-20 12:56:58.168696	-2	0	0
2017-09-20 12:56:58.171196	-1	0	0
2017-09-20 12:56:58.173692	-3	0	0
2017-09-20 12:56:58.176193	-4	0	0
2017-09-20 12:56:58.178697	-12	0	0
2017-09-20 12:56:58.181192	0	0	0
2017-09-20 12:56:58.183692	3	0	0
2017-09-20 12:56:58.186192	-2	0	0
2017-09-20 12:56:58.188691	-7	0	0
2017-09-20 12:56:58.191189	-3	0	0
2017-09-20 12:56:58.193690	0	0	0
2017-09-20 12:56:58.196191	2	0	0
2017-09-20 12:56:58.198695	-5	0	0
2017-09-20 12:56:58.201194	-1	0	0
2017-09-20 12:56:58.203688	3	0	0
2017-09-20 12:56:58.206190	-5	0	0
2017-09-20 12:56:58.208688	-1	0	0
2017-09-20 12:56:58.211188	-6	0	0
2017-09-20 12:56:58.213682	-2	0	0
2017-09-20 12:56:58.216183	-3	0	0
2017-09-20 12:56:58.218689	-3	0	0
2017-09-20 12:56:58.221185	11	0	0
2017-09-20 12:56:58.223685	-16	0	0
2017-09-20 12:56:58.226190	-10	0	0
2017-09-20 12:56:58.228694	-11	0	0
2017-09-20 12:56:58.231193	-17	0	0
2017-09-20 12:56:58.233697	-24	0	0
2017-09-20 12:56:58.236207	-16	0	0
2017-09-20 12:56:58.238707	-7	0	0
2017-09-20 12:56:58.241210	-14	0	0
2017-09-20 12:56:58.243707	-5	0	0
2017-09-20 12:56:58.246215	-20	0	0
2017-09-20 12:56:58.248711	-14	0	0
2017-09-20 12:56:58.251218	-11	0	0
2017-09-20 12:56:58.253713	-11	0	0
2017-09-20 12:56:58.256212	-16	0	0
2017-09-20 12:56:58.258717	-10	0	0
2017-09-20 12:56:58.261214	-23	0	0
2017-09-20 12:56:58.263715	-8	0	0
2017-09-20 12:56:58.266218	-22	0	0
2017-09-20 12:56:58.268717	-11	0	0
2017-09-20 12:56:58.271214	-19	0	0
2017-09-20 12:56:58.273716	-14	0	0
2017-09-20 12:56:58.276220	-14	0	0
2017-09-20 12:56:58.278729	-15	0	0
2017-09-20 12:56:58.281219	-11	0	0
2017-09-20 12:56:58.283720	-19	0	0
2017-09-20 12:56:58.286219	-2	0	0
2017-09-20 12:56:58.288718	-15	0	0
2017-09-20 12:56:58.291221	-16	0	0
2017-09-20 12:56:58.293719	-11	0	0
2017-09-20 12:56:58.296221	-16	0	0
2017-09-20 12:56:58.298724	-13	0	0
2017-09-20 12:56:58.301221	-22	0	0
2017-09-20 12:56:58.303718	-21	0	0
2017-09-20 12:56:58.306221	-17	0	0
2017-09-20 12:56:58.308727	-12	0	0
2017-09-20 12:56:58.311226	-8	0	0
2017-09-20 12:56:58.313732	-8	0	0
2017-09-20 12:56:58.316236	-10	0	0
2017-09-20 12:56:58.318739	-11	0	0
2017-09-20 12:56:58.321242	-18	0	0
2017-09-20 12:56:58.323745	-6	0	0
2017-09-20 12:56:58.326239	-19	0	0
2017-09-20 12:56:58.328743	-11	0	0
2017-09-20 12:56:58.331244	-14	0	0
2017-09-20 12:56:58.333739	-13	0	0
2017-09-20 12:56:58.336235	-16	0	0
2017-09-20 12:56:58.338739	-24	0	0
2017-09-20 12:56:58.341235	-2	0	0
2017-09-20 12:56:58.343734	-5	0	0
2017-09-20 12:56:58.346236	-17	0	0
2017-09-20 12:56:58.348734	-18	0	0
2017-09-20 12:56:58.351232	-13	0	0
2017-09-20 12:56:58.353728	-6	0	0
2017-09-20 12:56:58.356233	-17	0	0
2017-09-20 12:56:58.358731	-7	0	0
2017-09-20 12:56:58.361222	-12	0	0
2017-09-20 12:56:58.363721	-14	0	0
2017-09-20 12:56:58.366218	-16	0	0
2017-09-20 12:56:58.368728	-19	0	0
2017-09-20 12:56:58.371219	-8	0	0
2017-09-20 12:56:58.373714	-18	0	0
2017-09-20 12:56:58.376216	-11	0	0
2017-09-20 12:56:58.378722	-15	0	0
2017-09-20 12:56:58.381216	-10	0	0
2017-09-20 12:56:58.383713	-14	0	0
2017-09-20 12:56:58.386223	-2	0	0
2017-09-20 12:56:58.388720	-13	0	0
2017-09-20 12:56:58.391210	-20	0	0
2017-09-20 12:56:58.393709	-17	0	0
2017-09-20 12:56:58.396213	-4	0	0
2017-09-20 12:56:58.398718	-4	0	0
2017-09-20 12:56:58.401207	-5	0	0
2017-09-20 12:56:58.403703	-7	0	0
2017-09-20 12:56:58.406214	-14	0	0
2017-09-20 12:56:58.408706	-1	0	0
2017-09-20 12:56:58.411208	-15	0	0
2017-09-20 12:56:58.413713	-7	0	0
2017-09-20 12:56:58.416212	6	0	0
2017-09-20 12:56:58.418713	-11	0	0
2017-09-20 12:56:58.421209	-6	0	0
2017-09-20 12:56:58.423706	0	0	0
2017-09-20 12:56:58.426217	-1	0	0
2017-09-20 12:56:58.428710	-7	0	0
2017-09-20 12:56:58.431208	-2	0	0
2017-09-20 12:56:58.433708	-8	0	0
2017-09-20 12:56:58.436217	-16	0	0
2017-09-20 12:56:58.438721	-5	0	0
2017-09-20 12:56:58.441216	-13	0	0
2017-09-20 12:56:58.443712	4	0	0
2017-09-20 12:56:58.446221	-6	0	0
2017-09-20 12:56:58.448719	-9	0	0
2017-09-20 12:56:58.451208	-8	0	0
2017-09-20 12:56:58.453713	-25	0	0
2017-09-20 12:56:58.456216	-23	0	0
2017-09-20 12:56:58.458720	-6	0	0
2017-09-20 12:56:58.461218	-3	0	0
2017-09-20 12:56:58.463716	-13	0	0
2017-09-20 12:56:58.466222	-9	0	0
2017-09-20 12:56:58.468722	-11	0	0
2017-09-20 12:56:58.471218	-7	0	0
2017-09-20 12:56:58.473715	-4	0	0
2017-09-20 12:56:58.476219	-12	0	0
2017-09-20 12:56:58.478720	-12	0	0
2017-09-20 12:56:58.481213	-9	0	0
2017-09-20 12:56:58.483709	-16	0	0
2017-09-20 12:56:58.486216	-10	0	0
2017-09-20 12:56:58.488708	-15	0	0
2017-09-20 12:56:58.491200	-12	0	0
2017-09-20 12:56:58.493699	-16	0	0
2017-09-20 12:56:58.496202	-8	0	0
2017-09-20 12:56:58.498707	-9	0	0
2017-09-20 12:56:58.501205	-6	0	0
2017-09-20 12:56:58.503700	-22	0	0
2017-09-20 12:56:58.506208	-18	0	0
2017-09-20 12:56:58.508712	-9	0	0
2017-09-20 12:56:58.511207	-9	0	0
2017-09-20 12:56:58.513709	-18	0	0
2017-09-20 12:56:58.516218	-18	0	0
2017-09-20 12:56:58.518718	-16	0	0
2017-09-20 12:56:58.521215	-12	0	0
2017-09-20 12:56:58.523714	-9	0	0
2017-09-20 12:56:58.526220	-15	0	0
2017-09-20 12:56:58.528720	-11	0	0
2017-09-20 12:56:58.531219	-6	0	0
2017-09-20 12:56:58.533713	0	0	0
2017-09-20 12:56:58.536214	-2	0	0
2017-09-20 12:56:58.538718	-6	0	0
2017-09-20 12:56:58.541213	-9	0	0
2017-09-20 12:56:58.543711	-3	0	0
2017-09-20 12:56:58.546216	-2	0	0
2017-09-20 12:56:58.548713	-8	0	0
2017-09-20 12:56:58.551208	4	0	0
2017-09-20 12:56:58.553712	-9	0	0
2017-09-20 12:56:58.556215	-9	0	0
2017-09-20 12:56:58.558714	-3	0	0
2017-09-20 12:56:58.561207	-10	0	0
2017-09-20 12:56:58.563705	6	0	0
2017-09-20 12:56:58.566212	0	0	0
2017-09-20 12:56:58.568705	2	0	0
2017-09-20 12:56:58.571205	-1	0	0
2017-09-20 12:56:58.573701	6	0	0
2017-09-20 12:56:58.576202	0	0	0
2017-09-20 12:56:58.578708	-4	0	0
2017-09-20 12:56:58.581206	5	0	0
2017-09-20 12:56:58.583700	6	0	0
2017-09-20 12:56:58.586206	4	0	0
2017-09-20 12:56:58.588705	5	0	0
2017-09-20 12:56:58.591197	2	0	0
2017-09-20 12:56:58.593702	3	0	0
2017-09-20 12:56:58.596207	-4	0	0
2017-09-20 12:56:58.598708	0	0	0
2017-09-20 12:56:58.601200	-11	0	0
2017-09-20 12:56:58.603702	-1	0	0
2017-09-20 12:56:58.606193	5	0	0
2017-09-20 12:56:58.608701	10	0	0
2017-09-20 12:56:58.611201	-1	0	0
2017-09-20 12:56:58.613696	9	0	0
2017-09-20 12:56:58.616198	-4	0	0
2017-09-20 12:56:58.618706	-7	0	0
2017-09-20 12:56:58.621195	-9	0	0
2017-09-20 12:56:58.623688	4	0	0
2017-09-20 12:56:58.626196	-3	0	0
2017-09-20 12:56:58.628690	0	0	0
2017-09-20 12:56:58.631189	-7	0	0
2017-09-20 12:56:58.633692	-3	0	0
2017-09-20 12:56:58.636193	1	0	0
2017-09-20 12:56:58.638697	10	0	0
2017-09-20 12:56:58.641191	-2	0	0
2017-09-20 12:56:58.643692	-2	0	0
2017-09-20 12:56:58.646194	-3	0	0
2017-09-20 12:56:58.648702	-9	0	0
2017-09-20 12:56:58.651193	-10	0	0
2017-09-20 12:56:58.653690	-26	0	0
2017-09-20 12:56:58.656190	-32	0	0
2017-09-20 12:56:58.658700	-30	0	0
2017-09-20 12:56:58.661191	-100	0	0
2017-09-20 12:56:58.663687	-37	0	0
2017-09-20 12:56:58.666194	-77	0	0
2017-09-20 12:56:58.668695	-21	0	0
2017-09-20 12:56:58.671194	-56	0	0
2017-09-20 12:56:58.673695	-13	0	0
2017-09-20 12:56:58.676197	-63	0	0
2017-09-20 12:56:58.678697	-23	0	0
2017-09-20 12:56:58.681189	-60	0	0
2017-09-20 12:56:58.683691	-29	0	0
2017-09-20 12:56:58.686189	-44	0	0
2017-09-20 12:56:58.688693	-53	0	0
2017-09-20 12:56:58.691196	-35	0	0
2017-09-20 12:56:58.693692	-42	0	0
2017-09-20 12:56:58.696194	-31	0	0
2017-09-20 12:56:58.698704	-56	0	0
2017-09-20 12:56:58.701194	-40	0	0
2017-09-20 12:56:58.703689	-47	0	0
2017-09-20 12:56:58.706184	-38	0	0
2017-09-20 12:56:58.708687	-55	0	0
2017-09-20 12:56:58.711187	-27	0	0
2017-09-20 12:56:58.713689	-33	0	0
2017-09-20 12:56:58.716189	-34	0	0
2017-09-20 12:56:58.718689	-34	0	0
2017-09-20 12:56:58.721181	-36	0	0
2017-09-20 12:56:58.723685	-29	0	0
2017-09-20 12:56:58.726187	-19	0	0
2017-09-20 12:56:58.728693	-27	0	0
2017-09-20 12:56:58.731188	-13	0	0
2017-09-20 12:56:58.733683	-7	0	0
2017-09-20 12:56:58.736184	-12	0	0
2017-09-20 12:56:58.738688	-17	0	0
2017-09-20 12:56:58.741188	-16	0	0
2017-09-20 12:56:58.743684	-20	0	0
2017-09-20 12:56:58.746189	-25	0	0
2017-09-20 12:56:58.748695	-16	0	0
2017-09-20 12:56:58.751238	-21	0	0
2017-09-20 12:56:58.753689	-19	0	0
2017-09-20 12:56:58.756186	-12	0	0
2017-09-20 12:56:58.758688	-5	0	0
2017-09-20 12:56:58.761192	-17	0	0
2017-09-20 12:56:58.763693	-18	0	0
2017-09-20 12:56:58.766194	-6	0	0
2017-09-20 12:56:58.768691	4	0	0
2017-09-20 12:56:58.771187	-1	0	0
2017-09-20 12:56:58.773679	1	0	0
2017-09-20 12:56:58.776176	-1	0	0
2017-09-20 12:56:58.778682	-6	0	0
2017-09-20 12:56:58.781173	1	0	0
2017-09-20 12:56:58.783676	-3	0	0
2017-09-20 12:56:58.786173	0	0	0
2017-09-20 12:56:58.788670	-2	0	0
2017-09-20 12:56:58.791164	7	0	0
2017-09-20 12:56:58.793673	9	0	0
2017-09-20 12:56:58.796173	14	0	0
2017-09-20 12:56:58.798670	3	0	0
2017-09-20 12:56:58.801173	8	0	0
2017-09-20 12:56:58.803674	-7	0	0
2017-09-20 12:56:58.806174	10	0	0
2017-09-20 12:56:58.808676	10	0	0
2017-09-20 12:56:58.811168	4	0	0
2017-09-20 12:56:58.813667	14	0	0
2017-09-20 12:56:58.816171	2	0	0
2017-09-20 12:56:58.818678	11	0	0
2017-09-20 12:56:58.821176	2	0	0
2017-09-20 12:56:58.823670	11	0	0
2017-09-20 12:56:58.826171	8	0	0
2017-09-20 12:56:58.828674	12	0	0
2017-09-20 12:56:58.831172	-3	0	0
2017-09-20 12:56:58.833670	6	0	0
2017-09-20 12:56:58.836174	-2	0	0
2017-09-20 12:56:58.838677	0	0	0
2017-09-20 12:56:58.841171	5	0	0
2017-09-20 12:56:58.843671	12	0	0
2017-09-20 12:56:58.846168	0	0	0
2017-09-20 12:56:58.848672	1	0	0
2017-09-20 12:56:58.851175	14	0	0
2017-09-20 12:56:58.853679	7	0	0
2017-09-20 12:56:58.856180	-4	0	0
2017-09-20 12:56:58.858684	12	0	0
2017-09-20 12:56:58.861180	3	0	0
2017-09-20 12:56:58.863682	-3	0	0
2017-09-20 12:56:58.866182	4	0	0
2017-09-20 12:56:58.868682	-9	0	0
2017-09-20 12:56:58.871183	-7	0	0
2017-09-20 12:56:58.873683	0	0	0
2017-09-20 12:56:58.876189	-9	0	0
2017-09-20 12:56:58.878686	-9	0	0
2017-09-20 12:56:58.881187	1	0	0
2017-09-20 12:56:58.883685	-5	0	0
2017-09-20 12:56:58.886185	-11	0	0
2017-09-20 12:56:58.888679	-12	0	0
2017-09-20 12:56:58.891181	-17	0	0
2017-09-20 12:56:58.893677	-22	0	0
2017-09-20 12:56:58.896176	-17	0	0
2017-09-20 12:56:58.898682	-26	0	0
2017-09-20 12:56:58.901179	-21	0	0
2017-09-20 12:56:58.903680	-18	0	0
2017-09-20 12:56:58.906181	-30	0	0
2017-09-20 12:56:58.908683	-17	0	0
2017-09-20 12:56:58.911170	-28	0	0
2017-09-20 12:56:58.913675	-27	0	0
2017-09-20 12:56:58.916176	-19	0	0
2017-09-20 12:56:58.918675	-30	0	0
2017-09-20 12:56:58.921179	-23	0	0
2017-09-20 12:56:58.923675	-23	0	0
2017-09-20 12:56:58.926175	-27	0	0
2017-09-20 12:56:58.928675	-20	0	0
2017-09-20 12:56:58.931172	-31	0	0
2017-09-20 12:56:58.933668	-19	0	0
2017-09-20 12:56:58.936164	-22	0	0
2017-09-20 12:56:58.938676	-24	0	0
2017-09-20 12:56:58.941175	-23	0	0
2017-09-20 12:56:58.943674	-33	0	0
2017-09-20 12:56:58.946177	-19	0	0
2017-09-20 12:56:58.948674	-26	0	0
2017-09-20 12:56:58.951171	-27	0	0
2017-09-20 12:56:58.953676	-25	0	0
2017-09-20 12:56:58.956178	-22	0	0
2017-09-20 12:56:58.958679	-37	0	0
2017-09-20 12:56:58.961183	-32	0	0
2017-09-20 12:56:58.963685	-30	0	0
2017-09-20 12:56:58.966190	-21	0	0
2017-09-20 12:56:58.968693	-32	0	0
2017-09-20 12:56:58.971194	-21	0	0
2017-09-20 12:56:58.973691	-32	0	0
2017-09-20 12:56:58.976190	-38	0	0
2017-09-20 12:56:58.978702	-15	0	0
2017-09-20 12:56:58.981197	-38	0	0
2017-09-20 12:56:58.983695	-26	0	0
2017-09-20 12:56:58.986195	-13	0	0
2017-09-20 12:56:58.988690	-28	0	0
2017-09-20 12:56:58.991187	-22	0	0
2017-09-20 12:56:58.993686	-17	0	0
2017-09-20 12:56:58.996187	-29	0	0
2017-09-20 12:56:58.998682	-28	0	0
2017-09-20 12:56:59.001177	-19	0	0
2017-09-20 12:56:59.003682	-33	0	0
2017-09-20 12:56:59.006177	-26	0	0
2017-09-20 12:56:59.008677	-15	0	0
2017-09-20 12:56:59.011177	-26	0	0
2017-09-20 12:56:59.013672	-22	0	0
2017-09-20 12:56:59.016167	-20	0	0
2017-09-20 12:56:59.018668	-11	0	0
2017-09-20 12:56:59.021170	-16	0	0
2017-09-20 12:56:59.023672	-15	0	0
2017-09-20 12:56:59.026172	-19	0	0
2017-09-20 12:56:59.028674	-8	0	0
2017-09-20 12:56:59.031174	-22	0	0
2017-09-20 12:56:59.033670	-17	0	0
2017-09-20 12:56:59.036165	-10	0	0
2017-09-20 12:56:59.038674	-13	0	0
2017-09-20 12:56:59.041176	-15	0	0
2017-09-20 12:56:59.043710	-10	0	0
2017-09-20 12:56:59.046183	0	0	0
2017-09-20 12:56:59.048691	-7	0	0
2017-09-20 12:56:59.051193	0	0	0
2017-09-20 12:56:59.053699	-2	0	0
2017-09-20 12:56:59.056199	0	0	0
2017-09-20 12:56:59.058707	-5	0	0
2017-09-20 12:56:59.061203	-4	0	0
2017-09-20 12:56:59.063703	0	0	0
2017-09-20 12:56:59.066215	6	0	0
2017-09-20 12:56:59.068714	1	0	0
2017-09-20 12:56:59.071211	0	0	0
2017-09-20 12:56:59.073710	10	0	0
2017-09-20 12:56:59.076214	4	0	0
2017-09-20 12:56:59.078711	18	0	0
2017-09-20 12:56:59.081212	3	0	0
2017-09-20 12:56:59.083709	12	0	0
2017-09-20 12:56:59.086212	14	0	0
2017-09-20 12:56:59.088710	17	0	0
2017-09-20 12:56:59.091209	7	0	0
2017-09-20 12:56:59.093708	13	0	0
2017-09-20 12:56:59.096207	2	0	0
2017-09-20 12:56:59.098714	23	0	0
2017-09-20 12:56:59.101208	11	0	0
2017-09-20 12:56:59.103704	14	0	0
2017-09-20 12:56:59.106213	11	0	0
2017-09-20 12:56:59.108707	14	0	0
2017-09-20 12:56:59.111203	1	0	0
2017-09-20 12:56:59.113703	4	0	0
2017-09-20 12:56:59.116210	7	0	0
2017-09-20 12:56:59.118712	-3	0	0
2017-09-20 12:56:59.121213	-2	0	0
2017-09-20 12:56:59.123707	14	0	0
2017-09-20 12:56:59.126211	4	0	0
2017-09-20 12:56:59.128711	-2	0	0
2017-09-20 12:56:59.131212	-3	0	0
2017-09-20 12:56:59.133715	3	0	0
2017-09-20 12:56:59.136213	1	0	0
2017-09-20 12:56:59.138715	-1	0	0
2017-09-20 12:56:59.141210	-7	0	0
2017-09-20 12:56:59.143709	-1	0	0
2017-09-20 12:56:59.146218	0	0	0
2017-09-20 12:56:59.148715	-14	0	0
2017-09-20 12:56:59.151213	-13	0	0
2017-09-20 12:56:59.153713	-10	0	0
2017-09-20 12:56:59.156220	-13	0	0
2017-09-20 12:56:59.158726	-15	0	0
2017-09-20 12:56:59.161231	-15	0	0
2017-09-20 12:56:59.163731	-9	0	0
2017-09-20 12:56:59.166230	-20	0	0
2017-09-20 12:56:59.168732	-18	0	0
2017-09-20 12:56:59.171231	-17	0	0
2017-09-20 12:56:59.173737	-20	0	0
2017-09-20 12:56:59.176235	-29	0	0
2017-09-20 12:56:59.178740	-24	0	0
2017-09-20 12:56:59.181237	-20	0	0
2017-09-20 12:56:59.183739	-18	0	0
2017-09-20 12:56:59.186240	-15	0	0
2017-09-20 12:56:59.188752	-19	0	0
2017-09-20 12:56:59.191249	-23	0	0
2017-09-20 12:56:59.193736	-30	0	0
2017-09-20 12:56:59.196233	-38	0	0
2017-09-20 12:56:59.198733	-23	0	0
2017-09-20 12:56:59.201232	-20	0	0
2017-09-20 12:56:59.203733	-20	0	0
2017-09-20 12:56:59.206230	-28	0	0
2017-09-20 12:56:59.208733	-31	0	0
2017-09-20 12:56:59.211233	-18	0	0
2017-09-20 12:56:59.213731	-28	0	0
2017-09-20 12:56:59.216228	-29	0	0
2017-09-20 12:56:59.218732	-26	0	0
2017-09-20 12:56:59.221230	-33	0	0
2017-09-20 12:56:59.223730	-17	0	0
2017-09-20 12:56:59.226233	-22	0	0
2017-09-20 12:56:59.228741	-26	0	0
2017-09-20 12:56:59.231230	-35	0	0
2017-09-20 12:56:59.233726	-26	0	0
2017-09-20 12:56:59.236227	-29	0	0
2017-09-20 12:56:59.238727	-31	0	0
2017-09-20 12:56:59.241219	-27	0	0
2017-09-20 12:56:59.243721	-25	0	0
2017-09-20 12:56:59.246216	-33	0	0
2017-09-20 12:56:59.248722	-22	0	0
2017-09-20 12:56:59.251227	-21	0	0
2017-09-20 12:56:59.253722	-30	0	0
2017-09-20 12:56:59.256215	-38	0	0
2017-09-20 12:56:59.258727	-22	0	0
2017-09-20 12:56:59.261220	-26	0	0
2017-09-20 12:56:59.263716	-24	0	0
2017-09-20 12:56:59.266217	-22	0	0
2017-09-20 12:56:59.268715	-21	0	0
2017-09-20 12:56:59.271214	-15	0	0
2017-09-20 12:56:59.273716	-27	0	0
2017-09-20 12:56:59.276214	-17	0	0
2017-09-20 12:56:59.278713	-19	0	0
2017-09-20 12:56:59.281218	-14	0	0
2017-09-20 12:56:59.283717	-15	0	0
2017-09-20 12:56:59.286217	-12	0	0
2017-09-20 12:56:59.288720	-8	0	0
2017-09-20 12:56:59.291221	-23	0	0
2017-09-20 12:56:59.293716	-5	0	0
2017-09-20 12:56:59.296211	-10	0	0
2017-09-20 12:56:59.298720	-7	0	0
2017-09-20 12:56:59.301216	-11	0	0
2017-09-20 12:56:59.303712	-10	0	0
2017-09-20 12:56:59.306221	-16	0	0
2017-09-20 12:56:59.308718	-13	0	0
2017-09-20 12:56:59.311206	-11	0	0
2017-09-20 12:56:59.313711	-5	0	0
2017-09-20 12:56:59.316216	-1	0	0
2017-09-20 12:56:59.318710	-22	0	0
2017-09-20 12:56:59.321210	7	0	0
2017-09-20 12:56:59.323711	-6	0	0
2017-09-20 12:56:59.326216	-3	0	0
2017-09-20 12:56:59.328718	-5	0	0
2017-09-20 12:56:59.331219	-7	0	0
2017-09-20 12:56:59.333724	-7	0	0
2017-09-20 12:56:59.336222	-3	0	0
2017-09-20 12:56:59.338732	-3	0	0
2017-09-20 12:56:59.341225	-1	0	0
2017-09-20 12:56:59.343719	0	0	0
2017-09-20 12:56:59.346223	-7	0	0
2017-09-20 12:56:59.348729	-7	0	0
2017-09-20 12:56:59.351232	0	0	0
2017-09-20 12:56:59.353735	3	0	0
2017-09-20 12:56:59.356235	5	0	0
2017-09-20 12:56:59.358743	-2	0	0
2017-09-20 12:56:59.361236	-6	0	0
2017-09-20 12:56:59.363731	4	0	0
2017-09-20 12:56:59.366228	3	0	0
2017-09-20 12:56:59.368728	7	0	0
2017-09-20 12:56:59.371230	-4	0	0
2017-09-20 12:56:59.373726	3	0	0
2017-09-20 12:56:59.376228	-1	0	0
2017-09-20 12:56:59.378735	2	0	0
2017-09-20 12:56:59.381221	3	0	0
2017-09-20 12:56:59.383726	9	0	0
2017-09-20 12:56:59.386224	8	0	0
2017-09-20 12:56:59.388731	-5	0	0
2017-09-20 12:56:59.391230	1	0	0
2017-09-20 12:56:59.393734	6	0	0
2017-09-20 12:56:59.396236	6	0	0
2017-09-20 12:56:59.398734	0	0	0
2017-09-20 12:56:59.401239	4	0	0
2017-09-20 12:56:59.403736	15	0	0
2017-09-20 12:56:59.406236	-3	0	0
2017-09-20 12:56:59.408741	3	0	0
2017-09-20 12:56:59.411240	1	0	0
2017-09-20 12:56:59.413737	0	0	0
2017-09-20 12:56:59.416242	1	0	0
2017-09-20 12:56:59.418753	0	0	0
2017-09-20 12:56:59.421246	-9	0	0
2017-09-20 12:56:59.423743	-3	0	0
2017-09-20 12:56:59.426244	2	0	0
2017-09-20 12:56:59.428748	-4	0	0
2017-09-20 12:56:59.431245	-6	0	0
2017-09-20 12:56:59.433751	-8	0	0
2017-09-20 12:56:59.436254	1	0	0
2017-09-20 12:56:59.438754	-5	0	0
2017-09-20 12:56:59.441246	-3	0	0
2017-09-20 12:56:59.443748	-8	0	0
2017-09-20 12:56:59.446250	-6	0	0
2017-09-20 12:56:59.448749	-11	0	0
2017-09-20 12:56:59.451251	-15	0	0
2017-09-20 12:56:59.453747	-8	0	0
2017-09-20 12:56:59.456249	-6	0	0
2017-09-20 12:56:59.458754	-10	0	0
2017-09-20 12:56:59.461251	-4	0	0
2017-09-20 12:56:59.463752	-10	0	0
2017-09-20 12:56:59.466249	-17	0	0
2017-09-20 12:56:59.468750	-26	0	0
2017-09-20 12:56:59.471252	-14	0	0
2017-09-20 12:56:59.473747	-19	0	0
2017-09-20 12:56:59.476251	-19	0	0
2017-09-20 12:56:59.478751	-24	0	0
2017-09-20 12:56:59.481244	-19	0	0
2017-09-20 12:56:59.483745	-25	0	0
2017-09-20 12:56:59.486250	-15	0	0
2017-09-20 12:56:59.488755	-33	0	0
2017-09-20 12:56:59.491251	-27	0	0
2017-09-20 12:56:59.493750	-24	0	0
2017-09-20 12:56:59.496253	-24	0	0
2017-09-20 12:56:59.498761	-18	0	0
2017-09-20 12:56:59.501257	-27	0	0
2017-09-20 12:56:59.503759	-26	0	0
2017-09-20 12:56:59.506264	-22	0	0
2017-09-20 12:56:59.508759	-28	0	0
2017-09-20 12:56:59.511256	-34	0	0
2017-09-20 12:56:59.513752	-29	0	0
2017-09-20 12:56:59.516258	-31	0	0
2017-09-20 12:56:59.518759	-27	0	0
2017-09-20 12:56:59.521254	-20	0	0
2017-09-20 12:56:59.523755	-24	0	0
2017-09-20 12:56:59.526258	-30	0	0
2017-09-20 12:56:59.528755	-17	0	0
2017-09-20 12:56:59.531261	-23	0	0
2017-09-20 12:56:59.533759	-26	0	0
2017-09-20 12:56:59.536253	-25	0	0
2017-09-20 12:56:59.538759	-15	0	0
2017-09-20 12:56:59.541253	-24	0	0
2017-09-20 12:56:59.543750	-21	0	0
2017-09-20 12:56:59.546254	-18	0	0
2017-09-20 12:56:59.548761	-13	0	0
2017-09-20 12:56:59.551262	-21	0	0
2017-09-20 12:56:59.553756	-20	0	0
2017-09-20 12:56:59.556261	-12	0	0
2017-09-20 12:56:59.558764	-12	0	0
2017-09-20 12:56:59.561260	-16	0	0
2017-09-20 12:56:59.563765	-6	0	0
2017-09-20 12:56:59.566269	-10	0	0
2017-09-20 12:56:59.568768	-4	0	0
2017-09-20 12:56:59.571262	-19	0	0
2017-09-20 12:56:59.573760	-17	0	0
2017-09-20 12:56:59.576260	-9	0	0
2017-09-20 12:56:59.578764	-14	0	0
2017-09-20 12:56:59.581260	-14	0	0
2017-09-20 12:56:59.583760	-13	0	0
2017-09-20 12:56:59.586257	-10	0	0
2017-09-20 12:56:59.588761	-13	0	0
2017-09-20 12:56:59.591248	-10	0	0
2017-09-20 12:56:59.593751	-10	0	0
2017-09-20 12:56:59.596248	-6	0	0
2017-09-20 12:56:59.598747	-13	0	0
2017-09-20 12:56:59.601240	-3	0	0
2017-09-20 12:56:59.603739	-7	0	0
2017-09-20 12:56:59.606244	-6	0	0
2017-09-20 12:56:59.608749	-6	0	0
2017-09-20 12:56:59.611246	-9	0	0
2017-09-20 12:56:59.613752	-1	0	0
2017-09-20 12:56:59.616247	-7	0	0
2017-09-20 12:56:59.618750	-1	0	0
2017-09-20 12:56:59.621243	-1	0	0
2017-09-20 12:56:59.623741	-6	0	0
2017-09-20 12:56:59.626248	-4	0	0
2017-09-20 12:56:59.628761	-1	0	0
2017-09-20 12:56:59.631255	-8	0	0
2017-09-20 12:56:59.633758	2	0	0
2017-09-20 12:56:59.636256	2	0	0
2017-09-20 12:56:59.638752	6	0	0
2017-09-20 12:56:59.641256	-4	0	0
2017-09-20 12:56:59.643755	1	0	0
2017-09-20 12:56:59.646256	-4	0	0
2017-09-20 12:56:59.648751	-1	0	0
2017-09-20 12:56:59.651254	-7	0	0
2017-09-20 12:56:59.653748	-1	0	0
2017-09-20 12:56:59.656252	-2	0	0
2017-09-20 12:56:59.658745	-1	0	0
2017-09-20 12:56:59.661241	-1	0	0
2017-09-20 12:56:59.663736	-3	0	0
2017-09-20 12:56:59.666240	-3	0	0
2017-09-20 12:56:59.668735	-7	0	0
2017-09-20 12:56:59.671232	-7	0	0
2017-09-20 12:56:59.673726	1	0	0
2017-09-20 12:56:59.676225	-7	0	0
2017-09-20 12:56:59.678726	-7	0	0
2017-09-20 12:56:59.681229	3	0	0
2017-09-20 12:56:59.683732	-15	0	0
2017-09-20 12:56:59.686236	-17	0	0
2017-09-20 12:56:59.688733	-10	0	0
2017-09-20 12:56:59.691235	-13	0	0
2017-09-20 12:56:59.693732	-11	0	0
2017-09-20 12:56:59.696236	-7	0	0
2017-09-20 12:56:59.698741	-10	0	0
2017-09-20 12:56:59.701240	-15	0	0
2017-09-20 12:56:59.703746	-20	0	0
2017-09-20 12:56:59.706249	-10	0	0
2017-09-20 12:56:59.708747	-6	0	0
2017-09-20 12:56:59.711245	-22	0	0
2017-09-20 12:56:59.713744	-17	0	0
2017-09-20 12:56:59.716248	-12	0	0
2017-09-20 12:56:59.718745	-22	0	0
2017-09-20 12:56:59.721242	-27	0	0
2017-09-20 12:56:59.723738	-11	0	0
2017-09-20 12:56:59.726239	-14	0	0
2017-09-20 12:56:59.728734	-7	0	0
2017-09-20 12:56:59.731236	-12	0	0
2017-09-20 12:56:59.733735	-15	0	0
2017-09-20 12:56:59.736237	-15	0	0
2017-09-20 12:56:59.738745	-11	0	0
2017-09-20 12:56:59.741239	-10	0	0
2017-09-20 12:56:59.743733	-14	0	0
2017-09-20 12:56:59.746232	-11	0	0
2017-09-20 12:56:59.748735	-19	0	0
2017-09-20 12:56:59.751235	-11	0	0
2017-09-20 12:56:59.753742	-9	0	0
2017-09-20 12:56:59.756236	-18	0	0
2017-09-20 12:56:59.758741	-5	0	0
2017-09-20 12:56:59.761242	-13	0	0
2017-09-20 12:56:59.763737	-1	0	0
2017-09-20 12:56:59.766239	-13	0	0
2017-09-20 12:56:59.768746	-13	0	0
2017-09-20 12:56:59.771244	-7	0	0
2017-09-20 12:56:59.773743	-16	0	0
2017-09-20 12:56:59.776243	-6	0	0
2017-09-20 12:56:59.778749	-10	0	0
2017-09-20 12:56:59.781242	-19	0	0
2017-09-20 12:56:59.783744	-13	0	0
2017-09-20 12:56:59.786250	-16	0	0
2017-09-20 12:56:59.788751	-15	0	0
2017-09-20 12:56:59.791247	-18	0	0
2017-09-20 12:56:59.793753	-12	0	0
2017-09-20 12:56:59.796252	-5	0	0
2017-09-20 12:56:59.798753	-18	0	0
2017-09-20 12:56:59.801255	-21	0	0
2017-09-20 12:56:59.803761	-21	0	0
2017-09-20 12:56:59.806262	-14	0	0
2017-09-20 12:56:59.808763	-15	0	0
2017-09-20 12:56:59.811268	-14	0	0
2017-09-20 12:56:59.813779	-15	0	0
2017-09-20 12:56:59.816274	-13	0	0
2017-09-20 12:56:59.818778	-15	0	0
